[{
	"id":"001",
	"SID":"0001",
	"TYPE":1,
	"DEADLINE":10.2,
	"SHIPTO":"",
	"WEIGHT":2000.7,
	"VOLUME":100.3,
	"titlecheckbox":"",
	"title":["001","002","003","很多1"]
},{
	"WEIGHT":1800,
	"VOLUME":460,
	"id":"002",
	"titlecheckbox":"",
	"title":["ddd1","aaa2","aaa3","aaa4","aaa5","aaa6","aaa7"]
},{
	"id":"003",
	"titlecheckbox":"",
	"title":["bbb1","bbb2","bbb3","bbb4","bbb5","bbb6","bbb7"]
},{
	"id":"004",
	"titlecheckbox":"",
	"title":["ccc1","ccc2","ccc3","ccc4","ccc5","ccc6","ccc7"]
},{
	"id":"005",
	"titlecheckbox":"",
	"title":["ddd1","ddd2","ddd3","ddd4","ddd5","ddd6","ddd7"]
},{
	"id":"006",
	"titlecheckbox":"",
	"title":["eee1","eee2","eee3","eee4","eee5","eee6","eee7"]
},{
	"id":"007",
	"titlecheckbox":"",
	"type":1,
	"title":["q1","w2","e3","r4","t5","y7","u6","我是异步加载"]
}]