{
	"rows": [
		{"ID":1,"BOLID":"B100000001","SHIPTO":"BJ","PROGRESS":0,"DEADLINE":24,"STATUS":"INIT","APPOINTMENTNO":["A11","A22"]},
		{"ID":2,"BOLID":"B100000002","SHIPTO":"BJ","PROGRESS":0.18,"DEADLINE":24,"APPOINTMENTNO":["A33","A44"]},
		{"ID":3,"BOLID":"B100000001","SHIPTO":"BJ","PROGRESS":0,"DEADLINE":24,"STATUS":"INIT","APPOINTMENTNO":["A11","A22"]},
		{"ID":4,"BOLID":"B100000002","SHIPTO":"BJ","PROGRESS":0.18,"DEADLINE":24,"APPOINTMENTNO":["A33","A44"]},
		{"ID":5,"BOLID":"B100000001","SHIPTO":"BJ","PROGRESS":0,"DEADLINE":24,"STATUS":"INIT","APPOINTMENTNO":["A11","A22"]},
		{"ID":6,"BOLID":"B100000002","SHIPTO":"BJ","PROGRESS":0.18,"DEADLINE":24,"APPOINTMENTNO":["A33","A44"]},
		{"ID":7,"BOLID":"B100000001","SHIPTO":"BJ","PROGRESS":0,"DEADLINE":24,"STATUS":"INIT","APPOINTMENTNO":["A11","A22"]},
		{"ID":8,"BOLID":"B100000002","SHIPTO":"BJ","PROGRESS":0.18,"DEADLINE":24,"APPOINTMENTNO":["A33","A44"]},
		{"ID":9,"BOLID":"B100000001","SHIPTO":"BJ","PROGRESS":0,"DEADLINE":24,"STATUS":"INIT","APPOINTMENTNO":["A11","A22"]},
		{"ID":10,"BOLID":"B100000002","SHIPTO":"BJ","PROGRESS":0.18,"DEADLINE":24,"APPOINTMENTNO":["A33","A44"]},
		{"ID":11,"BOLID":"B100000001","SHIPTO":"BJ","PROGRESS":0,"DEADLINE":24,"STATUS":"INIT","APPOINTMENTNO":["A11","A22"]},
		{"ID":12,"BOLID":"B100000002","SHIPTO":"BJ","PROGRESS":0.18,"DEADLINE":24,"APPOINTMENTNO":["A33","A44"]},
		{"ID":13,"BOLID":"B100000001","SHIPTO":"BJ","PROGRESS":0,"DEADLINE":24,"STATUS":"INIT","APPOINTMENTNO":["A11","A22"]},
		{"ID":14,"BOLID":"B100000002","SHIPTO":"BJ","PROGRESS":0.18,"DEADLINE":24,"APPOINTMENTNO":["A33","A44"]}
	]
}