{
	"AUTHS" : [{"SOID":"SO123","BTN_CLOSE":true,"BTN_ADDDETAIL":true,"BTN_CREATEAPPMT":true,"BTN_CREATEBOL":true},{"SOID":"SO122"}],
	"PAGECTRL" : {
		"pageSize" : 9,
		"pageNo" : 1,
		"allCount" : 16,
		"pageCount" : 2,
		"rowCount" : 9,
		"fornt" : false,
		"last" : true,
		"first" : false,
		"next" : true
	},
	"DATA" : [
		{
			"SOID":"SO123","STATUS":"Init","PROGRESS":0,
			"SHIPTO":"100000","DEADLINE":"24","PALLETSCNT":"2","PACKAGECNT":"11",
			"WEIGHT":2000,"WEIGHTUNIT":"Kg","VOLUME":100000,"VOLUMEUNIT":"cm³","MABD":1415928733000,
			"CREATEBY":"admin","CREATETIME":1415928733000
		},
		{"SOID":"SO122","STATUS":"Loading","PROGRESS": 20,"SHIPTO":"100000","DEADLINE":"20","PALLETSCNT":"0","PACKAGECNT":"0","WEIGHT":2000,"WEIGHTUNIT":"Kg","VOLUME":100000,"VOLUMEUNIT":"cm³","MABD":1415928733000}
	]
}