[
	{"data":"10000","id":10000,"isParent":true,"isSubitme":true,"name":"总经理","pId":""},
	{"data":"1000001","id":1000001,"isParent":true,"isSubitme":false,"name":"Check In","pId":""},
	{"data":"1000002","id":1000002,"isParent":true,"isSubitme":false,"name":"Warehouse","pId":""},
	{"data":"100025","id":"10000-100025","name":"韩龙","pId":"10000"},
	{"data":"100051","id":"10000-100051","name":"韩飞","pId":"10000"},
	{"data":"100198","id":"10000-100198","name":"系统管理员","pId":"10000"},
	{"data":"100228","id":"10000-100228","name":"詹洁","pId":"10000"},
	{"data":"100261","id":"10000-100261","name":"张骅","pId":"10000"}
]