[{"data":"1","id":"1","isParent":true,"isSubitme":true,"name":"Target PS","pId":""},
{"data":"1000005","id":"1-1000005","name":"V","pId":"1"},
{"data":"100000","id":"1-100000","name":"BJ","pId":"1"},
{"data":"100006","id":"1-100006","name":"GZ","pId":"1"},
{"data":"100043","id":"1-100043","name":"LA","pId":"1"},
{"data":"100197","id":"1-100197","name":"BS","pId":"1"},
{"data":"100203","id":"1-100203","name":"PA","pId":"1"},
{"data":"1000002","id":"1-1000002","name":"张睿客服仓库","pId":"1"}]