{
    "AUTHS": [
        {
            "INDEX": 0,
            "BUTTON_DECLARATION": true,
            "ID": 1000084,
            "BUTTON_CLEARANCE": true,
            "BUTTON_STOCK_IN_SET": true,
            "BUTTON_FOLLOWUP": true
        },
        {
            "INDEX": 1,
            "BUTTON_DECLARATION": true,
            "ID": 1000083,
            "BUTTON_CLEARANCE": true,
            "BUTTON_STOCK_IN_SET": true,
            "BUTTON_FOLLOWUP": true,
            "BUTTON_CERTIFICATE": true
        }
    ],
    "PAGECTRL": {
        "pageSize": 10,
        "pageNo": 1,
        "allCount": 2,
        "pageCount": 1,
        "rowCount": 2,
        "next": false,
        "last": false,
        "first": false,
        "fornt": false
    },
    "DATA": [
        {
            "TAG_THIRD": 2,
            "UPDATEBY": 100198,
            "DECLARATION_OVER": 9.9,
            "REMARK": "test",
            "CONTAINER_COUNT": 0,
            "SEND_STREET": "Green Homeland,Chao Yang District",
            "DELIVER_ZIP_CODE": "511442",
            "LOGS": [
                {
                    "TRANSPORT_DATE": 1415100687000,
                    "TRANSPORT_ID": 1000084,
                    "TRANSPORT_TYPE": 3,
                    "ADMINNAME": "系统管理员",
                    "TRANSPORT_CONTENT": "转运单设置运费:单号1000084",
                    "FOLLOWUPTYPE": "修改记录",
                    "TRANSPORTER": "系统管理员",
                    "TRANSPORTER_ID": 100198,
                    "LOGS_ID": 1000762
                },
                {
                    "TRANSPORT_DATE": 1415100504000,
                    "TRANSPORT_ID": 1000084,
                    "TRANSPORT_TYPE": 3,
                    "ADMINNAME": "系统管理员",
                    "TRANSPORT_CONTENT": "转运单设置运费:单号1000084",
                    "FOLLOWUPTYPE": "修改记录",
                    "TRANSPORTER": "系统管理员",
                    "TRANSPORTER_ID": 100198,
                    "LOGS_ID": 1000761
                },
                {
                    "TRANSPORT_DATE": 1415100495000,
                    "TRANSPORT_ID": 1000084,
                    "TRANSPORT_TYPE": 3,
                    "ADMINNAME": "系统管理员",
                    "TRANSPORT_CONTENT": "转运单设置运费:单号1000084",
                    "FOLLOWUPTYPE": "修改记录",
                    "TRANSPORTER": "系统管理员",
                    "TRANSPORTER_ID": 100198,
                    "LOGS_ID": 1000760
                }
            ],
            "DELIVER_CITY": "广州",
            "TARGET_PS_TYPE": 0,
            "SEND_PSID": 100000,
            "SEND_CITY": "BeiJing",
            "DELIVER_CCID": 11004,
            "TRANSPORT_SENDPRICE_UNIT": "RMB",
            "DELIVER_PRO_ID": 1004,
            "TRANSPORT_VOLUME": 1721050,
            "DECLARATION": 4,
            "FROM_PS_TYPE": 1,
            "CARRIERS": "FEDEX",
            "PRODUCT_FILE": 2,
            "CERTIFICATE": 2,
            "CREATE_ACCOUNT": "系统管理员",
            "SEND_PSNAME": "BJ",
            "TAG_THIRD_RESPONSIBLE": 1,
            "STOCK_IN_SET_RESPONSIBLE": 1,
            "OPERATION_TYPE": 1,
            "DELIVER_HOUSE_NUMBER": "五号仓库",
            "TRANSPORT_RECEIVE_DATE": 1408982400000,
            "FLOWS": [
                {
                    "TYPENAME": "货物状态",
                    "STATUS": "5",
                    "TYPE": 4,
                    "EMPLOYE_NAMES": "系统管理员 "
                },
                {
                    "TYPENAME": "运费流程",
                    "STATUS": "2",
                    "TYPE": 5,
                    "EMPLOYE_NAMES": "系统管理员 "
                },
                {
                    "TYPENAME": "进口清关",
                    "STATUS": "2",
                    "TYPE": 6,
                    "EMPLOYE_NAMES": "系统管理员 詹洁 "
                },
                {
                    "SUM_FILE": 1,
                    "TYPENAME": "出口报关",
                    "STATUS": "4",
                    "TYPE": 7,
                    "EMPLOYE_NAMES": "系统管理员 詹洁 "
                },
                {
                    "SUM_FILE": 1,
                    "TYPENAME": "单证流程",
                    "STATUS": "2",
                    "TYPE": 9,
                    "EMPLOYE_NAMES": "系统管理员 "
                }
            ],
            "DECLARATION_RESPONSIBLE": 1,
            "TRANSPORT_LINKMAN": "陈明平/何中华",
            "TRANSPORT_DATE": 1409049034000,
            "TRANSPORT_VOLUME_UNIT": "cm³",
            "QUALITY_INSPECTION": 2,
            "TRANSPORT_SUM_PRICE": 611,
            "TAG_RESPONSIBLE": 1,
            "ADDRESS_STATE_SEND": "",
            "RECEIVE_PSID": 100006,
            "DRAWBACK": 1,
            "TRANSPORT_LINKMAN_PHONE": "+86 18102709270",
            "ADDRESS_STATE_DELIVER": "",
            "TRANSPORT_WEIGHT_UNIT": "Kg",
            "TRANSPORT_WEIGHT": 279.2,
            "CLEARANCE_RESPONSIBLE": 1,
            "CERTIFICATE_RESPONSIBLE": 2,
            "UPDATEDATE": 1415100687000,
            "TRANSPORT_ID": 1000084,
            "APPLYMONEYS": [
                {
                    "STANDARD_MONEY": 111,
                    "CREATE_TIME": 1415030400000,
                    "PAYEE_ID": 0,
                    "ITEM_FREIGHTCOSTSTR": "",
                    "REMARK": "",
                    "CREATER_ID": 100198,
                    "ASSOCIATION_ID": 1000084,
                    "STATUS": 0,
                    "AMOUNT": 111,
                    "CENTER_ACCOUNT_ID": 0,
                    "LAST_TIME": 1415894400000,
                    "PAYMENT_INFORMATION": "",
                    "CENTER_ACCOUNT_TYPE_ID": 1,
                    "ITEM_STOCKSTATUSNAME": "凭证未提交",
                    "TYPES": 10015,
                    "CREATER": "系统管理员",
                    "CURRENCY": "RMB",
                    "ASSOCIATION_TYPE_ID": 6,
                    "CENTER_ACCOUNT_TYPE1_ID": 0,
                    "PAYEE_TYPE_ID": 0,
                    "PAYEE": "111",
                    "PAYEE_TYPE1_ID": 0,
                    "AMOUNT_TRANSFER": 0,
                    "APPLY_ID": 1000002
                }
            ],
            "SEND_NAME": "HuiMin Duan",
            "SEND_ZIP_CODE": "100107",
            "SEND_LINKMAN_PHONE": "+86 10 84827066",
            "TRANSPORTBY": 4,
            "SEND_CCID": 11004,
            "TRANSPORT_WAYBILL_NUMBER": "",
            "PUT_STATUS": 1,
            "STOCK_IN_SET": 2,
            "TRANSPORT_SENDPRICE": 0,
            "TITLE_NAME": "EBAY",
            "TRANSPORT_SUM_PRICE_UNIT": "RMB",
            "RECEIVE_PSNAME": "GZ",
            "TRANSPORT_STATUS": 5,
            "TAG": 2,
            "TRANSPORT_SEND_PLACE": "CHINA CITY",
            "DELIVER_STREET": "番禺区南村镇员岗村顺意坊大道东路",
            "QUALITY_INSPECTION_RESPONSIBLE": 1,
            "CREATE_ACCOUNT_ID": 100198,
            "TRANSPORT_RECEIVE_PLACE": "VVME-PA",
            "FR_ID": 31,
            "TITLE_ID": 18,
            "TRANSPORT_ADDRESS": "",
            "PRODUCT_FILE_RESPONSIBLE": 1,
            "PKCOUNT": 1,
            "CLEARANCE": 2,
            "UPDATENAME": "系统管理员",
            "SEND_HOUSE_NUMBER": "Room 804 Building C7Media Village",
            "SEND_PRO_ID": 1000,
            "PURCHASE_ID": 0,
            "TRANSPORT_WAYBILL_NAME": "FEDEX"
        },
        {
            "TAG_THIRD": 2,
            "UPDATEBY": 100198,
            "REMARK": "LY_TEST",
            "CONTAINER_COUNT": 0,
            "SEND_STREET": "Green Homeland,Chao Yang District",
            "DELIVER_ZIP_CODE": "100107",
            "LOGS": [
                {
                    "TRANSPORT_DATE": 1409048411000,
                    "TRANSPORT_ID": 1000083,
                    "ACTIVITY_ID": 2,
                    "TRANSPORT_TYPE": 11,
                    "ADMINNAME": "系统管理员",
                    "TRANSPORT_CONTENT": "创建转运单1000083[需要质检]",
                    "FOLLOWUPTYPE": "质检流程",
                    "TRANSPORTER": "系统管理员",
                    "TRANSPORTER_ID": 100198,
                    "LOGS_ID": 1000637
                },
                {
                    "TRANSPORT_DATE": 1409048410000,
                    "TRANSPORT_ID": 1000083,
                    "ACTIVITY_ID": 2,
                    "TRANSPORT_TYPE": 9,
                    "ADMINNAME": "系统管理员",
                    "TRANSPORT_CONTENT": "创建转运单1000083[单证采集中]",
                    "FOLLOWUPTYPE": "单证流程",
                    "TRANSPORTER": "系统管理员",
                    "TRANSPORTER_ID": 100198,
                    "LOGS_ID": 1000636
                },
                {
                    "TRANSPORT_DATE": 1409048410000,
                    "TRANSPORT_ID": 1000083,
                    "ACTIVITY_ID": 2,
                    "TRANSPORT_TYPE": 5,
                    "ADMINNAME": "系统管理员",
                    "TRANSPORT_CONTENT": "创建转运单1000083[需要运费]",
                    "FOLLOWUPTYPE": "运费流程",
                    "TRANSPORTER": "系统管理员",
                    "TRANSPORTER_ID": 100198,
                    "LOGS_ID": 1000635
                }
            ],
            "DELIVER_CITY": "北京",
            "TARGET_PS_TYPE": 0,
            "SEND_PSID": 100000,
            "SEND_CITY": "BeiJing",
            "DELIVER_CCID": 11004,
            "TRANSPORT_SENDPRICE_UNIT": "RMB",
            "DELIVER_PRO_ID": 1000,
            "TRANSPORT_VOLUME": 516315,
            "DECLARATION": 2,
            "FROM_PS_TYPE": 1,
            "CARRIERS": "liuyi货运",
            "PRODUCT_FILE": 2,
            "CERTIFICATE": 2,
            "CREATE_ACCOUNT": "系统管理员",
            "SEND_PSNAME": "BJ",
            "TAG_THIRD_RESPONSIBLE": 1,
            "STOCK_IN_SET_RESPONSIBLE": 1,
            "OPERATION_TYPE": 1,
            "DELIVER_HOUSE_NUMBER": "C7 804",
            "TRANSPORT_RECEIVE_DATE": 1409241600000,
            "FLOWS": [
                {
                    "TYPENAME": "货物状态",
                    "STATUS": "5",
                    "TYPE": 4,
                    "EMPLOYE_NAMES": "系统管理员 "
                },
                {
                    "TYPENAME": "运费流程",
                    "STATUS": "2",
                    "TYPE": 5,
                    "EMPLOYE_NAMES": "系统管理员 "
                },
                {
                    "TYPENAME": "进口清关",
                    "STATUS": "2",
                    "TYPE": 6,
                    "EMPLOYE_NAMES": "系统管理员 "
                },
                {
                    "TYPENAME": "出口报关",
                    "STATUS": "2",
                    "TYPE": 7,
                    "EMPLOYE_NAMES": "系统管理员 "
                },
                {
                    "TYPENAME": "单证流程",
                    "STATUS": "2",
                    "TYPE": 9,
                    "EMPLOYE_NAMES": "系统管理员 "
                }
            ],
            "DECLARATION_RESPONSIBLE": 1,
            "TRANSPORT_LINKMAN": "段慧敏",
            "TRANSPORT_DATE": 1409048408000,
            "TRANSPORT_VOLUME_UNIT": "cm³",
            "QUALITY_INSPECTION": 2,
            "TRANSPORT_SUM_PRICE": 0,
            "TAG_RESPONSIBLE": 1,
            "ADDRESS_STATE_SEND": "",
            "RECEIVE_PSID": 100000,
            "DRAWBACK": 1,
            "TRANSPORT_LINKMAN_PHONE": "+86 10 84827066",
            "ADDRESS_STATE_DELIVER": "",
            "TRANSPORT_WEIGHT_UNIT": "Kg",
            "TRANSPORT_WEIGHT": 83.76,
            "CLEARANCE_RESPONSIBLE": 1,
            "CERTIFICATE_RESPONSIBLE": 1,
            "UPDATEDATE": 1409048411000,
            "TRANSPORT_ID": 1000083,
            "APPLYMONEYS": [],
            "SEND_NAME": "HuiMin Duan",
            "SEND_ZIP_CODE": "100107",
            "SEND_LINKMAN_PHONE": "+86 10 84827066",
            "TRANSPORTBY": 3,
            "SEND_CCID": 11004,
            "TRANSPORT_WAYBILL_NUMBER": "",
            "PUT_STATUS": 1,
            "STOCK_IN_SET": 2,
            "TRANSPORT_SENDPRICE": 0,
            "TITLE_NAME": "EBAY",
            "TRANSPORT_SUM_PRICE_UNIT": "RMB",
            "RECEIVE_PSNAME": "BJ",
            "TRANSPORT_STATUS": 4,
            "TAG": 2,
            "TRANSPORT_SEND_PLACE": "北京",
            "DELIVER_STREET": "朝阳区绿色媒体家园天畅园",
            "QUALITY_INSPECTION_RESPONSIBLE": 1,
            "CREATE_ACCOUNT_ID": 100198,
            "TRANSPORT_RECEIVE_PLACE": "南京",
            "FR_ID": 33,
            "TITLE_ID": 18,
            "TRANSPORT_ADDRESS": "",
            "PRODUCT_FILE_RESPONSIBLE": 1,
            "PKCOUNT": 1,
            "CLEARANCE": 2,
            "UPDATENAME": "系统管理员",
            "SEND_HOUSE_NUMBER": "Room 804 Building C7Media Village",
            "SEND_PRO_ID": 1000,
            "PURCHASE_ID": 0,
            "TRANSPORT_WAYBILL_NAME": "liuyi货运"
        }
    ]
}