[{
	"children": [{
		"ico": "",
		"id": "001",
		"title": "菜单查找",
		"url": "/Sync10-ui/lib/Navigation_Search/"
	}],
	"ico": "fa-paper-plane-o",
	"id": "01",
	"title": "导航类",
	"url": "#4"
},
{
	"children": [{
		"ico": "fa-paypal",
		"id": "020",
		"title": "Pallets局部控件",
		"url": "/Sync10-ui/lib/PalletsControls/"
	},
	{
		"ico": "",
		"id": "021",
		"title": "类似checkin局部控件",
		"url": "/Sync10-ui/lib/fieldsetControls/"
	},
	{
		"ico": "",
		"id": "022",
		"title": "列表控件CompondList",
		"url": "/Sync10-ui/lib/CompondList/demo/"
	},
	{
		"ico": "",
		"id": "023",
		"title": "库过滤查找",
		"url": "/Sync10-ui/lib/InventoryControls/"
	}],
	"ico": "fa-th",
	"id": "02",
	"title": "局部输出",
	"url": "#4"
},{
	"children": [{
		"ico": "fa-upload",
		"id": "041",
		"title": "jqupload-bower安装版",
		"url": "/Sync10-ui/lib/jquery-file-upload-extension/"
	}],
	"ico": "fa-arrow-circle-up",
	"id": "04",
	"title": "上传类",
	"url": "#4"
},{
	"children": [
		{
		"ico": "fa-code-fork",
		"id": "066",
		"title": "画布连线树1",
		"url": "/Sync10-ui/lib/stateChart_Controls/"
	},{
		"ico": "fa-sitemap",
		"id": "067",
		"title": "画布连线树2",
		"url": "/Sync10-ui/lib/stateChart_Controls/index1.html"
	},{
		"ico": "fa-indent",
		"id": "068",
		"title": "列表折叠",
		"url": "/Sync10-ui/lib/Paperfold/"
	},
	{
		"ico": "fa-puzzle-piece",
		"id": "069",
		"title": "图形树1",
		"url": "/Sync10-ui/lib/graph_tree/"
	},{
		"ico": "fa-circle",
		"id": "070",
		"title": "血细胞树",
		"url": "/Sync10-ui/lib/graph_tree/index2.html"
	},
	{
		"ico": "fa-codepen",
		"id": "071",
		"title": "3D货架",
		"url": "/Sync10-ui/lib/3d_shelves/"
	},{
		"ico": "fa-codepen",
		"id": "071",
		"title": "3D感应翻转",
		"url": "/Sync10-ui/lib/css3.0_demo/3DShadingWithBoxShadows/"
	},{
		"ico": "fa-delicious",
		"id": "072",
		"title": "2D感应翻转",
		"url": "/Sync10-ui/lib/css3.0_demo/css-3d-transforms/"
	},{
		"ico": "fa-codepen",
		"id": "072",
		"title": "3D四反向盒子",
		"url": "/Sync10-ui/lib/css3.0_demo/css-3D-image-slider/"
	},{
		"ico": "fa-slideshare",
		"id": "072",
		"title": "2D显示隐藏技巧",
		"url": "/Sync10-ui/lib/css3.0_demo/CircleHoverEffects/"
	},{
		"ico": "fa-delicious",
		"id": "072",
		"title": "考虑替换dialog不错",
		"url": "/Sync10-ui/lib/css3.0_demo/ExpandingOverlayEffect/"
	},{
		"ico": "fa-delicious",
		"id": "073",
		"title": "放大缩小控件Magnifier",
		"url": "/Sync10-ui/lib/css3.0_demo/ExpandingOverlayEffect/index4.html"
	}],
	"ico": "fa-sun-o",
	"id": "04",
	"title": "局部特效",
	"url": "#7"
},{
	"children": [{
		"ico": "",
		"id": "031",
		"title": "输入框联想",
		"url": "/Sync10-ui/lib/immybox-master/demo/"
	}, {
		"ico": "",
		"id": "032",
		"title": "树静态和异步查找",
		"url": "/Sync10-ui/lib/AsynLoadQueryTree/"
	}, {
		"ico": "",
		"id": "033",
		"title": "select2+滚动效果",
		"url": "/Sync10-ui/lib/bootstrap-datetimepicker-plus/index2.html"
	}],
	"ico": "fa-binoculars",
	"id": "03",
	"title": "select选择查找",
	"url": "#4"
},{
	"children": [{
		"ico": "",
		"id": "051",
		"title": "右下脚聊天窗口",
		"url": "/Sync10-ui/lib/Miniwindow/"
	},{
		"ico": "",
		"id": "052",
		"title": "窗口从右边滑出",
		"url": "/Sync10-ui/lib/slidePanel/"
	}],
	"ico": "fa-comment-o",
	"id": "04",
	"title": "对话窗口类",
	"url": "#5"
},{
	"children": [{
		"ico": "",
		"id": "01",
		"title": "Outbound/Inbound日期概览",
		"url": "/Sync10-ui/lib/fullcalendar/"
	},
    {
		"ico": "",
		"id": "01",
		"title": "bootstrap-datetimepicker",
		"url": "/Sync10-ui/lib/bootstrap-datetimepicker-plus"
	}
	],
	"ico": "fa-calendar",
	"id": "05",
	"title": "日期类",
	"url": "#5"
},{
	"children": [{
		"ico": "",
		"id": "01",
		"title": "流媒体播放控件",
		"url": "/Sync10-ui/lib/videolanrtsp/"
	}],
	"ico": "fa-video-camera",
	"id": "06",
	"title": "播放类工具",
	"url": "#6"
},{
	"children": [{
		"ico": "",
		"id": "01",
		"title": "权限验证",
		"url": "/Sync10-ui/lib/Useraccesscontrol/"
	}],
	"ico": "fa-sitemap",
	"id": "09",
	"title": "权限类工具",
	"url": "#9"
},{
	"children": [{
		"ico": "",
		"id": "041",
		"title": "进度条效果",
		"url": "/Sync10-ui/lib/nprogress/"
	},{
		"ico": "fa-share-alt",
		"id": "042",
		"title": "dialog一些兼容",
		"url": "/Sync10-ui/lib/dialog_Compatible/"
	},{
		"ico": "fa-cubes",
		"id": "043",
		"title": "bootstrap三方扩展",
		"url": "chain.html"
	}],
	"ico": "fa-umbrella",
	"id": "04",
	"title": "其它类",
	"url": "#4"
}]

