{
	"total" : "1",
	"rows" : [{
		"B2B_BACKUP_COUNT" : 0,
		"B2B_COUNT" : 84,
		"B2B_DELIVERY_COUNT" : 84,
		"B2B_DETAIL_ID" : 13854,
		"B2B_NORMAL_COUNT" : 0,
		"B2B_OID" : 3746,
		"B2B_PC_ID" : 0,
		"B2B_P_CODE" : "10241010045/E480-B2",
		"B2B_P_NAME" : "E480-B2",
		"B2B_REAP_COUNT" : 0,
		"B2B_SEND_COUNT" : 0,
		"B2B_UNION_COUNT" : 0,
		"B2B_VOLUME" : 0,
		"B2B_WEIGHT" : 36.12,
		"BLP_TYPE_ID" : 0,
		"BOXES" : 84,
		"CLP_TYPE_ID" : 0,
		"CONFIG_CHANGE" : 0,
		"INTERNAL_COST" : "30135.00",
		"ITEM_ID" : "E480-B2",
		"MATERIAL_NUMBER" : "10241010045",
		"NEW_MULTIPLIER" : "0.00",
		"PALLET_SPACES" : "4.00",
		"PINWHEEL" : "Pinwheel",
		"SLOC" : 2124,
		"TOTAL_WEIGHT" : "3034.00",
		"TRAILER_FEET" : "8.00000"
	}],
	"records": "1"
}
