[{
	"ps_id": 100000,
	"title": "BJ"
}, {
	"ps_id": 100006,
	"title": "GZ"
}, {
	"ps_id": 100043,
	"title": "LA"
}, {
	"ps_id": 100197,
	"title": "BS"
}, {
	"ps_id": 100199,
	"title": "海运中转库"
}, {
	"ps_id": 100200,
	"title": "Amazon"
}, {
	"ps_id": 100201,
	"title": "Amazon UK"
}, {
	"ps_id": 100202,
	"title": "CHUKOU1 UK"
}, {
	"ps_id": 100203,
	"title": "PA"
}, {
	"ps_id": 100205,
	"title": "供应商测试用"
}, {
	"ps_id": 1000002,
	"title": "张睿客服仓库"
}, {
	"ps_id": 1000005,
	"title": "Valley"
}, {
	"ps_id": 1000006,
	"title": "Dallas"
}, {
	"ps_id": 1000007,
	"title": "Walnut"
}, {
	"ps_id": 1000008,
	"title": "Stimson"
}, {
	"ps_id": 1000009,
	"title": "Via-Baron"
}, {
	"ps_id": 1000010,
	"title": "Blue Heron"
}, {
	"ps_id": 1000011,
	"title": "Bradshaw"
}, {
	"ps_id": 1000012,
	"title": "E Nelson"
}, {
	"ps_id": 1000013,
	"title": "Enterprise"
}, {
	"ps_id": 1000014,
	"title": "S Great SW"
}, {
	"ps_id": 1000015,
	"title": "S Reyes"
}, {
	"ps_id": 1000016,
	"title": "Stimson"
}, {
	"ps_id": 1000018,
	"title": "Walter Strawn"
}, {
	"ps_id": 1004585,
	"title": "ADELEC"
}, {
	"ps_id": 1004586,
	"title": "AARON"
}, {
	"ps_id": 1004587,
	"title": "AARON_FC_-_HUNTERSVILLE"
}, {
	"ps_id": 1004588,
	"title": "AARON_VSTORE_FOR_DC#C0D01"
}, {
	"ps_id": 1004589,
	"title": "AARON_VSTORE_FOR_DC#C0D02"
}, {
	"ps_id": 1004590,
	"title": "AARON_VSTORE_FOR_DC#C0D03"
}, {
	"ps_id": 1004591,
	"title": "AARON_VSTORE_FOR_DC#C0D04"
}, {
	"ps_id": 1004592,
	"title": "AARON_VSTORE_FOR_DC#C0D09"
}, {
	"ps_id": 1004593,
	"title": "AARON_VSTORE_FOR_DC#C0D11"
}, {
	"ps_id": 1004594,
	"title": "AARON_VSTORE_FOR_DC#C0D13"
}, {
	"ps_id": 1004595,
	"title": "AARON_VSTORE_FOR_DC#C0D15"
}, {
	"ps_id": 1004596,
	"title": "AARON_VSTORE_FOR_DC#C0D16"
}, {
	"ps_id": 1004597,
	"title": "AARON_VSTORE_FOR_DC#C0D18"
}, {
	"ps_id": 1004598,
	"title": "AARON_VSTORE_FOR_DC#C0D21"
}, {
	"ps_id": 1004599,
	"title": "ABCWARE"
}, {
	"ps_id": 1004600,
	"title": "ALMO_PA"
}, {
	"ps_id": 1004601,
	"title": "ALMOTX"
}, {
	"ps_id": 1004602,
	"title": "ALMOWI"
}, {
	"ps_id": 1004603,
	"title": "ALMO_DISTRIBUTING_MN,_INC."
}, {
	"ps_id": 1004604,
	"title": "ALMO_DISTRIBUTING_PA,_INC"
}, {
	"ps_id": 1004605,
	"title": "ALMO_DISTRIBUTING_WI,_INC."
}, {
	"ps_id": 1004606,
	"title": "SEIKI_DIGITAL_INC_\/_TONGFANG_GLOBAL_INC."
}, {
	"ps_id": 1004607,
	"title": "AMAZON_(PHX3)"
}, {
	"ps_id": 1004608,
	"title": "AMAZON_-BREINIGSVILLE"
}, {
	"ps_id": 1004609,
	"title": "AMAZON_-PHOENIX"
}, {
	"ps_id": 1004610,
	"title": "AMAZON.COM"
}, {
	"ps_id": 1004611,
	"title": "AMAZON.COM_DED,_LLC-BFI1"
}, {
	"ps_id": 1004612,
	"title": "AMAZON.COM_DEDC_LLC-PHL6"
}, {
	"ps_id": 1004613,
	"title": "AMAZON.COM_DEDC,_LLC-CAE1"
}, {
	"ps_id": 1004614,
	"title": "AMAZON.COM_DEDC,_LLC-CHA2"
}, {
	"ps_id": 1004615,
	"title": "AMAZON.COM_-READING"
}, {
	"ps_id": 1004616,
	"title": "AMAZON.COM,DEDC_LLC-PHL7"
}, {
	"ps_id": 1004617,
	"title": "AMAZON.COM-LEBANON"
}, {
	"ps_id": 1004618,
	"title": "AMAZON.COM.AZDC,_INC-PHX3"
}, {
	"ps_id": 1004619,
	"title": "AMAZON.COM.AZDC,_INC-PHX5"
}, {
	"ps_id": 1004620,
	"title": "AMAZON.COM.AZDC,_LLC-PHX7"
}, {
	"ps_id": 1004621,
	"title": "AMAZON.COM-GOODYEAR"
}, {
	"ps_id": 1004622,
	"title": "AMAZON.COM.DEDC_LLC_-GSP1"
}, {
	"ps_id": 1004623,
	"title": "AMAZON.COM.DEDC_LLC-BNA2"
}, {
	"ps_id": 1004624,
	"title": "AMAZON.COM.DEDC_LLC-BNA3"
}, {
	"ps_id": 1004625,
	"title": "AMAZON.COM-PLAINFIELD"
}, {
	"ps_id": 1004626,
	"title": "AMAZON.COM.INDC,_LLC-IND1"
}, {
	"ps_id": 1004627,
	"title": "AMAZON.COM.INDC,_LLC-IND2"
}, {
	"ps_id": 1004628,
	"title": "AMAZON.COM.KYDC_LLC-DFW6"
}, {
	"ps_id": 1004629,
	"title": "AMAZON.COM.KYDC_LLC-RIC1"
}, {
	"ps_id": 1004630,
	"title": "AMAZON.COM.KYDC_LLC-RIC2"
}, {
	"ps_id": 1004631,
	"title": "AMAZON.COM.KYDC_LLC-SAT1"
}, {
	"ps_id": 1004632,
	"title": "AMAZON.COM-DFW7"
}, {
	"ps_id": 1004633,
	"title": "AMAZON.COM-PA"
}, {
	"ps_id": 1004634,
	"title": "AMAZON.COM-PHL4"
}, {
	"ps_id": 1004635,
	"title": "AMAZON.COM-SDF1"
}, {
	"ps_id": 1004636,
	"title": "AMAZON.COM-TUL1"
}, {
	"ps_id": 1004637,
	"title": "AMAZON-CHATTAN"
}, {
	"ps_id": 1004638,
	"title": "AMZON-LA_MIRADA"
}, {
	"ps_id": 1004639,
	"title": "AMZON_-FERNLEY"
}, {
	"ps_id": 1004640,
	"title": "AMZON.COM.KYDC,_INC-_LEX1"
}, {
	"ps_id": 1004641,
	"title": "CONCERT_GROUP_LOGISTICS"
}, {
	"ps_id": 1004642,
	"title": "GOLDEN_STA-OAK3"
}, {
	"ps_id": 1004643,
	"title": "GOLDEN_STA-OAK4"
}, {
	"ps_id": 1004644,
	"title": "GOLDEN_STATE_FC_LLC-ONT2"
}, {
	"ps_id": 1004645,
	"title": "AUTSER0001"
}, {
	"ps_id": 1004646,
	"title": "AVC_CORP"
}, {
	"ps_id": 1004647,
	"title": "BEST_BUY\/GEEK"
}, {
	"ps_id": 1004648,
	"title": "BEST_BUY_ATTN:_FREIGHT_PAYMENT_-_A1"
}, {
	"ps_id": 1004649,
	"title": "BEST_BUY_DC_780"
}, {
	"ps_id": 1004650,
	"title": "BEST_BUY_DDC_723"
}, {
	"ps_id": 1004651,
	"title": "BEST_BUY_DDC_724"
}, {
	"ps_id": 1004652,
	"title": "BEST_BUY_DDC_726"
}, {
	"ps_id": 1004653,
	"title": "BEST_BUY_DDC_734"
}, {
	"ps_id": 1004654,
	"title": "BEST_BUY_DDC_75"
}, {
	"ps_id": 1004655,
	"title": "BEST_BUY_DDC_79"
}, {
	"ps_id": 1004656,
	"title": "BEST_BUY_DC_70"
}, {
	"ps_id": 1004657,
	"title": "BEST_BUY_DC_77"
}, {
	"ps_id": 1004658,
	"title": "BEST_BUY_DC_84"
}, {
	"ps_id": 1004659,
	"title": "BEST_BUY_DC_87"
}, {
	"ps_id": 1004660,
	"title": "BEST_BUY781"
}, {
	"ps_id": 1004661,
	"title": "BEST_BUY_DC_1376"
}, {
	"ps_id": 1004662,
	"title": "BEST_BUY_DC_1755"
}, {
	"ps_id": 1004663,
	"title": "BEST_BUY_DC_1759"
}, {
	"ps_id": 1004664,
	"title": "BEST_BUY_DC_2283"
}, {
	"ps_id": 1004665,
	"title": "BEST_BUY_DC_710"
}, {
	"ps_id": 1004666,
	"title": "BEST_BUY_DC_715"
}, {
	"ps_id": 1004667,
	"title": "BEST_BUY_DC_717"
}, {
	"ps_id": 1004668,
	"title": "BEST_BUY_DC_718"
}, {
	"ps_id": 1004669,
	"title": "BEST_BUY_DC_722"
}, {
	"ps_id": 1004670,
	"title": "BEST_BUY_DC_723"
}, {
	"ps_id": 1004671,
	"title": "BEST_BUY_DC_724"
}, {
	"ps_id": 1004672,
	"title": "BEST_BUY_DC_725"
}, {
	"ps_id": 1004673,
	"title": "BEST_BUY_DC_726"
}, {
	"ps_id": 1004674,
	"title": "BEST_BUY_DC_728"
}, {
	"ps_id": 1004675,
	"title": "BEST_BUY_DC_729"
}, {
	"ps_id": 1004676,
	"title": "BEST_BUY_DC_734"
}, {
	"ps_id": 1004677,
	"title": "BEST_BUY_DC_74"
}, {
	"ps_id": 1004678,
	"title": "BEST_BUY_DC_75"
}, {
	"ps_id": 1004679,
	"title": "BEST_BUY_DC_78"
}, {
	"ps_id": 1004680,
	"title": "BEST_BUY_DC_781"
}, {
	"ps_id": 1004681,
	"title": "BEST_BUY_DC_79"
}, {
	"ps_id": 1004682,
	"title": "BEST_BUY_DDC_1754"
}, {
	"ps_id": 1004683,
	"title": "BEST_BUY_DDC_710"
}, {
	"ps_id": 1004684,
	"title": "BEST_BUY_DDC_715"
}, {
	"ps_id": 1004685,
	"title": "BEST_BUY_DDC_718"
}, {
	"ps_id": 1004686,
	"title": "BEST_BUY_DDC_722"
}, {
	"ps_id": 1004687,
	"title": "BEST_BUY_DDC_728"
}, {
	"ps_id": 1004688,
	"title": "BEST_BUY_DDC_729"
}, {
	"ps_id": 1004689,
	"title": "BEST_BUY_DDC_74"
}, {
	"ps_id": 1004690,
	"title": "BEST_BUY_DDC_78"
}, {
	"ps_id": 1004691,
	"title": "BBY.COM"
}, {
	"ps_id": 1004692,
	"title": "BJS_800"
}, {
	"ps_id": 1004693,
	"title": "BJS_213"
}, {
	"ps_id": 1004694,
	"title": "BJS_820"
}, {
	"ps_id": 1004695,
	"title": "BJS_840"
}, {
	"ps_id": 1004696,
	"title": "CALBAC0001"
}, {
	"ps_id": 1004697,
	"title": "CAPACITY_LLC"
}, {
	"ps_id": 1004698,
	"title": "CENTRAL_COMPUTER_SYSTEMS_INC"
}, {
	"ps_id": 1004699,
	"title": "CENTRAL_COMPUTERS_SYSTEMS_INC"
}, {
	"ps_id": 1004700,
	"title": "CEVA_EL_PASO"
}, {
	"ps_id": 1004701,
	"title": "COSTCO_AIRDRIE"
}, {
	"ps_id": 1004702,
	"title": "COSTCO_ATLANTA_DRY_DEPOT"
}, {
	"ps_id": 1004703,
	"title": "COSTCO_BRAMPTON"
}, {
	"ps_id": 1004704,
	"title": "COSTCO_DALLAS_DRY_DEPOT"
}, {
	"ps_id": 1004705,
	"title": "COSTCO_DEPOT_#283_MIRA_LOMA"
}, {
	"ps_id": 1004706,
	"title": "COSTCO_FREDERICK_DEPOT_-_DRY"
}, {
	"ps_id": 1004707,
	"title": "COSTCO_LANGLEY"
}, {
	"ps_id": 1004708,
	"title": "COSTCO_MIRA_LOMA_DEPOT"
}, {
	"ps_id": 1004709,
	"title": "COSTCO_MONROE_TOWNSHIP"
}, {
	"ps_id": 1004710,
	"title": "COSTCO_MORRIS_DEPOT_DRY"
}, {
	"ps_id": 1004711,
	"title": "COSTCO_SALT_LAKE_CITY_DRY_DEPOT"
}, {
	"ps_id": 1004712,
	"title": "COSTCO_ST._BRUN"
}, {
	"ps_id": 1004713,
	"title": "COSTCO_SUMNER_DEPOT_-_DRY"
}, {
	"ps_id": 1004714,
	"title": "COSTCO_TOLLESON_DEPOT"
}, {
	"ps_id": 1004715,
	"title": "COSTCO_TRACY_DEPOT"
}, {
	"ps_id": 1004716,
	"title": "COSTCO_WEST_PALM_BEACH_DEPOT"
}, {
	"ps_id": 1004717,
	"title": "COSTDEPO1"
}, {
	"ps_id": 1004718,
	"title": "COSTCO_ECOMMERCE_DEPOT"
}, {
	"ps_id": 1004719,
	"title": "COSTCO_ECOMMERCE_DEPOT_SE"
}, {
	"ps_id": 1004720,
	"title": "COSTCO_SUMNER_ECOMMERCE"
}, {
	"ps_id": 1004721,
	"title": "CUDLIE_ACCESSORIES,_LLC"
}, {
	"ps_id": 1004722,
	"title": "D&H-BOLINGBROOK"
}, {
	"ps_id": 1004723,
	"title": "D&H-NEWNAN"
}, {
	"ps_id": 1004724,
	"title": "D&H-FRESNO"
}, {
	"ps_id": 1004725,
	"title": "D&H-HARRISBURG"
}, {
	"ps_id": 1004726,
	"title": "D&H-CA"
}, {
	"ps_id": 1004727,
	"title": "ESI_ENTERPRISES"
}, {
	"ps_id": 1004728,
	"title": "FRYS_ELEC_#03"
}, {
	"ps_id": 1004729,
	"title": "FRYS_ELEC_#05"
}, {
	"ps_id": 1004730,
	"title": "FRYS_ELEC_#06"
}, {
	"ps_id": 1004731,
	"title": "FRYS_ELEC_#07"
}, {
	"ps_id": 1004732,
	"title": "FRYS_ELEC_#08"
}, {
	"ps_id": 1004733,
	"title": "FRYS_ELEC_#09"
}, {
	"ps_id": 1004734,
	"title": "FRYS_ELEC_#10"
}, {
	"ps_id": 1004735,
	"title": "FRYS_ELEC_#11"
}, {
	"ps_id": 1004736,
	"title": "FRYS_ELEC_#12"
}, {
	"ps_id": 1004737,
	"title": "FRYS_ELEC_#13"
}, {
	"ps_id": 1004738,
	"title": "FRYS_ELEC_#14"
}, {
	"ps_id": 1004739,
	"title": "FRYS_ELEC_#15"
}, {
	"ps_id": 1004740,
	"title": "FRYS_ELEC_#16"
}, {
	"ps_id": 1004741,
	"title": "FRYS_ELEC_#17"
}, {
	"ps_id": 1004742,
	"title": "FRYS_ELEC_#18"
}, {
	"ps_id": 1004743,
	"title": "FRYS_ELEC_#19"
}, {
	"ps_id": 1004744,
	"title": "FRYS_ELEC_#20"
}, {
	"ps_id": 1004745,
	"title": "FRYS_ELEC_#21"
}, {
	"ps_id": 1004746,
	"title": "FRYS_ELEC_#22"
}, {
	"ps_id": 1004747,
	"title": "FRYS_ELEC_#23"
}, {
	"ps_id": 1004748,
	"title": "FRYS_ELEC_#24"
}, {
	"ps_id": 1004749,
	"title": "FRYS_ELEC_#25"
}, {
	"ps_id": 1004750,
	"title": "FRYS_ELEC_#26"
}, {
	"ps_id": 1004751,
	"title": "FRYS_ELEC_#27"
}, {
	"ps_id": 1004752,
	"title": "FRYS-LAS_VEGAS"
}, {
	"ps_id": 1004753,
	"title": "FRYS_ELEC_#28"
}, {
	"ps_id": 1004754,
	"title": "FRYS_ELEC_#29"
}, {
	"ps_id": 1004755,
	"title": "FRYS_ELEC_#30"
}, {
	"ps_id": 1004756,
	"title": "FRYS-RENTON"
}, {
	"ps_id": 1004757,
	"title": "FRYS_ELEC_#31"
}, {
	"ps_id": 1004758,
	"title": "FRYS-CAMPBELL"
}, {
	"ps_id": 1004759,
	"title": "FRYS_ELEC_#32"
}, {
	"ps_id": 1004760,
	"title": "FRYS-MANHATAN_BEACH"
}, {
	"ps_id": 1004761,
	"title": "FRYS_ELEC_#33"
}, {
	"ps_id": 1004762,
	"title": "FRYS_ELEC_#34"
}, {
	"ps_id": 1004763,
	"title": "FRYS_ELEC_#37"
}, {
	"ps_id": 1004764,
	"title": "FRYS_ELEC_#38"
}, {
	"ps_id": 1004765,
	"title": "FRYS_ELEC_#43"
}, {
	"ps_id": 1004766,
	"title": "FRYS_ELEC_#44"
}, {
	"ps_id": 1004767,
	"title": "FRYS_ELEC_#48"
}, {
	"ps_id": 1004768,
	"title": "FRYS_ELEC_#6"
}, {
	"ps_id": 1004769,
	"title": "FRYS.COM"
}, {
	"ps_id": 1004770,
	"title": "GOLDEN_STATE_FC_LLC"
}, {
	"ps_id": 1004771,
	"title": "HD.COM"
}, {
	"ps_id": 1004772,
	"title": "HHG_0000"
}, {
	"ps_id": 1004773,
	"title": "HHG_0079"
}, {
	"ps_id": 1004774,
	"title": "HHG_0150"
}, {
	"ps_id": 1004775,
	"title": "HHG_0230"
}, {
	"ps_id": 1004776,
	"title": "HHG270"
}, {
	"ps_id": 1004777,
	"title": "HOUSTON_COMPUTER_CENTER"
}, {
	"ps_id": 1004778,
	"title": "INGRAM_CA"
}, {
	"ps_id": 1004779,
	"title": "INGRAM_DALLAS"
}, {
	"ps_id": 1004780,
	"title": "INGRAM_MICRO"
}, {
	"ps_id": 1004781,
	"title": "INGRAM_MICRO_CHICAGO"
}, {
	"ps_id": 1004782,
	"title": "INGRAM_MICRO_INC."
}, {
	"ps_id": 1004783,
	"title": "INGRAM_MICRO_INC.-ONTARIO"
}, {
	"ps_id": 1004784,
	"title": "INGRAM_MICRO_JONESTOWN"
}, {
	"ps_id": 1004785,
	"title": "INGRAM_MICRO_TLP_(MEMPHIS)"
}, {
	"ps_id": 1004786,
	"title": "INGRAM_MICRO-SANTA_ANA"
}, {
	"ps_id": 1004787,
	"title": "INGRAM_PA"
}, {
	"ps_id": 1004788,
	"title": "INGRAM_TN"
}, {
	"ps_id": 1004789,
	"title": "INGRAM-CA"
}, {
	"ps_id": 1004790,
	"title": "INTEGRA"
}, {
	"ps_id": 1004791,
	"title": "KMART_8272"
}, {
	"ps_id": 1004792,
	"title": "KMART_8287"
}, {
	"ps_id": 1004793,
	"title": "KMART_8288"
}, {
	"ps_id": 1004794,
	"title": "KMART_8289"
}, {
	"ps_id": 1004795,
	"title": "KMART_8290"
}, {
	"ps_id": 1004796,
	"title": "KMART_8292"
}, {
	"ps_id": 1004797,
	"title": "KMART_8298"
}, {
	"ps_id": 1004798,
	"title": "K-MART_MORRISVILLE_DC"
}, {
	"ps_id": 1004799,
	"title": "KMART8273"
}, {
	"ps_id": 1004800,
	"title": "KMART8299"
}, {
	"ps_id": 1004801,
	"title": "KMART8305"
}, {
	"ps_id": 1004802,
	"title": "KODIAK_ASSEMBLY"
}, {
	"ps_id": 1004803,
	"title": "KOHL'S_FC_-_816"
}, {
	"ps_id": 1004804,
	"title": "KOHL'S_FC_-_870"
}, {
	"ps_id": 1004805,
	"title": "LAB_CLEAN_LLC"
}, {
	"ps_id": 1004806,
	"title": "MA_LABS"
}, {
	"ps_id": 1004807,
	"title": "MA_LABS-_NJ"
}, {
	"ps_id": 1004808,
	"title": "MA_LABS,_INC"
}, {
	"ps_id": 1004809,
	"title": "MA_LABS-CA"
}, {
	"ps_id": 1004810,
	"title": "MA_LABS-GA"
}, {
	"ps_id": 1004811,
	"title": "MAGNELL_ASS"
}, {
	"ps_id": 1004812,
	"title": "MAGNELL_ASSO"
}, {
	"ps_id": 1004813,
	"title": "MAGNELL_ASSOC"
}, {
	"ps_id": 1004814,
	"title": "MAGNELL_ASSOCI"
}, {
	"ps_id": 1004815,
	"title": "MAGNELL_ASSOCIA"
}, {
	"ps_id": 1004816,
	"title": "MAGNELL_ASSO-IN"
}, {
	"ps_id": 1004817,
	"title": "MAGNELL-CA"
}, {
	"ps_id": 1004818,
	"title": "MAX_GROUP"
}, {
	"ps_id": 1004819,
	"title": "MEIJER_DC_#_092"
}, {
	"ps_id": 1004820,
	"title": "MEIJER_DC_#_802"
}, {
	"ps_id": 1004821,
	"title": "MEMORY-T2H0N7"
}, {
	"ps_id": 1004822,
	"title": "MEMORY-T5L5E7"
}, {
	"ps_id": 1004823,
	"title": "MEMORY-T3A5R8"
}, {
	"ps_id": 1004824,
	"title": "MEMORY-T1Y5X7"
}, {
	"ps_id": 1004825,
	"title": "MEMORY-R3H0M1"
}, {
	"ps_id": 1004826,
	"title": "MEMORY-V6X2C3"
}, {
	"ps_id": 1004827,
	"title": "MEMORY-T6E6J8+"
}, {
	"ps_id": 1004828,
	"title": "NETLINK-BC"
}, {
	"ps_id": 1004829,
	"title": "NETLINK-CA"
}, {
	"ps_id": 1004830,
	"title": "NETWIZE-UT"
}, {
	"ps_id": 1004831,
	"title": "MICRO_CENTER,_INC_#001"
}, {
	"ps_id": 1004832,
	"title": "MICROSOFT_MIRA_LOMA"
}, {
	"ps_id": 1004833,
	"title": "MICROSOFTREDMON"
}, {
	"ps_id": 1004834,
	"title": "MIQ_LOGISTICS"
}, {
	"ps_id": 1004835,
	"title": "MISSRY_ASSOCIATES"
}, {
	"ps_id": 1004836,
	"title": "MITO_CORP"
}, {
	"ps_id": 1004837,
	"title": "NEWEGG_TX"
}, {
	"ps_id": 1004838,
	"title": "NEWEGG_NJ"
}, {
	"ps_id": 1004839,
	"title": "NEWEGGCA"
}, {
	"ps_id": 1004840,
	"title": "NEWEGGTN"
}, {
	"ps_id": 1004841,
	"title": "CH_ROBINSON"
}, {
	"ps_id": 1004842,
	"title": "NFM_KANSAS_CITY-KC_MAIN_WAREHOUSE"
}, {
	"ps_id": 1004843,
	"title": "NFM_OMAHA-JONES_ST_DISTRIBUTION_CENTER"
}, {
	"ps_id": 1004844,
	"title": "ADATECK_C\/O_JMS"
}, {
	"ps_id": 1004845,
	"title": "PANSTAR_EXPRESS_CORPORATION"
}, {
	"ps_id": 1004846,
	"title": "P.C_RICHARD_&_SON,_INC"
}, {
	"ps_id": 1004847,
	"title": "RUGGED_EQUIPMENT-DIV._OF_SA&_E_INTERNATIONAL_BAG"
}, {
	"ps_id": 1004848,
	"title": "SAMS_CLUB_DC_6909"
}, {
	"ps_id": 1004849,
	"title": "SAMS_CLUB_DC_6289"
}, {
	"ps_id": 1004850,
	"title": "SAMS_CLUB_DC_4713"
}, {
	"ps_id": 1004851,
	"title": "SAMS_CLUB_DC_4755"
}, {
	"ps_id": 1004852,
	"title": "SAMS_CLUB_DC_4764"
}, {
	"ps_id": 1004853,
	"title": "SAMS_CLUB_DC_4861"
}, {
	"ps_id": 1004854,
	"title": "SAMS_CLUB_DC_6261"
}, {
	"ps_id": 1004855,
	"title": "SAMS_CLUB_DC_6299"
}, {
	"ps_id": 1004856,
	"title": "SAMS_CLUB_DC_6315"
}, {
	"ps_id": 1004857,
	"title": "SAMS_CLUB_DC_6338"
}, {
	"ps_id": 1004858,
	"title": "SAMS_CLUB_DC_6367"
}, {
	"ps_id": 1004859,
	"title": "SAMS_CLUB_DC_6405"
}, {
	"ps_id": 1004860,
	"title": "SAMS_CLUB_DC_6410"
}, {
	"ps_id": 1004861,
	"title": "SAMS_CLUB_DC_6439"
}, {
	"ps_id": 1004862,
	"title": "SAMS_CLUB_DC_6493"
}, {
	"ps_id": 1004863,
	"title": "SAMS_CLUB_DC_6499"
}, {
	"ps_id": 1004864,
	"title": "SAMS_CLUB_DC_6596"
}, {
	"ps_id": 1004865,
	"title": "SAMS_CLUB_DC_6597"
}, {
	"ps_id": 1004866,
	"title": "SAMS_CLUB_DC_6598"
}, {
	"ps_id": 1004867,
	"title": "SAMS_CLUB_DC_8206"
}, {
	"ps_id": 1004868,
	"title": "SAMS_CLUB_DC_8234"
}, {
	"ps_id": 1004869,
	"title": "SAMS_CLUB_DC_8235"
}, {
	"ps_id": 1004870,
	"title": "SAMS_CLUB_DC_8250"
}, {
	"ps_id": 1004871,
	"title": "SAMS_CLUB_DC_8267"
}, {
	"ps_id": 1004872,
	"title": "SAMS_CLUB_DC_8270"
}, {
	"ps_id": 1004873,
	"title": "SAMS_CLUB_DC_8279"
}, {
	"ps_id": 1004874,
	"title": "SAMS_CLUB_DC_8281"
}, {
	"ps_id": 1004875,
	"title": "SAMS_CLUB_DC_8284"
}, {
	"ps_id": 1004876,
	"title": "SAMS_CLUB_DC_8288"
}, {
	"ps_id": 1004877,
	"title": "SAMS_CLUB_DC_4792"
}, {
	"ps_id": 1004878,
	"title": "SAMS_CLUB_DC_4843"
}, {
	"ps_id": 1004879,
	"title": "SAMS_CLUB_DC_4850"
}, {
	"ps_id": 1004880,
	"title": "SAMS_CLUB_DC_4870"
}, {
	"ps_id": 1004881,
	"title": "SAMS_CLUB_DC_4985"
}, {
	"ps_id": 1004882,
	"title": "SAMS_CLUB_DC_6203"
}, {
	"ps_id": 1004883,
	"title": "SAMS_CLUB_DC_6220"
}, {
	"ps_id": 1004884,
	"title": "SAMS_CLUB_DC_6236"
}, {
	"ps_id": 1004885,
	"title": "SAMS_CLUB_DC_6237"
}, {
	"ps_id": 1004886,
	"title": "SAMS_CLUB_DC_6245"
}, {
	"ps_id": 1004887,
	"title": "SAMS_CLUB_DC_6267"
}, {
	"ps_id": 1004888,
	"title": "SAMS_CLUB_DC_6274"
}, {
	"ps_id": 1004889,
	"title": "SAMS_CLUB_DC_6279"
}, {
	"ps_id": 1004890,
	"title": "SAMS_CLUB_DC_6492"
}, {
	"ps_id": 1004891,
	"title": "SAMS_CLUB_DC_6495"
}, {
	"ps_id": 1004892,
	"title": "SAMS_CLUB_DC_6537"
}, {
	"ps_id": 1004893,
	"title": "SAMS_CLUB_DC_6698"
}, {
	"ps_id": 1004894,
	"title": "SAMS_CLUB_DC_6914"
}, {
	"ps_id": 1004895,
	"title": "SAMS_CLUB_DC_8128"
}, {
	"ps_id": 1004896,
	"title": "SAMS_CLUB_DC_8229"
}, {
	"ps_id": 1004897,
	"title": "SAMS_CLUB_DC_8230"
}, {
	"ps_id": 1004898,
	"title": "SAMS_CLUB_DC_8231"
}, {
	"ps_id": 1004899,
	"title": "SAMS_CLUB_DC_8232"
}, {
	"ps_id": 1004900,
	"title": "SAMS_CLUB_DC_8283"
}, {
	"ps_id": 1004901,
	"title": "SAMS_CLUB_DC_6494"
}, {
	"ps_id": 1004902,
	"title": "SAMS_CLUB_DC_6496"
}, {
	"ps_id": 1004903,
	"title": "SAMS_YBM"
}, {
	"ps_id": 1004904,
	"title": "SAMS_CLUB_DC_4889"
}, {
	"ps_id": 1004905,
	"title": "SAMS_CLUB_DC_4969"
}, {
	"ps_id": 1004906,
	"title": "SAMS_CLUB_DC_6697"
}, {
	"ps_id": 1004907,
	"title": "SAMS_CLUB_DC_B2B"
}, {
	"ps_id": 1004908,
	"title": "SAMSCLUB"
}, {
	"ps_id": 1004909,
	"title": "SAMSCLUB1"
}, {
	"ps_id": 1004910,
	"title": "SEARS420"
}, {
	"ps_id": 1004911,
	"title": "SEARS425"
}, {
	"ps_id": 1004912,
	"title": "SEARS440"
}, {
	"ps_id": 1004913,
	"title": "SEARS443"
}, {
	"ps_id": 1004914,
	"title": "SEARS446"
}, {
	"ps_id": 1004915,
	"title": "SEARS447"
}, {
	"ps_id": 1004916,
	"title": "SEARS449"
}, {
	"ps_id": 1004917,
	"title": "SEARS470"
}, {
	"ps_id": 1004918,
	"title": "SEARS8708"
}, {
	"ps_id": 1004919,
	"title": "SEARS8709"
}, {
	"ps_id": 1004920,
	"title": "SEARS8721"
}, {
	"ps_id": 1004921,
	"title": "SEARS8729"
}, {
	"ps_id": 1004922,
	"title": "SEARS8761"
}, {
	"ps_id": 1004923,
	"title": "SEARS8776"
}, {
	"ps_id": 1004924,
	"title": "SEARS8781"
}, {
	"ps_id": 1004925,
	"title": "SEARS8870"
}, {
	"ps_id": 1004926,
	"title": "SEARS8871"
}, {
	"ps_id": 1004927,
	"title": "SEARS8872"
}, {
	"ps_id": 1004928,
	"title": "SEARS8873"
}, {
	"ps_id": 1004929,
	"title": "S&G_COTTON_PTY_INC"
}, {
	"ps_id": 1004930,
	"title": "SHOPKO996"
}, {
	"ps_id": 1004931,
	"title": "SHOPKO997"
}, {
	"ps_id": 1004932,
	"title": "SHOPKO998"
}, {
	"ps_id": 1004933,
	"title": "SHOPKO999"
}, {
	"ps_id": 1004934,
	"title": "SOLEUS_INTERNATIONAL,_INC."
}, {
	"ps_id": 1004935,
	"title": "SYNNCORP"
}, {
	"ps_id": 1004936,
	"title": "SYNNEX"
}, {
	"ps_id": 1004937,
	"title": "SYNNEX_CA"
}, {
	"ps_id": 1004938,
	"title": "SYNNEX_GA"
}, {
	"ps_id": 1004939,
	"title": "SYNNEX-CA"
}, {
	"ps_id": 1004940,
	"title": "TARGET_0551"
}, {
	"ps_id": 1004941,
	"title": "TARGET_0553"
}, {
	"ps_id": 1004942,
	"title": "TARGET_0554"
}, {
	"ps_id": 1004943,
	"title": "TARGET_0555"
}, {
	"ps_id": 1004944,
	"title": "TARGET_0556"
}, {
	"ps_id": 1004945,
	"title": "TARGET_0557"
}, {
	"ps_id": 1004946,
	"title": "TARGET_0558"
}, {
	"ps_id": 1004947,
	"title": "TARGET_0559"
}, {
	"ps_id": 1004948,
	"title": "TARGET_0560"
}, {
	"ps_id": 1004949,
	"title": "TARGET_0578"
}, {
	"ps_id": 1004950,
	"title": "TARGET_0579"
}, {
	"ps_id": 1004951,
	"title": "TARGET_0580"
}, {
	"ps_id": 1004952,
	"title": "TARGET_0587"
}, {
	"ps_id": 1004953,
	"title": "TARGET_0588"
}, {
	"ps_id": 1004954,
	"title": "TARGET_0589"
}, {
	"ps_id": 1004955,
	"title": "TARGET_0590"
}, {
	"ps_id": 1004956,
	"title": "TARGET_0593"
}, {
	"ps_id": 1004957,
	"title": "TARGET_0594"
}, {
	"ps_id": 1004958,
	"title": "TARGET_3801"
}, {
	"ps_id": 1004959,
	"title": "TARGET_3802"
}, {
	"ps_id": 1004960,
	"title": "TARGET_3803"
}, {
	"ps_id": 1004961,
	"title": "TARGET_3804"
}, {
	"ps_id": 1004962,
	"title": "TARGET_3806"
}, {
	"ps_id": 1004963,
	"title": "TARGET_3808"
}, {
	"ps_id": 1004964,
	"title": "TARGET_3809"
}, {
	"ps_id": 1004965,
	"title": "TARGET_3811"
}, {
	"ps_id": 1004966,
	"title": "TARGET_551"
}, {
	"ps_id": 1004967,
	"title": "TARGET_554"
}, {
	"ps_id": 1004968,
	"title": "TARGET_557"
}, {
	"ps_id": 1004969,
	"title": "TARGET_559"
}, {
	"ps_id": 1004970,
	"title": "TARGET_560"
}, {
	"ps_id": 1004971,
	"title": "TARGET_579"
}, {
	"ps_id": 1004972,
	"title": "TARGET_580"
}, {
	"ps_id": 1004973,
	"title": "TARGET_587"
}, {
	"ps_id": 1004974,
	"title": "TARGET_9477"
}, {
	"ps_id": 1004975,
	"title": "TARGET_9478"
}, {
	"ps_id": 1004976,
	"title": "TARGET_CONSOLIDATION_CENTER"
}, {
	"ps_id": 1004977,
	"title": "TARGET_HQ"
}, {
	"ps_id": 1004978,
	"title": "TARGET_CA#"
}, {
	"ps_id": 1004979,
	"title": "TARGET_CA#_0551"
}, {
	"ps_id": 1004980,
	"title": "TARGET_CA#_0553"
}, {
	"ps_id": 1004981,
	"title": "TARGET_CA#_0588"
}, {
	"ps_id": 1004982,
	"title": "TARGET_CA#_7300"
}, {
	"ps_id": 1004983,
	"title": "TARGET_CA#_7301"
}, {
	"ps_id": 1004984,
	"title": "TARGET_CA#_7302"
}, {
	"ps_id": 1004985,
	"title": "TARGET_FREIGHT"
}, {
	"ps_id": 1004986,
	"title": "TARGET.COM_HEBR"
}, {
	"ps_id": 1004987,
	"title": "TARGET.COM_ONTA"
}, {
	"ps_id": 1004988,
	"title": "TARGET.COM_TUCSON"
}, {
	"ps_id": 1004989,
	"title": "TECH_DATA_CORPO"
}, {
	"ps_id": 1004990,
	"title": "TMSH"
}, {
	"ps_id": 1004991,
	"title": "TMSPSALE"
}, {
	"ps_id": 1004992,
	"title": "VEECO_WEST"
}, {
	"ps_id": 1004993,
	"title": "WAL-MART_DC_6056"
}, {
	"ps_id": 1004994,
	"title": "WAL-MART_DC_7024"
}, {
	"ps_id": 1004995,
	"title": "WAL-MART_6040R-REGULAR"
}, {
	"ps_id": 1004996,
	"title": "WAL-MART_7027"
}, {
	"ps_id": 1004997,
	"title": "WAL-MART_BENTONVILLE,_AR"
}, {
	"ps_id": 1004998,
	"title": "WAL-MART_DC_6032"
}, {
	"ps_id": 1004999,
	"title": "WAL-MART_DC_6908"
}, {
	"ps_id": 1005000,
	"title": "WAL-MART_DC_#5926"
}, {
	"ps_id": 1005001,
	"title": "WAL-MART_DC_0585"
}, {
	"ps_id": 1005002,
	"title": "WAL-MART_DC_19"
}, {
	"ps_id": 1005003,
	"title": "WAL-MART_DC_3112"
}, {
	"ps_id": 1005004,
	"title": "WAL-MART_DC_37"
}, {
	"ps_id": 1005005,
	"title": "WAL-MART_DC_6004"
}, {
	"ps_id": 1005006,
	"title": "WAL-MART_DC_6005A-ASM_DIS"
}, {
	"ps_id": 1005007,
	"title": "WAL-MART_DC_6005D-DSDC"
}, {
	"ps_id": 1005008,
	"title": "WAL-MART_DC_6005G-GENERAL"
}, {
	"ps_id": 1005009,
	"title": "WAL-MART_DC_6005I-IMP_ASM"
}, {
	"ps_id": 1005010,
	"title": "WAL-MART_DC_6005J-JIT"
}, {
	"ps_id": 1005011,
	"title": "WAL-MART_DC_6005P-PAD"
}, {
	"ps_id": 1005012,
	"title": "WAL-MART_DC_6005R-REGULAR"
}, {
	"ps_id": 1005013,
	"title": "WAL-MART_DC_6005T-TAB"
}, {
	"ps_id": 1005014,
	"title": "WAL-MART_DC_6005W-WPM"
}, {
	"ps_id": 1005015,
	"title": "WAL-MART_DC_6006A-ASM_DIS"
}, {
	"ps_id": 1005016,
	"title": "WAL-MART_DC_6006D-DSDC"
}, {
	"ps_id": 1005017,
	"title": "WAL-MART_DC_6006G"
}, {
	"ps_id": 1005018,
	"title": "WAL-MART_DC_6006G-GENERAL"
}, {
	"ps_id": 1005019,
	"title": "WAL-MART_DC_6006I-IMP_ASM"
}, {
	"ps_id": 1005020,
	"title": "WAL-MART_DC_6006J-JIT"
}, {
	"ps_id": 1005021,
	"title": "WAL-MART_DC_6006P-PAD"
}, {
	"ps_id": 1005022,
	"title": "WAL-MART_DC_6006R-REGULAR"
}, {
	"ps_id": 1005023,
	"title": "WAL-MART_DC_6006T-TAB"
}, {
	"ps_id": 1005024,
	"title": "WAL-MART_DC_6006W-WPM"
}, {
	"ps_id": 1005025,
	"title": "WAL-MART_DC_6007A-ASM_DIS"
}, {
	"ps_id": 1005026,
	"title": "WAL-MART_DC_6007D-DSDC"
}, {
	"ps_id": 1005027,
	"title": "WAL-MART_DC_6007G-GENERAL"
}, {
	"ps_id": 1005028,
	"title": "WAL-MART_DC_6007I-IMP_ASM"
}, {
	"ps_id": 1005029,
	"title": "WAL-MART_DC_6007J-JIT"
}, {
	"ps_id": 1005030,
	"title": "WAL-MART_DC_6007P-PAD"
}, {
	"ps_id": 1005031,
	"title": "WAL-MART_DC_6007R-REGULAR"
}, {
	"ps_id": 1005032,
	"title": "WAL-MART_DC_6007T-TAB"
}, {
	"ps_id": 1005033,
	"title": "WAL-MART_DC_6007W-WPM"
}, {
	"ps_id": 1005034,
	"title": "WAL-MART_DC_6008A-ASM_DIS"
}, {
	"ps_id": 1005035,
	"title": "WAL-MART_DC_6008D-DSDC"
}, {
	"ps_id": 1005036,
	"title": "WAL-MART_DC_6008G-GENERAL"
}, {
	"ps_id": 1005037,
	"title": "WAL-MART_DC_6008I-IMP_ASM"
}, {
	"ps_id": 1005038,
	"title": "WAL-MART_DC_6008J-JIT"
}, {
	"ps_id": 1005039,
	"title": "WAL-MART_DC_6008P-PAD"
}, {
	"ps_id": 1005040,
	"title": "WAL-MART_DC_6008R-REGULAR"
}, {
	"ps_id": 1005041,
	"title": "WAL-MART_DC_6008T-TAB"
}, {
	"ps_id": 1005042,
	"title": "WAL-MART_DC_6008W-WPM"
}, {
	"ps_id": 1005043,
	"title": "WAL-MART_DC_6009A-ASM_DIS"
}, {
	"ps_id": 1005044,
	"title": "WAL-MART_DC_6009G-GENERAL"
}, {
	"ps_id": 1005045,
	"title": "WAL-MART_DC_6009I-IMP_ASM"
}, {
	"ps_id": 1005046,
	"title": "WAL-MART_DC_6009J-JIT"
}, {
	"ps_id": 1005047,
	"title": "WAL-MART_DC_6009P-PAD"
}, {
	"ps_id": 1005048,
	"title": "WAL-MART_DC_6009R-REGULAR"
}, {
	"ps_id": 1005049,
	"title": "WAL-MART_DC_6009T-TAB"
}, {
	"ps_id": 1005050,
	"title": "WAL-MART_DC_6009W-WPM"
}, {
	"ps_id": 1005051,
	"title": "WAL-MART_DC_6010A-ASM_DIS"
}, {
	"ps_id": 1005052,
	"title": "WAL-MART_DC_6010D-DSDC"
}, {
	"ps_id": 1005053,
	"title": "WAL-MART_DC_6010I-IMP_ASM"
}, {
	"ps_id": 1005054,
	"title": "WAL-MART_DC_6010J-JIT"
}, {
	"ps_id": 1005055,
	"title": "WAL-MART_DC_6010P-PAD"
}, {
	"ps_id": 1005056,
	"title": "WAL-MART_DC_6010R-REGULAR"
}, {
	"ps_id": 1005057,
	"title": "WAL-MART_DC_6010T-TAB"
}, {
	"ps_id": 1005058,
	"title": "WAL-MART_DC_6010W-WPM"
}, {
	"ps_id": 1005059,
	"title": "WAL-MART_DC_6011A-ASM_DIS"
}, {
	"ps_id": 1005060,
	"title": "WAL-MART_DC_6011D-DSDC"
}, {
	"ps_id": 1005061,
	"title": "WAL-MART_DC_6011G-GENERAL"
}, {
	"ps_id": 1005062,
	"title": "WAL-MART_DC_6011I-IMP_ASM"
}, {
	"ps_id": 1005063,
	"title": "WAL-MART_DC_6011J-JIT"
}, {
	"ps_id": 1005064,
	"title": "WAL-MART_DC_6011P-PAD"
}, {
	"ps_id": 1005065,
	"title": "WAL-MART_DC_6011R-REGULAR"
}, {
	"ps_id": 1005066,
	"title": "WAL-MART_DC_6011T-TAB"
}, {
	"ps_id": 1005067,
	"title": "WAL-MART_DC_6011W-WPM"
}, {
	"ps_id": 1005068,
	"title": "WAL-MART_DC_6012A-ASM_DIS"
}, {
	"ps_id": 1005069,
	"title": "WAL-MART_DC_6012D-DSDC"
}, {
	"ps_id": 1005070,
	"title": "WAL-MART_DC_6012G-GENERAL"
}, {
	"ps_id": 1005071,
	"title": "WAL-MART_DC_6012I-IMP_ASM"
}, {
	"ps_id": 1005072,
	"title": "WAL-MART_DC_6012J-JIT"
}, {
	"ps_id": 1005073,
	"title": "WAL-MART_DC_6012P-PAD"
}, {
	"ps_id": 1005074,
	"title": "WAL-MART_DC_6012R-REGULAR"
}, {
	"ps_id": 1005075,
	"title": "WAL-MART_DC_6012T-TAB"
}, {
	"ps_id": 1005076,
	"title": "WAL-MART_DC_6012W-WPM"
}, {
	"ps_id": 1005077,
	"title": "WAL-MART_DC_6013"
}, {
	"ps_id": 1005078,
	"title": "WAL-MART_DC_6014A-ASM_DIS"
}, {
	"ps_id": 1005079,
	"title": "WAL-MART_DC_6014D-DSDC"
}, {
	"ps_id": 1005080,
	"title": "WAL-MART_DC_6014G-GENERAL"
}, {
	"ps_id": 1005081,
	"title": "WAL-MART_DC_6014I-IMP_ASM"
}, {
	"ps_id": 1005082,
	"title": "WAL-MART_DC_6014J-JIT"
}, {
	"ps_id": 1005083,
	"title": "WAL-MART_DC_6014P-PAD"
}, {
	"ps_id": 1005084,
	"title": "WAL-MART_DC_6014R-REGULAR"
}, {
	"ps_id": 1005085,
	"title": "WAL-MART_DC_6014T-TAB"
}, {
	"ps_id": 1005086,
	"title": "WAL-MART_DC_6014W-WPM"
}, {
	"ps_id": 1005087,
	"title": "WAL-MART_DC_6016A-ASM_DIS"
}, {
	"ps_id": 1005088,
	"title": "WAL-MART_DC_6016D-DSDC"
}, {
	"ps_id": 1005089,
	"title": "WAL-MART_DC_6016G-GENERAL"
}, {
	"ps_id": 1005090,
	"title": "WAL-MART_DC_6016I-IMP_ASM"
}, {
	"ps_id": 1005091,
	"title": "WAL-MART_DC_6016J-JIT"
}, {
	"ps_id": 1005092,
	"title": "WAL-MART_DC_6016P-PAD"
}, {
	"ps_id": 1005093,
	"title": "WAL-MART_DC_6016R-REGULAR"
}, {
	"ps_id": 1005094,
	"title": "WAL-MART_DC_6016T-TAB"
}, {
	"ps_id": 1005095,
	"title": "WAL-MART_DC_6016W-WPM"
}, {
	"ps_id": 1005096,
	"title": "WAL-MART_DC_6017A-ASM_DIS"
}, {
	"ps_id": 1005097,
	"title": "WAL-MART_DC_6017D-DSDC"
}, {
	"ps_id": 1005098,
	"title": "WAL-MART_DC_6017G-GENERAL"
}, {
	"ps_id": 1005099,
	"title": "WAL-MART_DC_6017I-IMP_ASM"
}, {
	"ps_id": 1005100,
	"title": "WAL-MART_DC_6017J-JIT"
}, {
	"ps_id": 1005101,
	"title": "WAL-MART_DC_6017P-PAD"
}, {
	"ps_id": 1005102,
	"title": "WAL-MART_DC_6017R-REGULAR"
}, {
	"ps_id": 1005103,
	"title": "WAL-MART_DC_6017T-TAB"
}, {
	"ps_id": 1005104,
	"title": "WAL-MART_DC_6017W-WPM"
}, {
	"ps_id": 1005105,
	"title": "WAL-MART_DC_6018A-ASM_DIS"
}, {
	"ps_id": 1005106,
	"title": "WAL-MART_DC_6018D-DSDC"
}, {
	"ps_id": 1005107,
	"title": "WAL-MART_DC_6018G-GENERAL"
}, {
	"ps_id": 1005108,
	"title": "WAL-MART_DC_6018I-IMP_ASM"
}, {
	"ps_id": 1005109,
	"title": "WAL-MART_DC_6018J-JIT"
}, {
	"ps_id": 1005110,
	"title": "WAL-MART_DC_6018P-PAD"
}, {
	"ps_id": 1005111,
	"title": "WAL-MART_DC_6018R-REGULAR"
}, {
	"ps_id": 1005112,
	"title": "WAL-MART_DC_6018T-TAB"
}, {
	"ps_id": 1005113,
	"title": "WAL-MART_DC_6018W-WPM"
}, {
	"ps_id": 1005114,
	"title": "WAL-MART_DC_6019A-ASM_DIS"
}, {
	"ps_id": 1005115,
	"title": "WAL-MART_DC_6019D-DSDC"
}, {
	"ps_id": 1005116,
	"title": "WAL-MART_DC_6019G-GENERAL"
}, {
	"ps_id": 1005117,
	"title": "WAL-MART_DC_6019I-IMP_ASM"
}, {
	"ps_id": 1005118,
	"title": "WAL-MART_DC_6019J-JIT"
}, {
	"ps_id": 1005119,
	"title": "WAL-MART_DC_6019P-PAD"
}, {
	"ps_id": 1005120,
	"title": "WAL-MART_DC_6019R-REGULAR"
}, {
	"ps_id": 1005121,
	"title": "WAL-MART_DC_6019T-_TAB"
}, {
	"ps_id": 1005122,
	"title": "WAL-MART_DC_6019W-WPM"
}, {
	"ps_id": 1005123,
	"title": "WAL-MART_DC_6020A-ASM_DIS"
}, {
	"ps_id": 1005124,
	"title": "WAL-MART_DC_6020D-DSDC"
}, {
	"ps_id": 1005125,
	"title": "WAL-MART_DC_6020G-GENERAL"
}, {
	"ps_id": 1005126,
	"title": "WAL-MART_DC_6020I-IMP_ASM"
}, {
	"ps_id": 1005127,
	"title": "WAL-MART_DC_6020J-JIT"
}, {
	"ps_id": 1005128,
	"title": "WAL-MART_DC_6020P-PAD"
}, {
	"ps_id": 1005129,
	"title": "WAL-MART_DC_6020R-REGULAR"
}, {
	"ps_id": 1005130,
	"title": "WAL-MART_DC_6020T-TAB"
}, {
	"ps_id": 1005131,
	"title": "WAL-MART_DC_6020W-WPM"
}, {
	"ps_id": 1005132,
	"title": "WAL-MART_DC_6021G-GENERAL"
}, {
	"ps_id": 1005133,
	"title": "WAL-MART_DC_6021R-REGULAR"
}, {
	"ps_id": 1005134,
	"title": "WAL-MART_DC_6021T-TAB"
}, {
	"ps_id": 1005135,
	"title": "WAL-MART_DC_6022A-ASM_DIS"
}, {
	"ps_id": 1005136,
	"title": "WAL-MART_DC_6022D-DSDC"
}, {
	"ps_id": 1005137,
	"title": "WAL-MART_DC_6022G-GENERAL"
}, {
	"ps_id": 1005138,
	"title": "WAL-MART_DC_6022I-IMP_ASM"
}, {
	"ps_id": 1005139,
	"title": "WAL-MART_DC_6022J-JIT"
}, {
	"ps_id": 1005140,
	"title": "WAL-MART_DC_6022P-PAD"
}, {
	"ps_id": 1005141,
	"title": "WAL-MART_DC_6022R-REGULAR"
}, {
	"ps_id": 1005142,
	"title": "WAL-MART_DC_6022T-TAB"
}, {
	"ps_id": 1005143,
	"title": "WAL-MART_DC_6022W-WPM"
}, {
	"ps_id": 1005144,
	"title": "WAL-MART_DC_6023A-ASM_DIS"
}, {
	"ps_id": 1005145,
	"title": "WAL-MART_DC_6023D-DSDC"
}, {
	"ps_id": 1005146,
	"title": "WAL-MART_DC_6023G-GENERAL"
}, {
	"ps_id": 1005147,
	"title": "WAL-MART_DC_6023I-IMP_ASM"
}, {
	"ps_id": 1005148,
	"title": "WAL-MART_DC_6023J-JIT"
}, {
	"ps_id": 1005149,
	"title": "WAL-MART_DC_6023P-PAD"
}, {
	"ps_id": 1005150,
	"title": "WAL-MART_DC_6023R-REGULAR"
}, {
	"ps_id": 1005151,
	"title": "WAL-MART_DC_6023T-TAB"
}, {
	"ps_id": 1005152,
	"title": "WAL-MART_DC_6023W-WPM"
}, {
	"ps_id": 1005153,
	"title": "WAL-MART_DC_6024A-ASM_DIS"
}, {
	"ps_id": 1005154,
	"title": "WAL-MART_DC_6024D-DSDC"
}, {
	"ps_id": 1005155,
	"title": "WAL-MART_DC_6024G-GENERAL"
}, {
	"ps_id": 1005156,
	"title": "WAL-MART_DC_6024I-IMP_ASM"
}, {
	"ps_id": 1005157,
	"title": "WAL-MART_DC_6024J-JIT"
}, {
	"ps_id": 1005158,
	"title": "WAL-MART_DC_6024P-PAD"
}, {
	"ps_id": 1005159,
	"title": "WAL-MART_DC_6024R-REGULAR"
}, {
	"ps_id": 1005160,
	"title": "WAL-MART_DC_6024T-TAB"
}, {
	"ps_id": 1005161,
	"title": "WAL-MART_DC_6024W-WPM"
}, {
	"ps_id": 1005162,
	"title": "WAL-MART_DC_6025A-ASM_DIS"
}, {
	"ps_id": 1005163,
	"title": "WAL-MART_DC_6025D-DSDC"
}, {
	"ps_id": 1005164,
	"title": "WAL-MART_DC_6025G-GENERAL"
}, {
	"ps_id": 1005165,
	"title": "WAL-MART_DC_6025I-IMP_ASM"
}, {
	"ps_id": 1005166,
	"title": "WAL-MART_DC_6025J-JIT"
}, {
	"ps_id": 1005167,
	"title": "WAL-MART_DC_6025P-PAD"
}, {
	"ps_id": 1005168,
	"title": "WAL-MART_DC_6025R-REGULAR"
}, {
	"ps_id": 1005169,
	"title": "WAL-MART_DC_6025T-TAB"
}, {
	"ps_id": 1005170,
	"title": "WAL-MART_DC_6025W-WPM"
}, {
	"ps_id": 1005171,
	"title": "WAL-MART_DC_6026A-ASM_DIS"
}, {
	"ps_id": 1005172,
	"title": "WAL-MART_DC_6026D-DSDC"
}, {
	"ps_id": 1005173,
	"title": "WAL-MART_DC_6026G-GENERAL"
}, {
	"ps_id": 1005174,
	"title": "WAL-MART_DC_6026I-IMP_ASM"
}, {
	"ps_id": 1005175,
	"title": "WAL-MART_DC_6026J-JIT"
}, {
	"ps_id": 1005176,
	"title": "WAL-MART_DC_6026P-PAD"
}, {
	"ps_id": 1005177,
	"title": "WAL-MART_DC_6026R-REGULAR"
}, {
	"ps_id": 1005178,
	"title": "WAL-MART_DC_6026T-TAB"
}, {
	"ps_id": 1005179,
	"title": "WAL-MART_DC_6026W-WPM"
}, {
	"ps_id": 1005180,
	"title": "WAL-MART_DC_6027A-ASM_DIS"
}, {
	"ps_id": 1005181,
	"title": "WAL-MART_DC_6027D-DSDC"
}, {
	"ps_id": 1005182,
	"title": "WAL-MART_DC_6027G-GENERAL"
}, {
	"ps_id": 1005183,
	"title": "WAL-MART_DC_6027I-IMP_ASM"
}, {
	"ps_id": 1005184,
	"title": "WAL-MART_DC_6027J-JIT"
}, {
	"ps_id": 1005185,
	"title": "WAL-MART_DC_6027P-PAD"
}, {
	"ps_id": 1005186,
	"title": "WAL-MART_DC_6027R-REGULAR"
}, {
	"ps_id": 1005187,
	"title": "WAL-MART_DC_6027T-TAB"
}, {
	"ps_id": 1005188,
	"title": "WAL-MART_DC_6027W-WPM"
}, {
	"ps_id": 1005189,
	"title": "WAL-MART_DC_6028"
}, {
	"ps_id": 1005190,
	"title": "WAL-MART_DC_6029A-ASM_DIS"
}, {
	"ps_id": 1005191,
	"title": "WAL-MART_DC_6029D-DSDC"
}, {
	"ps_id": 1005192,
	"title": "WAL-MART_DC_6029G-GENERAL"
}, {
	"ps_id": 1005193,
	"title": "WAL-MART_DC_6029I-IMP_ASM"
}, {
	"ps_id": 1005194,
	"title": "WAL-MART_DC_6029J-JIT"
}, {
	"ps_id": 1005195,
	"title": "WAL-MART_DC_6029P-PAD"
}, {
	"ps_id": 1005196,
	"title": "WAL-MART_DC_6029R-REGULAR"
}, {
	"ps_id": 1005197,
	"title": "WAL-MART_DC_6029T-TAB"
}, {
	"ps_id": 1005198,
	"title": "WAL-MART_DC_6029W-WPM"
}, {
	"ps_id": 1005199,
	"title": "WAL-MART_DC_6030A-ASM_DIS"
}, {
	"ps_id": 1005200,
	"title": "WAL-MART_DC_6030D-DSDC"
}, {
	"ps_id": 1005201,
	"title": "WAL-MART_DC_6030G-GENERAL"
}, {
	"ps_id": 1005202,
	"title": "WAL-MART_DC_6030I-IMP_ASM"
}, {
	"ps_id": 1005203,
	"title": "WAL-MART_DC_6030J-JIT"
}, {
	"ps_id": 1005204,
	"title": "WAL-MART_DC_6030P-PAD"
}, {
	"ps_id": 1005205,
	"title": "WAL-MART_DC_6030R-REGULAR"
}, {
	"ps_id": 1005206,
	"title": "WAL-MART_DC_6030T-TAB"
}, {
	"ps_id": 1005207,
	"title": "WAL-MART_DC_6030W-WPM"
}, {
	"ps_id": 1005208,
	"title": "WAL-MART_DC_6031A-ASM_DIS"
}, {
	"ps_id": 1005209,
	"title": "WAL-MART_DC_6031D-DSDC"
}, {
	"ps_id": 1005210,
	"title": "WAL-MART_DC_6031G-GENERAL"
}, {
	"ps_id": 1005211,
	"title": "WAL-MART_DC_6031I-IMP_ASM"
}, {
	"ps_id": 1005212,
	"title": "WAL-MART_DC_6031J-JIT"
}, {
	"ps_id": 1005213,
	"title": "WAL-MART_DC_6031P-PAD"
}, {
	"ps_id": 1005214,
	"title": "WAL-MART_DC_6031R-REGULAR"
}, {
	"ps_id": 1005215,
	"title": "WAL-MART_DC_6031T-TAB"
}, {
	"ps_id": 1005216,
	"title": "WAL-MART_DC_6031W-WPM"
}, {
	"ps_id": 1005217,
	"title": "WAL-MART_DC_6035A-ASM_DIS"
}, {
	"ps_id": 1005218,
	"title": "WAL-MART_DC_6035D-DSDC"
}, {
	"ps_id": 1005219,
	"title": "WAL-MART_DC_6035G-GENERAL"
}, {
	"ps_id": 1005220,
	"title": "WAL-MART_DC_6035I-IMP_ASM"
}, {
	"ps_id": 1005221,
	"title": "WAL-MART_DC_6035J-JIT"
}, {
	"ps_id": 1005222,
	"title": "WAL-MART_DC_6035P-PAD"
}, {
	"ps_id": 1005223,
	"title": "WAL-MART_DC_6035R-REGULAR"
}, {
	"ps_id": 1005224,
	"title": "WAL-MART_DC_6035T-TAB"
}, {
	"ps_id": 1005225,
	"title": "WAL-MART_DC_6035W-WPM"
}, {
	"ps_id": 1005226,
	"title": "WAL-MART_DC_6036D-DSDC"
}, {
	"ps_id": 1005227,
	"title": "WAL-MART_DC_6036G-GENERAL"
}, {
	"ps_id": 1005228,
	"title": "WAL-MART_DC_6036I-IMP_ASM"
}, {
	"ps_id": 1005229,
	"title": "WAL-MART_DC_6036J-JIT"
}, {
	"ps_id": 1005230,
	"title": "WAL-MART_DC_6036P-PAD"
}, {
	"ps_id": 1005231,
	"title": "WAL-MART_DC_6036R-REGULAR"
}, {
	"ps_id": 1005232,
	"title": "WAL-MART_DC_6036T-TAB"
}, {
	"ps_id": 1005233,
	"title": "WAL-MART_DC_6036W-WPM"
}, {
	"ps_id": 1005234,
	"title": "WAL-MART_DC_6037A-ASM_DIS"
}, {
	"ps_id": 1005235,
	"title": "WAL-MART_DC_6037D-DSDC"
}, {
	"ps_id": 1005236,
	"title": "WAL-MART_DC_6037G-GENERAL"
}, {
	"ps_id": 1005237,
	"title": "WAL-MART_DC_6037I-IMP_ASM"
}, {
	"ps_id": 1005238,
	"title": "WAL-MART_DC_6037J-JIT"
}, {
	"ps_id": 1005239,
	"title": "WAL-MART_DC_6037P-PAD"
}, {
	"ps_id": 1005240,
	"title": "WAL-MART_DC_6037R-REGULAR"
}, {
	"ps_id": 1005241,
	"title": "WAL-MART_DC_6037T-TAB"
}, {
	"ps_id": 1005242,
	"title": "WAL-MART_DC_6037W-WPM"
}, {
	"ps_id": 1005243,
	"title": "WAL-MART_DC_6038A-ASM_DIS"
}, {
	"ps_id": 1005244,
	"title": "WAL-MART_DC_6038D-DSDC"
}, {
	"ps_id": 1005245,
	"title": "WAL-MART_DC_6038G-GENERAL"
}, {
	"ps_id": 1005246,
	"title": "WAL-MART_DC_6038I-IMP_ASM"
}, {
	"ps_id": 1005247,
	"title": "WAL-MART_DC_6038J-JIT"
}, {
	"ps_id": 1005248,
	"title": "WAL-MART_DC_6038P-PAD"
}, {
	"ps_id": 1005249,
	"title": "WAL-MART_DC_6038R-REGULAR"
}, {
	"ps_id": 1005250,
	"title": "WAL-MART_DC_6038T-TAB"
}, {
	"ps_id": 1005251,
	"title": "WAL-MART_DC_6038W-WPM"
}, {
	"ps_id": 1005252,
	"title": "WAL-MART_DC_6039A-ASM_DIS"
}, {
	"ps_id": 1005253,
	"title": "WAL-MART_DC_6039D-DSDC"
}, {
	"ps_id": 1005254,
	"title": "WAL-MART_DC_6039G-GENERAL"
}, {
	"ps_id": 1005255,
	"title": "WAL-MART_DC_6039I-IMP_ASM"
}, {
	"ps_id": 1005256,
	"title": "WAL-MART_DC_6039J-JIT"
}, {
	"ps_id": 1005257,
	"title": "WAL-MART_DC_6039P-PAD"
}, {
	"ps_id": 1005258,
	"title": "WAL-MART_DC_6039R-REGULAR"
}, {
	"ps_id": 1005259,
	"title": "WAL-MART_DC_6039T-TAB"
}, {
	"ps_id": 1005260,
	"title": "WAL-MART_DC_6039W-WPM"
}, {
	"ps_id": 1005261,
	"title": "WAL-MART_DC_6040A-ASM_DIS"
}, {
	"ps_id": 1005262,
	"title": "WAL-MART_DC_6040G-GENERAL"
}, {
	"ps_id": 1005263,
	"title": "WAL-MART_DC_6040J-JIT"
}, {
	"ps_id": 1005264,
	"title": "WAL-MART_DC_6040T-TAB"
}, {
	"ps_id": 1005265,
	"title": "WAL-MART_DC_6041A-ASM_DIS"
}, {
	"ps_id": 1005266,
	"title": "WAL-MART_DC_6041D-DSDC"
}, {
	"ps_id": 1005267,
	"title": "WAL-MART_DC_6041G-GENERAL"
}, {
	"ps_id": 1005268,
	"title": "WAL-MART_DC_6041I-IMP_ASM"
}, {
	"ps_id": 1005269,
	"title": "WAL-MART_DC_6041J-JIT"
}, {
	"ps_id": 1005270,
	"title": "WAL-MART_DC_6041P-PAD"
}, {
	"ps_id": 1005271,
	"title": "WAL-MART_DC_6041R-REGULAR"
}, {
	"ps_id": 1005272,
	"title": "WAL-MART_DC_6041T-TAB"
}, {
	"ps_id": 1005273,
	"title": "WAL-MART_DC_6041W-WPM"
}, {
	"ps_id": 1005274,
	"title": "WAL-MART_DC_6042"
}, {
	"ps_id": 1005275,
	"title": "WAL-MART_DC_6043A-ASM_DIS"
}, {
	"ps_id": 1005276,
	"title": "WAL-MART_DC_6043D-DSDC"
}, {
	"ps_id": 1005277,
	"title": "WAL-MART_DC_6043G-GENERAL"
}, {
	"ps_id": 1005278,
	"title": "WAL-MART_DC_6043I-IMP_ASM"
}, {
	"ps_id": 1005279,
	"title": "WAL-MART_DC_6043J-JIT"
}, {
	"ps_id": 1005280,
	"title": "WAL-MART_DC_6043P-PAD"
}, {
	"ps_id": 1005281,
	"title": "WAL-MART_DC_6043R-REGULAR"
}, {
	"ps_id": 1005282,
	"title": "WAL-MART_DC_6043T-TAB"
}, {
	"ps_id": 1005283,
	"title": "WAL-MART_DC_6043W-WPM"
}, {
	"ps_id": 1005284,
	"title": "WAL-MART_DC_6045A-ASM_DIS"
}, {
	"ps_id": 1005285,
	"title": "WAL-MART_DC_6045D-DSDC"
}, {
	"ps_id": 1005286,
	"title": "WAL-MART_DC_6045G-GENERAL"
}, {
	"ps_id": 1005287,
	"title": "WAL-MART_DC_6045I-IMP_ASM"
}, {
	"ps_id": 1005288,
	"title": "WAL-MART_DC_6045J-JIT"
}, {
	"ps_id": 1005289,
	"title": "WAL-MART_DC_6045P-PAD"
}, {
	"ps_id": 1005290,
	"title": "WAL-MART_DC_6045R-REGULAR"
}, {
	"ps_id": 1005291,
	"title": "WAL-MART_DC_6045T-TAB"
}, {
	"ps_id": 1005292,
	"title": "WAL-MART_DC_6045W-WPM"
}, {
	"ps_id": 1005293,
	"title": "WAL-MART_DC_6046"
}, {
	"ps_id": 1005294,
	"title": "WAL-MART_DC_6047"
}, {
	"ps_id": 1005295,
	"title": "WAL-MART_DC_6048A-ASM_DIS"
}, {
	"ps_id": 1005296,
	"title": "WAL-MART_DC_6048D-DSDC"
}, {
	"ps_id": 1005297,
	"title": "WAL-MART_DC_6048G-GENERAL"
}, {
	"ps_id": 1005298,
	"title": "WAL-MART_DC_6048I-IMP_ASM"
}, {
	"ps_id": 1005299,
	"title": "WAL-MART_DC_6048J-JIT"
}, {
	"ps_id": 1005300,
	"title": "WAL-MART_DC_6048P-PAD"
}, {
	"ps_id": 1005301,
	"title": "WAL-MART_DC_6048R-REGULAR"
}, {
	"ps_id": 1005302,
	"title": "WAL-MART_DC_6048T-TAB"
}, {
	"ps_id": 1005303,
	"title": "WAL-MART_DC_6048W-WPM"
}, {
	"ps_id": 1005304,
	"title": "WAL-MART_DC_6049A-ASM_DIS"
}, {
	"ps_id": 1005305,
	"title": "WAL-MART_DC_6049D-DSDC"
}, {
	"ps_id": 1005306,
	"title": "WAL-MART_DC_6049G-GENERAL"
}, {
	"ps_id": 1005307,
	"title": "WAL-MART_DC_6049I-IMP_ASM"
}, {
	"ps_id": 1005308,
	"title": "WAL-MART_DC_6049J-JIT"
}, {
	"ps_id": 1005309,
	"title": "WAL-MART_DC_6049P-PAD"
}, {
	"ps_id": 1005310,
	"title": "WAL-MART_DC_6049R-REGULAR"
}, {
	"ps_id": 1005311,
	"title": "WAL-MART_DC_6049T-TAB"
}, {
	"ps_id": 1005312,
	"title": "WAL-MART_DC_6049W-WPM"
}, {
	"ps_id": 1005313,
	"title": "WAL-MART_DC_6050"
}, {
	"ps_id": 1005314,
	"title": "WAL-MART_DC_6050D_-_AIDCO_DISTRIB"
}, {
	"ps_id": 1005315,
	"title": "WAL-MART_DC_6050R_-_REGULAR"
}, {
	"ps_id": 1005316,
	"title": "WAL-MART_DC_6050T_-_TABLOID"
}, {
	"ps_id": 1005317,
	"title": "WAL-MART_DC_6050W_-_WPM"
}, {
	"ps_id": 1005318,
	"title": "WAL-MART_DC_6051A-ASM_DIS"
}, {
	"ps_id": 1005319,
	"title": "WAL-MART_DC_6051D-DSDC"
}, {
	"ps_id": 1005320,
	"title": "WAL-MART_DC_6051G-GENERAL"
}, {
	"ps_id": 1005321,
	"title": "WAL-MART_DC_6051I-IMP_ASM"
}, {
	"ps_id": 1005322,
	"title": "WAL-MART_DC_6051J-JIT"
}, {
	"ps_id": 1005323,
	"title": "WAL-MART_DC_6051P-PAD"
}, {
	"ps_id": 1005324,
	"title": "WAL-MART_DC_6051R-REGULAR"
}, {
	"ps_id": 1005325,
	"title": "WAL-MART_DC_6051T-TAB"
}, {
	"ps_id": 1005326,
	"title": "WAL-MART_DC_6051W-WPM"
}, {
	"ps_id": 1005327,
	"title": "WAL-MART_DC_6054A-ASM_DIS"
}, {
	"ps_id": 1005328,
	"title": "WAL-MART_DC_6054D-DSDC"
}, {
	"ps_id": 1005329,
	"title": "WAL-MART_DC_6054G-GENERAL"
}, {
	"ps_id": 1005330,
	"title": "WAL-MART_DC_6054I-IMP_ASM"
}, {
	"ps_id": 1005331,
	"title": "WAL-MART_DC_6054J-JIT"
}, {
	"ps_id": 1005332,
	"title": "WAL-MART_DC_6054P-PAD"
}, {
	"ps_id": 1005333,
	"title": "WAL-MART_DC_6054R-REGULAR"
}, {
	"ps_id": 1005334,
	"title": "WAL-MART_DC_6054T-TAB"
}, {
	"ps_id": 1005335,
	"title": "WAL-MART_DC_6054W-WPM"
}, {
	"ps_id": 1005336,
	"title": "WAL-MART_DC_6055"
}, {
	"ps_id": 1005337,
	"title": "WAL-MART_DC_6057"
}, {
	"ps_id": 1005338,
	"title": "WAL-MART_DC_6058"
}, {
	"ps_id": 1005339,
	"title": "WAL-MART_DC_6059"
}, {
	"ps_id": 1005340,
	"title": "WAL-MART_DC_6060A-ASM_DIS"
}, {
	"ps_id": 1005341,
	"title": "WAL-MART_DC_6060D-DSDC"
}, {
	"ps_id": 1005342,
	"title": "WAL-MART_DC_6060G-GENERAL"
}, {
	"ps_id": 1005343,
	"title": "WAL-MART_DC_6060I-IMP_ASM"
}, {
	"ps_id": 1005344,
	"title": "WAL-MART_DC_6060J-JIT"
}, {
	"ps_id": 1005345,
	"title": "WAL-MART_DC_6060P-PAD"
}, {
	"ps_id": 1005346,
	"title": "WAL-MART_DC_6060R-REGULAR"
}, {
	"ps_id": 1005347,
	"title": "WAL-MART_DC_6060T-TAB"
}, {
	"ps_id": 1005348,
	"title": "WAL-MART_DC_6060W-WPM"
}, {
	"ps_id": 1005349,
	"title": "WAL-MART_DC_6061A-ASM_DIS"
}, {
	"ps_id": 1005350,
	"title": "WAL-MART_DC_6061D-DSDC"
}, {
	"ps_id": 1005351,
	"title": "WAL-MART_DC_6061G-GENERAL"
}, {
	"ps_id": 1005352,
	"title": "WAL-MART_DC_6061I-IMP_ASM"
}, {
	"ps_id": 1005353,
	"title": "WAL-MART_DC_6061J-JIT"
}, {
	"ps_id": 1005354,
	"title": "WAL-MART_DC_6061P-PAD"
}, {
	"ps_id": 1005355,
	"title": "WAL-MART_DC_6061R-REGULAR"
}, {
	"ps_id": 1005356,
	"title": "WAL-MART_DC_6061T-TAB"
}, {
	"ps_id": 1005357,
	"title": "WAL-MART_DC_6061W-WPM"
}, {
	"ps_id": 1005358,
	"title": "WAL-MART_DC_6064"
}, {
	"ps_id": 1005359,
	"title": "WAL-MART_DC_6065"
}, {
	"ps_id": 1005360,
	"title": "WAL-MART_DC_6066A-ASM_DIS"
}, {
	"ps_id": 1005361,
	"title": "WAL-MART_DC_6066D-DSDC"
}, {
	"ps_id": 1005362,
	"title": "WAL-MART_DC_6066G-GENERAL"
}, {
	"ps_id": 1005363,
	"title": "WAL-MART_DC_6066I-IMP_ASM"
}, {
	"ps_id": 1005364,
	"title": "WAL-MART_DC_6066J-JIT"
}, {
	"ps_id": 1005365,
	"title": "WAL-MART_DC_6066P-PAD"
}, {
	"ps_id": 1005366,
	"title": "WAL-MART_DC_6066R-REGULAR"
}, {
	"ps_id": 1005367,
	"title": "WAL-MART_DC_6066T-TAB"
}, {
	"ps_id": 1005368,
	"title": "WAL-MART_DC_6066W-WPM"
}, {
	"ps_id": 1005369,
	"title": "WAL-MART_DC_6068A-ASM_DIS"
}, {
	"ps_id": 1005370,
	"title": "WAL-MART_DC_6068D-DSDC"
}, {
	"ps_id": 1005371,
	"title": "WAL-MART_DC_6068G-_GENERAL"
}, {
	"ps_id": 1005372,
	"title": "WAL-MART_DC_6068I-IMP_ASM"
}, {
	"ps_id": 1005373,
	"title": "WAL-MART_DC_6068J-JIT"
}, {
	"ps_id": 1005374,
	"title": "WAL-MART_DC_6068P-PAD"
}, {
	"ps_id": 1005375,
	"title": "WAL-MART_DC_6068R-REGULAR"
}, {
	"ps_id": 1005376,
	"title": "WAL-MART_DC_6068T-TAB"
}, {
	"ps_id": 1005377,
	"title": "WAL-MART_DC_6068W-WPM"
}, {
	"ps_id": 1005378,
	"title": "WAL-MART_DC_6069A-ASM_DIS"
}, {
	"ps_id": 1005379,
	"title": "WAL-MART_DC_6069D-DSDC"
}, {
	"ps_id": 1005380,
	"title": "WAL-MART_DC_6069G-GENERAL"
}, {
	"ps_id": 1005381,
	"title": "WAL-MART_DC_6069I-IMP_ASM"
}, {
	"ps_id": 1005382,
	"title": "WAL-MART_DC_6069J-JIT"
}, {
	"ps_id": 1005383,
	"title": "WAL-MART_DC_6069P-PAD"
}, {
	"ps_id": 1005384,
	"title": "WAL-MART_DC_6069T-TAB"
}, {
	"ps_id": 1005385,
	"title": "WAL-MART_DC_6069W-WPM"
}, {
	"ps_id": 1005386,
	"title": "WAL-MART_DC_6070A-ASM_DIS"
}, {
	"ps_id": 1005387,
	"title": "WAL-MART_DC_6070D-DSDC"
}, {
	"ps_id": 1005388,
	"title": "WAL-MART_DC_6070G-GENERAL"
}, {
	"ps_id": 1005389,
	"title": "WAL-MART_DC_6070J-JIT"
}, {
	"ps_id": 1005390,
	"title": "WAL-MART_DC_6070P-PAD"
}, {
	"ps_id": 1005391,
	"title": "WAL-MART_DC_6070R-REGULAR"
}, {
	"ps_id": 1005392,
	"title": "WAL-MART_DC_6070T-TAB"
}, {
	"ps_id": 1005393,
	"title": "WAL-MART_DC_6071"
}, {
	"ps_id": 1005394,
	"title": "WAL-MART_DC_6072"
}, {
	"ps_id": 1005395,
	"title": "WAL-MART_DC_6073"
}, {
	"ps_id": 1005396,
	"title": "WAL-MART_DC_6074"
}, {
	"ps_id": 1005397,
	"title": "WAL-MART_DC_6076"
}, {
	"ps_id": 1005398,
	"title": "WAL-MART_DC_6077"
}, {
	"ps_id": 1005399,
	"title": "WAL-MART_DC_6080A-ASM_DIS"
}, {
	"ps_id": 1005400,
	"title": "WAL-MART_DC_6080D-DSDC"
}, {
	"ps_id": 1005401,
	"title": "WAL-MART_DC_6080G-GENERAL"
}, {
	"ps_id": 1005402,
	"title": "WAL-MART_DC_6080I-IMP_ASM"
}, {
	"ps_id": 1005403,
	"title": "WAL-MART_DC_6080J-JIT"
}, {
	"ps_id": 1005404,
	"title": "WAL-MART_DC_6080P-PAD"
}, {
	"ps_id": 1005405,
	"title": "WAL-MART_DC_6080R-REGULAR"
}, {
	"ps_id": 1005406,
	"title": "WAL-MART_DC_6080T-TAB"
}, {
	"ps_id": 1005407,
	"title": "WAL-MART_DC_6080W-WPM"
}, {
	"ps_id": 1005408,
	"title": "WAL-MART_DC_6082"
}, {
	"ps_id": 1005409,
	"title": "WAL-MART_DC_6083"
}, {
	"ps_id": 1005410,
	"title": "WAL-MART_DC_6084"
}, {
	"ps_id": 1005411,
	"title": "WAL-MART_DC_6085"
}, {
	"ps_id": 1005412,
	"title": "WAL-MART_DC_6087"
}, {
	"ps_id": 1005413,
	"title": "WAL-MART_DC_6087_REGULAR"
}, {
	"ps_id": 1005414,
	"title": "WAL-MART_DC_6087_WPM"
}, {
	"ps_id": 1005415,
	"title": "WAL-MART_DC_6088A-ASM_DIS"
}, {
	"ps_id": 1005416,
	"title": "WAL-MART_DC_6088D-DSDC"
}, {
	"ps_id": 1005417,
	"title": "WAL-MART_DC_6088G-GENERAL"
}, {
	"ps_id": 1005418,
	"title": "WAL-MART_DC_6088I-IMP_ASM"
}, {
	"ps_id": 1005419,
	"title": "WAL-MART_DC_6088J-JIT"
}, {
	"ps_id": 1005420,
	"title": "WAL-MART_DC_6088P-PAD"
}, {
	"ps_id": 1005421,
	"title": "WAL-MART_DC_6088R-REGULAR"
}, {
	"ps_id": 1005422,
	"title": "WAL-MART_DC_6088T-TAB"
}, {
	"ps_id": 1005423,
	"title": "WAL-MART_DC_6088W-WPM"
}, {
	"ps_id": 1005424,
	"title": "WAL-MART_DC_6090"
}, {
	"ps_id": 1005425,
	"title": "WAL-MART_DC_6091"
}, {
	"ps_id": 1005426,
	"title": "WAL-MART_DC_6092"
}, {
	"ps_id": 1005427,
	"title": "WAL-MART_DC_6092A-ASM_DIS"
}, {
	"ps_id": 1005428,
	"title": "WAL-MART_DC_6092D-DSDC"
}, {
	"ps_id": 1005429,
	"title": "WAL-MART_DC_6092G-GENERAL"
}, {
	"ps_id": 1005430,
	"title": "WAL-MART_DC_6092I-IMP_ASM"
}, {
	"ps_id": 1005431,
	"title": "WAL-MART_DC_6092J-JIT"
}, {
	"ps_id": 1005432,
	"title": "WAL-MART_DC_6092P-PAD"
}, {
	"ps_id": 1005433,
	"title": "WAL-MART_DC_6092R-REGULAR"
}, {
	"ps_id": 1005434,
	"title": "WAL-MART_DC_6092T-TAB"
}, {
	"ps_id": 1005435,
	"title": "WAL-MART_DC_6092W-WPM"
}, {
	"ps_id": 1005436,
	"title": "WAL-MART_DC_6094A-ASM_DIS"
}, {
	"ps_id": 1005437,
	"title": "WAL-MART_DC_6094D-DSDC"
}, {
	"ps_id": 1005438,
	"title": "WAL-MART_DC_6094G-GENERAL"
}, {
	"ps_id": 1005439,
	"title": "WAL-MART_DC_6094I-IMP_ASM"
}, {
	"ps_id": 1005440,
	"title": "WAL-MART_DC_6094J-JIT"
}, {
	"ps_id": 1005441,
	"title": "WAL-MART_DC_6094P-PAD"
}, {
	"ps_id": 1005442,
	"title": "WAL-MART_DC_6094R-REGULAR"
}, {
	"ps_id": 1005443,
	"title": "WAL-MART_DC_6094T-TAB"
}, {
	"ps_id": 1005444,
	"title": "WAL-MART_DC_6094W-WPM"
}, {
	"ps_id": 1005445,
	"title": "WAL-MART_DC_6095"
}, {
	"ps_id": 1005446,
	"title": "WAL-MART_DC_6096"
}, {
	"ps_id": 1005447,
	"title": "WAL-MART_DC_6097"
}, {
	"ps_id": 1005448,
	"title": "WAL-MART_DC_6099"
}, {
	"ps_id": 1005449,
	"title": "WAL-MART_DC_6147"
}, {
	"ps_id": 1005450,
	"title": "WAL-MART_DC_6148"
}, {
	"ps_id": 1005451,
	"title": "WAL-MART_DC_6149"
}, {
	"ps_id": 1005452,
	"title": "WAL-MART_DC_6150"
}, {
	"ps_id": 1005453,
	"title": "WAL-MART_DC_6151"
}, {
	"ps_id": 1005454,
	"title": "WAL-MART_DC_6152"
}, {
	"ps_id": 1005455,
	"title": "WAL-MART_DC_6153"
}, {
	"ps_id": 1005456,
	"title": "WAL-MART_DC_6154"
}, {
	"ps_id": 1005457,
	"title": "WAL-MART_DC_6901"
}, {
	"ps_id": 1005458,
	"title": "WAL-MART_DC_6904"
}, {
	"ps_id": 1005459,
	"title": "WAL-MART_DC_6906"
}, {
	"ps_id": 1005460,
	"title": "WAL-MART_DC_6907"
}, {
	"ps_id": 1005461,
	"title": "WAL-MART_DC_6909"
}, {
	"ps_id": 1005462,
	"title": "WAL-MART_DC_6912"
}, {
	"ps_id": 1005463,
	"title": "WAL-MART_DC_6913"
}, {
	"ps_id": 1005464,
	"title": "WAL-MART_DC_6915"
}, {
	"ps_id": 1005465,
	"title": "WAL-MART_DC_6917"
}, {
	"ps_id": 1005466,
	"title": "WAL-MART_DC_6918"
}, {
	"ps_id": 1005467,
	"title": "WAL-MART_DC_6924"
}, {
	"ps_id": 1005468,
	"title": "WAL-MART_DC_6935"
}, {
	"ps_id": 1005469,
	"title": "WAL-MART_DC_6954"
}, {
	"ps_id": 1005470,
	"title": "WAL-MART_DC_6956"
}, {
	"ps_id": 1005471,
	"title": "WAL-MART_DC_6969"
}, {
	"ps_id": 1005472,
	"title": "WAL-MART_DC_6974"
}, {
	"ps_id": 1005473,
	"title": "WAL-MART_DC_6992"
}, {
	"ps_id": 1005474,
	"title": "WAL-MART_DC_7010"
}, {
	"ps_id": 1005475,
	"title": "WAL-MART_DC_7012"
}, {
	"ps_id": 1005476,
	"title": "WAL-MART_DC_7013"
}, {
	"ps_id": 1005477,
	"title": "WAL-MART_DC_7014"
}, {
	"ps_id": 1005478,
	"title": "WAL-MART_DC_7015"
}, {
	"ps_id": 1005479,
	"title": "WAL-MART_DC_7016"
}, {
	"ps_id": 1005480,
	"title": "WAL-MART_DC_7017"
}, {
	"ps_id": 1005481,
	"title": "WAL-MART_DC_7018"
}, {
	"ps_id": 1005482,
	"title": "WAL-MART_DC_7019"
}, {
	"ps_id": 1005483,
	"title": "WAL-MART_DC_7021"
}, {
	"ps_id": 1005484,
	"title": "WAL-MART_DC_7023"
}, {
	"ps_id": 1005485,
	"title": "WAL-MART_DC_7026A-ASM_DIS"
}, {
	"ps_id": 1005486,
	"title": "WAL-MART_DC_7026D-DSDC"
}, {
	"ps_id": 1005487,
	"title": "WAL-MART_DC_7026G-GENERAL"
}, {
	"ps_id": 1005488,
	"title": "WAL-MART_DC_7026I-IMP_ASM"
}, {
	"ps_id": 1005489,
	"title": "WAL-MART_DC_7026J-JIT"
}, {
	"ps_id": 1005490,
	"title": "WAL-MART_DC_7026P-PAD"
}, {
	"ps_id": 1005491,
	"title": "WAL-MART_DC_7026T-TAB"
}, {
	"ps_id": 1005492,
	"title": "WAL-MART_DC_7026W-WPM"
}, {
	"ps_id": 1005493,
	"title": "WAL-MART_DC_7030"
}, {
	"ps_id": 1005494,
	"title": "WAL-MART_DC_7031"
}, {
	"ps_id": 1005495,
	"title": "WAL-MART_DC_7033A-ASM_DIS"
}, {
	"ps_id": 1005496,
	"title": "WAL-MART_DC_7033D-DSDC"
}, {
	"ps_id": 1005497,
	"title": "WAL-MART_DC_7033G-GENERAL"
}, {
	"ps_id": 1005498,
	"title": "WAL-MART_DC_7033I-IMP_ASM"
}, {
	"ps_id": 1005499,
	"title": "WAL-MART_DC_7033J-JIT"
}, {
	"ps_id": 1005500,
	"title": "WAL-MART_DC_7033P-PAD"
}, {
	"ps_id": 1005501,
	"title": "WAL-MART_DC_7033R-REGULAR"
}, {
	"ps_id": 1005502,
	"title": "WAL-MART_DC_7033T-TAB"
}, {
	"ps_id": 1005503,
	"title": "WAL-MART_DC_7033W-WPM"
}, {
	"ps_id": 1005504,
	"title": "WAL-MART_DC_7034A-ASM_DIS"
}, {
	"ps_id": 1005505,
	"title": "WAL-MART_DC_7034D-DSDC"
}, {
	"ps_id": 1005506,
	"title": "WAL-MART_DC_7034G-GENERAL"
}, {
	"ps_id": 1005507,
	"title": "WAL-MART_DC_7034I-IMP_ASM"
}, {
	"ps_id": 1005508,
	"title": "WAL-MART_DC_7034J-JIT"
}, {
	"ps_id": 1005509,
	"title": "WAL-MART_DC_7034P-PAD"
}, {
	"ps_id": 1005510,
	"title": "WAL-MART_DC_7034R-REGULAR"
}, {
	"ps_id": 1005511,
	"title": "WAL-MART_DC_7034T-TAB"
}, {
	"ps_id": 1005512,
	"title": "WAL-MART_DC_7034W-WPM"
}, {
	"ps_id": 1005513,
	"title": "WAL-MART_DC_7035A-ASM_DIS"
}, {
	"ps_id": 1005514,
	"title": "WAL-MART_DC_7035D-DSDC"
}, {
	"ps_id": 1005515,
	"title": "WAL-MART_DC_7035G-GENERAL"
}, {
	"ps_id": 1005516,
	"title": "WAL-MART_DC_7035I-IMP_ASM"
}, {
	"ps_id": 1005517,
	"title": "WAL-MART_DC_7035J-JIT"
}, {
	"ps_id": 1005518,
	"title": "WAL-MART_DC_7035P-PAD"
}, {
	"ps_id": 1005519,
	"title": "WAL-MART_DC_7035R-REGULAR"
}, {
	"ps_id": 1005520,
	"title": "WAL-MART_DC_7035T-TAB"
}, {
	"ps_id": 1005521,
	"title": "WAL-MART_DC_7035W-WPM"
}, {
	"ps_id": 1005522,
	"title": "WAL-MART_DC_7036"
}, {
	"ps_id": 1005523,
	"title": "WAL-MART_DC_7036A-ASM_DIS"
}, {
	"ps_id": 1005524,
	"title": "WAL-MART_DC_7036G-GENERAL"
}, {
	"ps_id": 1005525,
	"title": "WAL-MART_DC_7036P-PAD"
}, {
	"ps_id": 1005526,
	"title": "WAL-MART_DC_7036R-REGULAR"
}, {
	"ps_id": 1005527,
	"title": "WAL-MART_DC_7036T-TAB"
}, {
	"ps_id": 1005528,
	"title": "WAL-MART_DC_7038A-ASM_DIS"
}, {
	"ps_id": 1005529,
	"title": "WAL-MART_DC_7038D-DSDC"
}, {
	"ps_id": 1005530,
	"title": "WAL-MART_DC_7038G-GENERAL"
}, {
	"ps_id": 1005531,
	"title": "WAL-MART_DC_7038I-IMP_ASM"
}, {
	"ps_id": 1005532,
	"title": "WAL-MART_DC_7038J-JIT"
}, {
	"ps_id": 1005533,
	"title": "WAL-MART_DC_7038P-PAD"
}, {
	"ps_id": 1005534,
	"title": "WAL-MART_DC_7038R-REGULAR"
}, {
	"ps_id": 1005535,
	"title": "WAL-MART_DC_7038T-TAB"
}, {
	"ps_id": 1005536,
	"title": "WAL-MART_DC_7038W-WPM"
}, {
	"ps_id": 1005537,
	"title": "WAL-MART_DC_7039A-ASM_DIS"
}, {
	"ps_id": 1005538,
	"title": "WAL-MART_DC_7039D-DSDC"
}, {
	"ps_id": 1005539,
	"title": "WAL-MART_DC_7039G-GENERAL"
}, {
	"ps_id": 1005540,
	"title": "WAL-MART_DC_7039I-IMP_ASM"
}, {
	"ps_id": 1005541,
	"title": "WAL-MART_DC_7039J-JIT"
}, {
	"ps_id": 1005542,
	"title": "WAL-MART_DC_7039P-PAD"
}, {
	"ps_id": 1005543,
	"title": "WAL-MART_DC_7039R-REGULAR"
}, {
	"ps_id": 1005544,
	"title": "WAL-MART_DC_7039T-TAB"
}, {
	"ps_id": 1005545,
	"title": "WAL-MART_DC_7039W-WPM"
}, {
	"ps_id": 1005546,
	"title": "WAL-MART_DC_7040A-ASM_DIS"
}, {
	"ps_id": 1005547,
	"title": "WAL-MART_DC_7040D-DSDC"
}, {
	"ps_id": 1005548,
	"title": "WAL-MART_DC_7040G-GENERAL"
}, {
	"ps_id": 1005549,
	"title": "WAL-MART_DC_7040I-IMP_ASM"
}, {
	"ps_id": 1005550,
	"title": "WAL-MART_DC_7040J-JIT"
}, {
	"ps_id": 1005551,
	"title": "WAL-MART_DC_7040P-PAD"
}, {
	"ps_id": 1005552,
	"title": "WAL-MART_DC_7040R-REGULAR"
}, {
	"ps_id": 1005553,
	"title": "WAL-MART_DC_7040T-TAB"
}, {
	"ps_id": 1005554,
	"title": "WAL-MART_DC_7040W-WPM"
}, {
	"ps_id": 1005555,
	"title": "WAL-MART_DC_7041A-ASM_DIS"
}, {
	"ps_id": 1005556,
	"title": "WAL-MART_DC_7041D-DSDC"
}, {
	"ps_id": 1005557,
	"title": "WAL-MART_DC_7041G-GENERAL"
}, {
	"ps_id": 1005558,
	"title": "WAL-MART_DC_7041I-IMP_ASM"
}, {
	"ps_id": 1005559,
	"title": "WAL-MART_DC_7041J-JIT"
}, {
	"ps_id": 1005560,
	"title": "WAL-MART_DC_7041P-PAD"
}, {
	"ps_id": 1005561,
	"title": "WAL-MART_DC_7041R-REGULAR"
}, {
	"ps_id": 1005562,
	"title": "WAL-MART_DC_7041T-TAB"
}, {
	"ps_id": 1005563,
	"title": "WAL-MART_DC_7041W-WPM"
}, {
	"ps_id": 1005564,
	"title": "WAL-MART_DC_7045A-ASM_DIS"
}, {
	"ps_id": 1005565,
	"title": "WAL-MART_DC_7045D-DSDC"
}, {
	"ps_id": 1005566,
	"title": "WAL-MART_DC_7045G-GENERAL"
}, {
	"ps_id": 1005567,
	"title": "WAL-MART_DC_7045I-IMP_ASM"
}, {
	"ps_id": 1005568,
	"title": "WAL-MART_DC_7045J-JIT"
}, {
	"ps_id": 1005569,
	"title": "WAL-MART_DC_7045P-PAD"
}, {
	"ps_id": 1005570,
	"title": "WAL-MART_DC_7045R-REGULAR"
}, {
	"ps_id": 1005571,
	"title": "WAL-MART_DC_7045T-TAB"
}, {
	"ps_id": 1005572,
	"title": "WAL-MART_DC_7045W-WPM"
}, {
	"ps_id": 1005573,
	"title": "WAL-MART_DC_7047"
}, {
	"ps_id": 1005574,
	"title": "WAL-MART_DC_7048"
}, {
	"ps_id": 1005575,
	"title": "WAL-MART_DC_7052"
}, {
	"ps_id": 1005576,
	"title": "WAL-MART_DC_7054"
}, {
	"ps_id": 1005577,
	"title": "WAL-MART_DC_7055"
}, {
	"ps_id": 1005578,
	"title": "WAL-MART_DC_7057"
}, {
	"ps_id": 1005579,
	"title": "WAL-MART_DC_7070"
}, {
	"ps_id": 1005580,
	"title": "WAL-MART_DC_7073"
}, {
	"ps_id": 1005581,
	"title": "WAL-MART_DC_7074"
}, {
	"ps_id": 1005582,
	"title": "WAL-MART_DC_7077"
}, {
	"ps_id": 1005583,
	"title": "WAL-MART_DC_7084"
}, {
	"ps_id": 1005584,
	"title": "WAL-MART_DC_7085"
}, {
	"ps_id": 1005585,
	"title": "WAL-MART_DC_7086"
}, {
	"ps_id": 1005586,
	"title": "WAL-MART_DC_7089"
}, {
	"ps_id": 1005587,
	"title": "WAL-MART_DC_7090"
}, {
	"ps_id": 1005588,
	"title": "WAL-MART_DC_7092"
}, {
	"ps_id": 1005589,
	"title": "WAL-MART_DC_7093"
}, {
	"ps_id": 1005590,
	"title": "WAL-MART_DC_7094"
}, {
	"ps_id": 1005591,
	"title": "WAL-MART_DC_7095"
}, {
	"ps_id": 1005592,
	"title": "WAL-MART_DC_7097"
}, {
	"ps_id": 1005593,
	"title": "WAL-MART_DC_7474"
}, {
	"ps_id": 1005594,
	"title": "WAL-MART_DC_7480"
}, {
	"ps_id": 1005595,
	"title": "WAL-MART_DC_7483"
}, {
	"ps_id": 1005596,
	"title": "WAL-MART_DC_7734"
}, {
	"ps_id": 1005597,
	"title": "WAL-MART_DC_7738"
}, {
	"ps_id": 1005598,
	"title": "WAL-MART_DC_7744"
}, {
	"ps_id": 1005599,
	"title": "WAL-MART_DC_7836"
}, {
	"ps_id": 1005600,
	"title": "WAL-MART_DC_7837"
}, {
	"ps_id": 1005601,
	"title": "WAL-MART_DC_7840"
}, {
	"ps_id": 1005602,
	"title": "WAL-MART_DC_7966"
}, {
	"ps_id": 1005603,
	"title": "WAL-MART_DC_7967"
}, {
	"ps_id": 1005604,
	"title": "WAL-MART_DC_7968"
}, {
	"ps_id": 1005605,
	"title": "WAL-MART_DC_7969"
}, {
	"ps_id": 1005606,
	"title": "WAL-MART_DC_7976"
}, {
	"ps_id": 1005607,
	"title": "WAL-MART_DC_7980"
}, {
	"ps_id": 1005608,
	"title": "WAL-MART_DC_8663"
}, {
	"ps_id": 1005609,
	"title": "WAL-MART_DC_9053"
}, {
	"ps_id": 1005610,
	"title": "WAL-MART_DC_9398"
}, {
	"ps_id": 1005611,
	"title": "WAL-MART_DC_DC_3553"
}, {
	"ps_id": 1005612,
	"title": "WAL-MART_DC_DC_6070I-IMP_ASM"
}, {
	"ps_id": 1005613,
	"title": "WAL-MART_DC_DC_6070W-WPM"
}, {
	"ps_id": 1005614,
	"title": "WAL-MART_DC_DC#_6906"
}, {
	"ps_id": 1005615,
	"title": "WAL-MART_DC_IMPORT"
}, {
	"ps_id": 1005616,
	"title": "WAL-MART_DC3004"
}, {
	"ps_id": 1005617,
	"title": "WAL-MART_DC6010G-GENERAL"
}, {
	"ps_id": 1005618,
	"title": "WAL-MART_DC6036A--ASM_DIS"
}, {
	"ps_id": 1005619,
	"title": "WAL-MART_DC6069R-REGULAR"
}, {
	"ps_id": 1005620,
	"title": "WAL-MART_DC6124"
}, {
	"ps_id": 1005621,
	"title": "WAL-MART_DC7026R-REGULAR"
}, {
	"ps_id": 1005622,
	"title": "WAL-MART_DISPATCH"
}, {
	"ps_id": 1005623,
	"title": "WAL-MART_DISPATCH,_SANGER,_TX"
}, {
	"ps_id": 1005624,
	"title": "WAL-MART_DISPATCH,_ST_JAMES,_MO"
}, {
	"ps_id": 1005625,
	"title": "WAL-MART_ELECTRONIC_REPAIR"
}, {
	"ps_id": 1005626,
	"title": "WAL-MART_IMPORT_DC_7042A-ASM_DIS"
}, {
	"ps_id": 1005627,
	"title": "WAL-MART_IMPORT_DC_7042D-DSDC"
}, {
	"ps_id": 1005628,
	"title": "WAL-MART_IMPORT_DC_7042G-GENERAL"
}, {
	"ps_id": 1005629,
	"title": "WAL-MART_IMPORT_DC_7042I-IMP_ASM"
}, {
	"ps_id": 1005630,
	"title": "WAL-MART_IMPORT_DC_7042J-JIT"
}, {
	"ps_id": 1005631,
	"title": "WAL-MART_IMPORT_DC_7042P-PAD"
}, {
	"ps_id": 1005632,
	"title": "WAL-MART_IMPORT_DC_7042R-REGULAR"
}, {
	"ps_id": 1005633,
	"title": "WAL-MART_IMPORT_DC_7042T-TAB"
}, {
	"ps_id": 1005634,
	"title": "WAL-MART_IMPORT_DC_7042W-WPM"
}, {
	"ps_id": 1005635,
	"title": "WAL-MART_IMPORT_DC_7078A-ASM_DIS"
}, {
	"ps_id": 1005636,
	"title": "WAL-MART_IMPORT_DC_7078D-DSDC"
}, {
	"ps_id": 1005637,
	"title": "WAL-MART_IMPORT_DC_7078G-GENERAL"
}, {
	"ps_id": 1005638,
	"title": "WAL-MART_IMPORT_DC_7078I-IMP_ASM"
}, {
	"ps_id": 1005639,
	"title": "WAL-MART_IMPORT_DC_7078J-JIT"
}, {
	"ps_id": 1005640,
	"title": "WAL-MART_IMPORT_DC_7078P-PAD"
}, {
	"ps_id": 1005641,
	"title": "WAL-MART_IMPORT_DC_7078R-REGULAR"
}, {
	"ps_id": 1005642,
	"title": "WAL-MART_IMPORT_DC_7078T-TAB"
}, {
	"ps_id": 1005643,
	"title": "WAL-MART_IMPORT_DC_7078W-WPM"
}, {
	"ps_id": 1005644,
	"title": "WAL-MART_MAINT_SHOP_TOBYHANNA_PA"
}, {
	"ps_id": 1005645,
	"title": "WAL-MART_PHARM_DC_6001"
}, {
	"ps_id": 1005646,
	"title": "WAL-MART_RETURN_CENTER_6113"
}, {
	"ps_id": 1005647,
	"title": "WAL-MART_RETURN_CENTER_8098"
}, {
	"ps_id": 1005648,
	"title": "WAL-MART_RETURN_CENTER_9194"
}, {
	"ps_id": 1005649,
	"title": "WAL-MART_RIVERSIDE_CA_GROC_DC"
}, {
	"ps_id": 1005650,
	"title": "WAL-MART_ROC_BENTONVILLE"
}, {
	"ps_id": 1005651,
	"title": "WAL-MART_TRUCKING_DOUGLAS_GA"
}, {
	"ps_id": 1005652,
	"title": "WAL-MART_TRUCKING_GREENCASTLE_IN"
}, {
	"ps_id": 1005653,
	"title": "WAL-MART_TRUCKING,_SHARON_SPRINGS"
}, {
	"ps_id": 1005654,
	"title": "WAL-MART_VIRTUAL_DC_7059"
}, {
	"ps_id": 1005655,
	"title": "WAL-MART_VIRTUAL_DC_7063"
}, {
	"ps_id": 1005656,
	"title": "WAL-MART_VIRTUAL_DC_7066"
}, {
	"ps_id": 1005657,
	"title": "WAL-MART_VIRTUAL_DC_7076"
}, {
	"ps_id": 1005658,
	"title": "WAL-MART.COM_DC_7748"
}, {
	"ps_id": 1005659,
	"title": "WAL-MART.COM_DC_7752"
}, {
	"ps_id": 1005660,
	"title": "WOODLAND,_PA_(MAINT._SHOP)"
}, {
	"ps_id": 1005661,
	"title": "WAY_INTERGLOBAL_NETWORK,_LLC"
}, {
	"ps_id": 1005662,
	"title": "WISTINFO"
}, {
	"ps_id": 1005663,
	"title": "WALMART.COM_DC_3555"
}, {
	"ps_id": 1005664,
	"title": "WM.COM_DC"
}, {
	"ps_id": 1005665,
	"title": "WM.COM_DC_2698"
}, {
	"ps_id": 1005666,
	"title": "WM.COM_DC_7746"
}, {
	"ps_id": 1005667,
	"title": "WM.COM_DC_2070"
}, {
	"ps_id": 1005668,
	"title": "WM.COM_DC_2126"
}, {
	"ps_id": 1005669,
	"title": "WM.COM_DC_2377"
}, {
	"ps_id": 1005670,
	"title": "WM.COM_DC_2379"
}, {
	"ps_id": 1005671,
	"title": "WM.COM_DC_2380"
}, {
	"ps_id": 1005672,
	"title": "WM.COM_DC_2381"
}, {
	"ps_id": 1005673,
	"title": "WM.COM_DC_2383"
}, {
	"ps_id": 1005674,
	"title": "WM.COM_DC_2384"
}, {
	"ps_id": 1005675,
	"title": "WM.COM_DC_2623"
}, {
	"ps_id": 1005676,
	"title": "WM.COM_DC_2624"
}, {
	"ps_id": 1005677,
	"title": "WM.COM_DC_2746"
}, {
	"ps_id": 1005678,
	"title": "WM.COM_DC_2750"
}, {
	"ps_id": 1005679,
	"title": "WM.COM_DC_3540"
}, {
	"ps_id": 1005680,
	"title": "WM.COM_DC_3550"
}, {
	"ps_id": 1005681,
	"title": "WM.COM_DC_3551"
}, {
	"ps_id": 1005682,
	"title": "WM.COM_DC_3553"
}, {
	"ps_id": 1005683,
	"title": "WM.COM_DC_3554"
}, {
	"ps_id": 1005684,
	"title": "WM.COM_DC_3556"
}, {
	"ps_id": 1005685,
	"title": "WM.COM_DC_3559"
}, {
	"ps_id": 1005686,
	"title": "WM.COM_DC_5400"
}, {
	"ps_id": 1005687,
	"title": "WM.COM_DC_5447"
}, {
	"ps_id": 1005688,
	"title": "WM.COM_DC_5926"
}, {
	"ps_id": 1005689,
	"title": "WM.COM_DC_7628"
}, {
	"ps_id": 1005690,
	"title": "WM.COM_DC_7749"
}, {
	"ps_id": 1005691,
	"title": "WM.COM_DC_7750"
}, {
	"ps_id": 1005692,
	"title": "WM.COM_DC_7751"
}, {
	"ps_id": 1005693,
	"title": "WM.COM_DC_7753"
}, {
	"ps_id": 1005694,
	"title": "AMAZON_(IND2)"
}, {
	"ps_id": 1005695,
	"title": "AMAZON_(PHX7)"
}]