{
    "DATA": [
		{"ID":0,"CNTIN":12,"SUMIN":12,"SUMOUT":21},
		{"ID":6,"CNTIN":6,"CNTOUT":8,"SUMOUT":24},
		{"ID":11,"CNTIN":11,"SUMIN":23,"CNTOUT":21,"SUMOUT":27},
		{"ID":21,"CNTIN":21,"SUMIN":40,"CNTOUT":10,"SUMOUT":17}
	]
}