{
	"BOL_ID":"100086",
	"SO_ID":"SO10029",
	"SHIPTO_ID":"100",
	"SHIPTO_NAME":"GZ WARHOUSE",
	"STATUS":"AddDetails",
	"PALLETTOTAL":"20",
	"PACKAGETOTAL":"20",
	"CREATEUSER":"ZYJ",
	"CREATETIME":"1415100687000",
	"ETD":"1409241600000",
	"ETA":"1409241600000",
	"FROM_WAREHOUSE_ID":"10032",
	"FROM_WAREHOUSE_NAME":"BJ",
	"FROM_COUNTRY_ID":"10032",
	"FROM_COUNTRY_NAME":"CHINA",
	"FROM_STATE _ID":"",
	"FROM_STATE _NAME":"BJ",
	"FROM_CITY_ID":"",
	"FROM_CITY_NAME":"BJ",
	"FROM_ADDRESS1":"BJ ROAD LESS NAME TSC 3 NONG",
	"FROM_ADDRESS2":"BJ ROAD LESS NAME TSC 3 NONG",
	"FROM_CONTACT":"HE ZHONG HUA",
	"FROM_PHONE":"13969653698",
	"FROM_ZIPCODE":"100136",
	"TO_WAREHOUSE_ID":"10032",
	"TO_WAREHOUSE_NAME":"BJ",
	"TO_COUNTRY_ID":"10032",
	"TO_COUNTRY_NAME":"CHINA",
	"TO_STATE_ID":"",
	"TO_STATE_NAME":"GZ",
	"TO_CITY_ID":"",
	"TO_CITY_NAME":"GZ",
	"TO_ADDRESS1":"GZ ROAD LESS NAME TSC 3 NONG",
	"TO_ADDRESS2":"GZ ROAD LESS NAME TSC 3 NONG",
	"TO_CONTACT":"HE ZHONG HUA",
	"TO_PHONE":"13159653698",
	"TO_ZIPCODE":"100139",
	"BOL_DETAILS":[
		{
				"PALLET_ID":"001",
			    "SHIPTO":"BJ",
			    "WEIGHT":"20",
			    "VOLUME":"9",
			    "DEADLINE":"1"
		},
		{
			"PALLET_ID":"002",
		    "SHIPTO":"BJ",
		    "WEIGHT":"10",
		    "VOLUME":"9",
		    "DEADLINE":"2"
		},
		{
			"PALLET_ID":"003",
		    "SHIPTO":"BJ",
		    "WEIGHT":"5",
		    "VOLUME":"9",
		    "DEADLINE":"3"
		},
		{
			"PALLET_ID":"004",
		    "SHIPTO":"BJ",
		    "WEIGHT":"10",
		    "VOLUME":"9",
		    "DEADLINE":"4"
		},
		{
			"PALLET_ID":"005",
		    "SHIPTO":"BJ",
		    "WEIGHT":"10",
		    "VOLUME":"9",
		    "DEADLINE":"5"
		},
		{
			"PALLET_ID":"006",
		    "SHIPTO":"BJ",
		    "WEIGHT":"10",
		    "VOLUME":"9",
		    "DEADLINE":"6"
		},
		{
			"PALLET_ID":"007",
		    "SHIPTO":"BJ",
		    "WEIGHT":"10",
		    "VOLUME":"9",
		    "DEADLINE":"7"
		},
		{
			"PALLET_ID":"008",
		    "SHIPTO":"BJ",
		    "WEIGHT":"10",
		    "VOLUME":"9",
		    "DEADLINE":"8"
		}
	]
}