{
	"rows":[
	{
		"SO_ID":1,
		"SHIPFROM":"BJ",
		"SHIPTO":"GZ",
		"CREATETIME":"2015-25-6"
	},
	{
		"SO_ID":2,
		"SHIPFROM":"BJ",
		"SHIPTO":"NJ",
		"CREATETIME":"2015-25-8"
	},
	{
		"SO_ID":2,
		"SHIPFROM":"BJ",
		"SHIPTO":"NJ",
		"CREATETIME":"2015-25-8"
	},
	{
		"SO_ID":2,
		"SHIPFROM":"BJ",
		"SHIPTO":"NJ",
		"CREATETIME":"2015-25-8"
	},
	{
		"SO_ID":2,
		"SHIPFROM":"BJ",
		"SHIPTO":"NJ",
		"CREATETIME":"2015-25-8"
	},
	{
		"SO_ID":2,
		"SHIPFROM":"BJ",
		"SHIPTO":"NJ",
		"CREATETIME":"2015-25-8"
	},
	{
		"SO_ID":2,
		"SHIPFROM":"BJ",
		"SHIPTO":"NJ",
		"CREATETIME":"2015-25-8"
	},
	{
		"SO_ID":2,
		"SHIPFROM":"BJ",
		"SHIPTO":"NJ",
		"CREATETIME":"2015-25-8"
	},
	{
		"SO_ID":2,
		"SHIPFROM":"BJ",
		"SHIPTO":"NJ",
		"CREATETIME":"2015-25-8"
	}
	]
}