[{
	"PALLET_ID":"001",
    "SHIPTO":"BJ",
    "WEIGHT":"20",
    "VOLUME":"9",
    "DEADLINE":"1"
},
{
	"PALLET_ID":"002",
    "SHIPTO":"BJ",
    "WEIGHT":"10",
    "VOLUME":"9",
    "DEADLINE":"2"
},
{
	"PALLET_ID":"003",
    "SHIPTO":"BJ",
    "WEIGHT":"5",
    "VOLUME":"9",
    "DEADLINE":"3"
},
{
	"PALLET_ID":"004",
    "SHIPTO":"BJ",
    "WEIGHT":"10",
    "VOLUME":"9",
    "DEADLINE":"4"
},
{
	"PALLET_ID":"005",
    "SHIPTO":"BJ",
    "WEIGHT":"10",
    "VOLUME":"9",
    "DEADLINE":"5"
},
{
	"PALLET_ID":"006",
    "SHIPTO":"BJ",
    "WEIGHT":"10",
    "VOLUME":"9",
    "DEADLINE":"6"
},
{
	"PALLET_ID":"007",
    "SHIPTO":"BJ",
    "WEIGHT":"10",
    "VOLUME":"9",
    "DEADLINE":"7"
},
{
	"PALLET_ID":"008",
    "SHIPTO":"BJ",
    "WEIGHT":"10",
    "VOLUME":"9",
    "DEADLINE":"8"
}
]