{"table":{
		"thead":["BOLID","ShipTo","Volume","Weight","DeadLine"],
		"tbody":[
		{"id":"000A","td":["BOL10010","GZ","1","2","1"]},
		{"id":"000B","td":["BOL10011","GZ","0.5","3","1"]},
		{"id":"000C","td":["BOL10012","GZ","1","2","1"]},
		{"id":"000D","td":["BOL10013","GZ","2","3","1"]},
		{"id":"000E","td":["BOL10014","GZ","2","2","1"]},
		{"id":"000F","td":["BOL10015","GZ","3","3","1"]}
		]
}
}