{
    "DATA": [
        {
            "LOAD": {
                "LOADNO": "1000001",
                "CHILDREN": [
                    {
                        "LABLE": "Creator",
                        "VALUE": "管理员"
                    },
                    {
                        "LABLE": "Create Time",
                        "VALUE": "14/07/14 11:39"
                    },
                    {
                        "LABLE": "Update Time",
                        "VALUE": "14/07/14 11:39"
                    },
                    {
                        "LABLE": "AppoiontmentNO",
                        "VALUE": "120230"
                    },
                    {
                        "LABLE": "Appoiontment Time",
                        "VALUE": "14/07/14 11:39"
                    }
                ]
            },
            "ORDER": {
                "CHILDREN": [
                    {
                        "MASTERORDER": "1000001",
                        "CHILDREN": [
                            {
                                "ORDERNO": "1000001",
                                "CHILDREN": [
                                    {
                                        "LABLE": "托盘数",
                                        "VALUE": "13"
                                    },
                                    {
                                        "LABLE": "ShipToAddress",
                                        "VALUE": "广东家乐福"
                                    },
                                    {
                                        "LABLE": "MABD",
                                        "VALUE": "14/07/14 11:39"
                                    }
                                ]
                            },
                            {
                                "ORDERNO": "1000001",
                                "CHILDREN": [
                                    {
                                        "LABLE": "托盘数",
                                        "VALUE": "13"
                                    },
                                    {
                                        "LABLE": "ShipToAddress",
                                        "VALUE": "广东家乐福"
                                    },
                                    {
                                        "LABLE": "MABD",
                                        "VALUE": "14/07/14 11:39"
                                    }
                                ]
                            },
                            {
                                "ORDERNO": "1000001",
                                "CHILDREN": [
                                    {
                                        "LABLE": "托盘数",
                                        "VALUE": "13"
                                    },
                                    {
                                        "LABLE": "ShipToAddress",
                                        "VALUE": "广东家乐福"
                                    },
                                    {
                                        "LABLE": "MABD",
                                        "VALUE": "14/07/14 11:39"
                                    }
                                ]
                            },
                            {
                                "ORDERNO": "1000001",
                                "CHILDREN": [
                                    {
                                        "LABLE": "托盘数",
                                        "VALUE": "13"
                                    },
                                    {
                                        "LABLE": "ShipToAddress",
                                        "VALUE": "广东家乐福"
                                    },
                                    {
                                        "LABLE": "MABD",
                                        "VALUE": "14/07/14 11:39"
                                    }
                                ]
                            },
                            {
                                "ORDERNO": "1000001",
                                "CHILDREN": [
                                    {
                                        "LABLE": "托盘数",
                                        "VALUE": "13"
                                    },
                                    {
                                        "LABLE": "ShipToAddress",
                                        "VALUE": "广东家乐福"
                                    },
                                    {
                                        "LABLE": "MABD",
                                        "VALUE": "14/07/14 11:39"
                                    }
                                ]
                            }
                        ],
                        "MORE": {
                            "NAME": "more",
                            "PARA": "109975",
                            "TYPE": "href",
                            "VALUE": "More..."
                        }
                    },
                    {
                        "MASTERORDER": "1000002",
                        "CHILDREN": [
                            {
                                "ORDERNO": "1000001",
                                "CHILDREN": [

                                    {
                                        "LABLE": "托盘数",
                                        "VALUE": "13"
                                    },
                                    {
                                        "LABLE": "ShipToAddress",
                                        "VALUE": "广东家乐福"
                                    },
                                    {
                                        "LABLE": "MABD",
                                        "VALUE": "14/07/14 11:39"
                                    }
                                ]
                            },
                            {
                                "ORDERNO": "1000001",
                                "CHILDREN": [
                                    {
                                        "LABLE": "托盘数",
                                        "VALUE": "13"
                                    },
                                    {
                                        "LABLE": "ShipToAddress",
                                        "VALUE": "广东家乐福"
                                    },
                                    {
                                        "LABLE": "MABD",
                                        "VALUE": "14/07/14 11:39"
                                    }
                                ]
                            },
                            {
                                "ORDERNO": "1000001",
                                "CHILDREN": [
                                    {
                                        "LABLE": "托盘数",
                                        "VALUE": "13"
                                    },
                                    {
                                        "LABLE": "ShipToAddress",
                                        "VALUE": "广东家乐福"
                                    },
                                    {
                                        "LABLE": "MABD",
                                        "VALUE": "14/07/14 11:39"
                                    }
                                ]
                            },
                            {
                                "ORDERNO": "1000001",
                                "CHILDREN": [
                                    {
                                        "LABLE": "托盘数",
                                        "VALUE": "13"
                                    },
                                    {
                                        "LABLE": "ShipToAddress",
                                        "VALUE": "广东家乐福"
                                    },
                                    {
                                        "LABLE": "MABD",
                                        "VALUE": "14/07/14 11:39"
                                    }
                                ]
                            },
                            {
                                "ORDERNO": "1000001",
                                "CHILDREN": [
                                    {
                                        "LABLE": "托盘数",
                                        "VALUE": "13"
                                    },
                                    {
                                        "LABLE": "ShipToAddress",
                                        "VALUE": "广东家乐福"
                                    },
                                    {
                                        "LABLE": "MABD",
                                        "VALUE": "14/07/14 11:39"
                                    }
                                ]
                            }
                        ]
                    }
                ]
            },
            "OPTION": {
                "LOGDETAILS": [
                    {
                        "USER": "王兰",
						"OPTION": "add order",
                        "VALUE": "1000024",
                        "DATETIME": "12-12-2014 10:10 AM"
                    },
                    {
                        "USER": "王兰",
						"OPTION": "delete order",
                        "VALUE": "1000024",
                        "DATETIME": "12-12-2014 10:10 AM"
                    },
                    {
                        "USER": "王兰",
						"OPTION": "delete order",
                        "VALUE": "",
                        "DATETIME": "12-12-2014 10:10 AM"
                    }
                ],
                "MORE": {
                    "NAME": "more",
                    "PARA": "109975",
                    "TYPE": "href",
                    "VALUE": "More..."
                }
            },
            "TFOOT": [
                {
                    "NAME": "appoiontment",
                    "PARA": "1000001|120230",
                    "TYPE": "button",
                    "VALUE": "Create Appoiontment"
                },
                {
                    "NAME": "edit",
                    "PARA": "1000001",
                    "TYPE": "button",
                    "VALUE": "Edit"
                },
                {
                    "NAME": "delete",
                    "PARA": "1000001",
                    "TYPE": "button",
                    "VALUE": "Delete"
                }
            ],
            "trid": "1000001"
        },
        {
            "LOAD": {
                "LOADNO": "1000002",
                "CHILDREN": [
                    {
                        "LABLE": "Creator",
                        "VALUE": "管理员"
                    },
                    {
                        "LABLE": "Create Time",
                        "VALUE": "14/07/14 11:39"
                    },
                    {
                        "LABLE": "Update Time",
                        "VALUE": "14/07/14 11:39"
                    },
                    {
                        "LABLE": "AppoiontmentNO",
                        "VALUE": "120230"
                    },
                    {
                        "LABLE": "Appoiontment Time",
                        "VALUE": "14/07/14 11:39"
                    }
                ]
            },
            "ORDER": {
                "CHILDREN": [
                    {
                        "MASTERORDER": "1000001",
                        "CHILDREN": [
                            {
                                "ORDERNO": "1000001",
                                "CHILDREN": [
                                    {
                                        "LABLE": "托盘数",
                                        "VALUE": "13"
                                    },
                                    {
                                        "LABLE": "ShipToAddress",
                                        "VALUE": "广东家乐福"
                                    },
                                    {
                                        "LABLE": "MABD",
                                        "VALUE": "14/07/14 11:39"
                                    }
                                ]
                            },
                            {
                                "ORDERNO": "1000001",
                                "CHILDREN": [
                                    {
                                        "LABLE": "托盘数",
                                        "VALUE": "13"
                                    },
                                    {
                                        "LABLE": "ShipToAddress",
                                        "VALUE": "广东家乐福"
                                    },
                                    {
                                        "LABLE": "MABD",
                                        "VALUE": "14/07/14 11:39"
                                    }
                                ]
                            },
                            {
                                "ORDERNO": "1000001",
                                "CHILDREN": [
                                    {
                                        "LABLE": "托盘数",
                                        "VALUE": "13"
                                    },
                                    {
                                        "LABLE": "ShipToAddress",
                                        "VALUE": "广东家乐福"
                                    },
                                    {
                                        "LABLE": "MABD",
                                        "VALUE": "14/07/14 11:39"
                                    }
                                ]
                            },
                            {
                                "ORDERNO": "1000001",
                                "CHILDREN": [
                                    {
                                        "LABLE": "托盘数",
                                        "VALUE": "13"
                                    },
                                    {
                                        "LABLE": "ShipToAddress",
                                        "VALUE": "广东家乐福"
                                    },
                                    {
                                        "LABLE": "MABD",
                                        "VALUE": "14/07/14 11:39"
                                    }
                                ]
                            },
                            {
                                "ORDERNO": "1000001",
                                "CHILDREN": [
                                    {
                                        "LABLE": "托盘数",
                                        "VALUE": "13"
                                    },
                                    {
                                        "LABLE": "ShipToAddress",
                                        "VALUE": "广东家乐福"
                                    },
                                    {
                                        "LABLE": "MABD",
                                        "VALUE": "14/07/14 11:39"
                                    }
                                ]
                            }
                        ],
                        "MORE": {
                            "NAME": "more",
                            "PARA": "109975",
                            "TYPE": "href",
                            "VALUE": "More..."
                        }
                    },
                    {
                        "MASTERORDER": "1000002",
                        "CHILDREN": [
                            {
                                "ORDERNO": "1000001",
                                "CHILDREN": [

                                    {
                                        "LABLE": "托盘数",
                                        "VALUE": "13"
                                    },
                                    {
                                        "LABLE": "ShipToAddress",
                                        "VALUE": "广东家乐福"
                                    },
                                    {
                                        "LABLE": "MABD",
                                        "VALUE": "14/07/14 11:39"
                                    }
                                ]
                            },
                            {
                                "ORDERNO": "1000001",
                                "CHILDREN": [
                                    {
                                        "LABLE": "托盘数",
                                        "VALUE": "13"
                                    },
                                    {
                                        "LABLE": "ShipToAddress",
                                        "VALUE": "广东家乐福"
                                    },
                                    {
                                        "LABLE": "MABD",
                                        "VALUE": "14/07/14 11:39"
                                    }
                                ]
                            },
                            {
                                "ORDERNO": "1000001",
                                "CHILDREN": [
                                    {
                                        "LABLE": "托盘数",
                                        "VALUE": "13"
                                    },
                                    {
                                        "LABLE": "ShipToAddress",
                                        "VALUE": "广东家乐福"
                                    },
                                    {
                                        "LABLE": "MABD",
                                        "VALUE": "14/07/14 11:39"
                                    }
                                ]
                            },
                            {
                                "ORDERNO": "1000001",
                                "CHILDREN": [
                                    {
                                        "LABLE": "托盘数",
                                        "VALUE": "13"
                                    },
                                    {
                                        "LABLE": "ShipToAddress",
                                        "VALUE": "广东家乐福"
                                    },
                                    {
                                        "LABLE": "MABD",
                                        "VALUE": "14/07/14 11:39"
                                    }
                                ]
                            },
                            {
                                "ORDERNO": "1000001",
                                "CHILDREN": [
                                    {
                                        "LABLE": "托盘数",
                                        "VALUE": "13"
                                    },
                                    {
                                        "LABLE": "ShipToAddress",
                                        "VALUE": "广东家乐福"
                                    },
                                    {
                                        "LABLE": "MABD",
                                        "VALUE": "14/07/14 11:39"
                                    }
                                ]
                            }
                        ]
                    }
                ]
            },
            "OPTION": {
                "LOGDETAILS": [
                    {
                        "USER": "王兰",
						"OPTION": "add order",
                        "VALUE": "1000024",
                        "DATETIME": "12-12-2014 10:10 AM"
                    },
                    {
                        "USER": "王兰",
						"OPTION": "delete order",
                        "VALUE": "1000024",
                        "DATETIME": "12-12-2014 10:10 AM"
                    },
                    {
                        "USER": "王兰",
						"OPTION": "delete order",
                        "VALUE": "",
                        "DATETIME": "12-12-2014 10:10 AM"
                    }
                ],
                "MORE": {
                    "NAME": "more",
                    "PARA": "109975",
                    "TYPE": "href",
                    "VALUE": "More..."
                }
            },
            "TFOOT": [
                {
                    "NAME": "appoiontment",
                    "PARA": "1000002|120230",
                    "TYPE": "button",
                    "VALUE": "Create Appoiontment"
                },
                {
                    "NAME": "edit",
                    "PARA": "1000002",
                    "TYPE": "button",
                    "VALUE": "Edit"
                },
                {
                    "NAME": "delete",
                    "PARA": "1000002",
                    "TYPE": "button",
                    "VALUE": "Delete"
                }
            ],
            "trid": "1000002"
        }
    ],
    "PAGECTRL": {
        "allCount": 1234,
        "first": false,
        "fornt": false,
        "last": true,
        "next": true,
        "pageCount": 13,
        "pageNo": 1,
        "pageSize": 2,
        "rowCount": 3
    },
    "keys": { "itme": [ { "td": "00123" }, { "td": "77456" } ] }
}