﻿[
    { "text": "BJ-GZ", "value": "GZ" },
    { "text": "BJ-LA", "value": "LA" },
    { "text": "BJ-BS", "value": "BS" },
    { "text": "BJ-PA", "value": "PA" },
    { "text": "BJ-张睿客服仓库", "value": "张睿客服仓库" },
    { "text": "BJ-Valley", "value": "Valley" },
    { "text": "BJ-Dallas", "value": "Dallas" },
    { "text": "BJ-Walnut", "value": "Walnut" },
    { "text": "BJ-Stimson", "value": "Stimson" },
    { "text": "BJ-Via-Baron", "value": "Via-Baron" },
    { "text": "BJ-Blue Heron", "value": "Blue Heron" },
    { "text": "BJ-Bradshaw", "value": "Bradshaw" },
    { "text": "BJ-E Nelson", "value": "E Nelson" },
    { "text": "BJ-Enterprise", "value": "Enterprise" },
    { "text": "BJ-S Great SW", "value": "S Great SW" },
    { "text": "BJ-S Reyes", "value": "S Reyes" },
    { "text": "BJ-Walter Strawn", "value": "Walter Strawn" },
    { "text": "BJ-Turnbull", "value": "Turnbull" }
]
