[{"id" : "0","pId" : "","name" : "收货仓库","data":"11101","linkman": "王x1","tel": "0102222221"},
{"id" : "1","pId" : "","name" : "自有仓库","data":"11101","linkman": "王x1","tel": "0102222221"}, 
{"id" : "100000","pId" : "1","name" : "BJ","data":"11101","linkman": "王x1","tel": "0102222221"},
{"id" : "100006","pId" : "1","name" : "GZ","data":"11101","linkman": "王x1","tel": "0102222221"},
{"id" : "100043","pId" : "1","name" : "LA","data":"11101","linkman": "王x1","tel": "0102222221"},
{"id" : "100197","pId" : "1","name" : "BS","data":"11101","linkman": "王x1","tel": "0102222221"},
{"id" : "100203","pId" : "1","name" : "PA","data":"11101","linkman": "王x1","tel": "0102222221"},
{"id" : "1000002","pId" : "1","name" : "张睿客服仓库","data":"11101","linkman": "王x1","tel": "0102222221"},
{"id" : "2","pId" : "","name" : "转运仓库","data":"11101","linkman": "王x1","tel": "0102222221"},
{"id" : "100199","pId" : "2","name" : "海运中转库","data":"11101","linkman": "王x1","tel": "0102222221"},
{"id" : "3","pId" : "","name" : "供应商仓库","data":"11101","linkman": "王x1","tel": "0102222221"},
{"id" : "100205","pId" : "3","name" : "供应商测试用","data":"11101","linkman": "王x1","tel": "0102222221"},
{"id" : "4","pId" : "","name" : "第三方仓库","data":"11101","linkman": "王x1","tel": "0102222221"},
{"id" : "100200","pId" : "4","name" : "Amazon","data":"11101","linkman": "王x1","tel": "0102222221"},
{"id" : "100201","pId" : "4","name" : "Amazon UK","data":"11101","linkman": "王x1","tel": "0102222221"},
{"id" : "100202","pId" : "4","name" : "CHUKOU1 UK","data":"11101","linkman": "王x1","tel": "0102222221"},
{"id" : "5","pId" : "","name" : "客户仓库","data":"11101","linkman": "王x1","tel": "0102222221"},
{"id" : "65","pId" : "5","name" : "AMAZON.COM","data":"11101","linkman": "王x1","tel": "0102222221"},
{"id" : "1189716","name" : "AMAZON.COM_DED,_LLC-BFI1","pId" : "65","data":"11101","linkman": "王x1","tel": "0102222221"},
{"id" : "1189755","name" : "AMAZON_(PHX3)","pId" : "65","data":"11101","linkman": "王x1","tel": "0102222221"},
{"id" : "1189756","name" : "AMAZON_-BREINIGSVILLE","pId" : "65","data":"11101","linkman": "王x1","tel": "0102222221"},
{"id" : "1189757","name" : "AMAZON_-PHOENIX","pId" : "65","data":"11101","linkman": "王x1","tel": "0102222221"},
{"id" : "1189758","name" : "AMAZON.COM","pId" : "65","data":"11101","linkman": "王x1","tel": "0102222221"},
{"id" : "1189759","name" : "AMAZON.COM_DEDC_LLC-PHL6","pId" : "65","data":"11101","linkman": "王x1","tel": "0102222221"},
{"id" : "1189760","name" : "AMAZON.COM_DEDC,_LLC-CAE1","pId" : "65","data":"11101","linkman": "王x1","tel": "0102222221"},
{"id" : "1189761","name" : "AMAZON.COM_DEDC,_LLC-CHA2","pId" : "65","data":"11101","linkman": "王x1","tel": "0102222221"},
{"id" : "1189762","name" : "AMAZON.COM_-READING","pId" : "65","data":"11101","linkman": "王x1","tel": "0102222221"},
{"id" : "1189763","name" : "AMAZON.COM,DEDC_LLC-PHL7","pId" : "65","data":"11101","linkman": "王x1","tel": "0102222221"},
{"id" : "1189764","name" : "AMAZON.COM-LEBANON","pId" : "65","data":"11101","linkman": "王x1","tel": "0102222221"},
{"id" : "1189765","name" : "AMAZON.COM.AZDC,_INC-PHX3","pId" : "65","data":"11101","linkman": "王x1","tel": "0102222221"},
{"id" : "1189766","name" : "AMAZON.COM.AZDC,_INC-PHX5","pId" : "65","data":"11101","linkman": "王x1","tel": "0102222221"},
{"id" : "1189767","name" : "AMAZON.COM.AZDC,_LLC-PHX7","pId" : "65","data":"11101","linkman": "王x1","tel": "0102222221"},
{"id" : "1189768","name" : "AMAZON.COM-GOODYEAR","pId" : "65","data":"11101","linkman": "王x1","tel": "0102222221"},
{"id" : "1189769","name" : "AMAZON.COM.DEDC_LLC_-GSP1","pId" : "65","data":"11101","linkman": "王x1","tel": "0102222221"},
{"id" : "1189770","name" : "AMAZON.COM.DEDC_LLC-BNA2","pId" : "65","data":"11101","linkman": "王x1","tel": "0102222221"},
{"id" : "1189771","name" : "AMAZON.COM.DEDC_LLC-BNA3","pId" : "65","data":"11101","linkman": "王x1","tel": "0102222221"},
{"id" : "1189772","name" : "AMAZON.COM-PLAINFIELD","pId" : "65","data":"11101","linkman": "王x1","tel": "0102222221"},
{"id" : "1189773","name" : "AMAZON.COM.INDC,_LLC-IND1","pId" : "65","data":"11101","linkman": "王x1","tel": "0102222221"},
{"id" : "1189774","name" : "AMAZON.COM.INDC,_LLC-IND2","pId" : "65","data":"11101","linkman": "王x1","tel": "0102222221"},
{"id" : "1189775","name" : "AMAZON.COM.KYDC_LLC-DFW6","pId" : "65","data":"11101","linkman": "王x1","tel": "0102222221"},
{"id" : "1189776","name" : "AMAZON.COM.KYDC_LLC-RIC1","pId" : "65","data":"11101","linkman": "王x1","tel": "0102222221"},
{"id" : "1189777","name" : "AMAZON.COM.KYDC_LLC-RIC2","pId" : "65","data":"11101","linkman": "王x1","tel": "0102222221"},
{"id" : "1189778","name" : "AMAZON.COM.KYDC_LLC-SAT1","pId" : "65","data":"11101","linkman": "王x1","tel": "0102222221"},
{"id" : "1189779","name" : "AMAZON.COM-DFW7","pId" : "65","data":"11101","linkman": "王x1","tel": "0102222221"},
{"id" : "1189780","name" : "AMAZON.COM-PA","pId" : "65","data":"11101","linkman": "王x1","tel": "0102222221"},
{"id" : "1189781","name" : "AMAZON.COM-PHL4","pId" : "65","data":"11101","linkman": "王x1","tel": "0102222221"},
{"id" : "1189782","name" : "AMAZON.COM-SDF1","pId" : "65","data":"11101","linkman": "王x1","tel": "0102222221"},
{"id" : "1189783","name" : "AMAZON.COM-TUL1","pId" : "65","data":"11101","linkman": "王x1","tel": "0102222221"},
{"id" : "1189784","name" : "AMAZON-CHATTAN","pId" : "65","data":"11101","linkman": "王x1","tel": "0102222221"},
{"id" : "1189785","name" : "AMZON-LA_MIRADA","pId" : "65","data":"11101","linkman": "王x1","tel": "0102222221"},
{"id" : "1189786","name" : "AMZON_-FERNLEY","pId" : "65","data":"11101","linkman": "王x1","tel": "0102222221"},
{"id" : "1189787","name" : "AMZON.COM.KYDC,_INC-_LEX1","pId" : "65","data":"11101","linkman": "王x1","tel": "0102222221"},
{"id" : "1189788","name" : "CONCERT_GROUP_LOGISTICS","pId" : "65","data":"11101","linkman": "王x1","tel": "0102222221"},
{"id" : "1189789","name" : "GOLDEN_STA-OAK3","pId" : "65","data":"11101","linkman": "王x1","tel": "0102222221"},
{"id" : "1189790","name" : "GOLDEN_STA-OAK4","pId" : "65","data":"11101","linkman": "王x1","tel": "0102222221"},
{"id" : "1189791","name" : "GOLDEN_STATE_FC_LLC-ONT2","pId" : "65","data":"11101","linkman": "王x1","tel": "0102222221"},
{"id" : "66","pId" : "5","name" : "BESTBUY","data":"11101","linkman": "王x1","tel": "0102222221"},
{"id" : "67","pId" : "5","name" : "CENTRAL","data":"11101","linkman": "王x1","tel": "0102222221"},
{"id" : "68","pId" : "5","name" : "TARGET","data":"11101","linkman": "王x1","tel": "0102222221"},
{"id" : "69","pId" : "5","name" : "WAL-MART","data":"11101","linkman": "王x1","tel": "0102222221"},
{"id" : "70","pId" : "5","name" : "A&D","data":"11101","linkman": "王x1","tel": "0102222221"},
{"id" : "71","pId" : "5","name" : "AARON","data":"11101","linkman": "王x1","tel": "0102222221"},
{"id" : "72","pId" : "5","name" : "ABC","data":"11101","linkman": "王x1","tel": "0102222221"},
{"id" : "73","pId" : "5","name" : "ALMO","data":"11101","linkman": "王x1","tel": "0102222221"},
{"id" : "74","pId" : "5","name" : "ALMODIST","data":"11101","linkman": "王x1","tel": "0102222221"},
{"id" : "75","pId" : "5","name" : "AUTSER0001","data":"11101","linkman": "王x1","tel": "0102222221"},
{"id" : "76","pId" : "5","name" : "AVC","data":"11101","linkman": "王x1","tel": "0102222221"},
{"id" : "77","pId" : "5","name" : "BEST_BUY/GEEK","data":"11101","linkman": "王x1","tel": "0102222221"},
{"id" : "78","pId" : "5","name" : "BESTBUY.COM","data":"11101","linkman": "王x1","tel": "0102222221"},
{"id" : "79","pId" : "5","name" : "BJ","data":"11101","linkman": "王x1","tel": "0102222221"},
{"id" : "80","pId" : "5","name" : "CALBAC0001","data":"11101","linkman": "王x1","tel": "0102222221"},
{"id" : "81","pId" : "5","name" : "CAPALLC2","data":"11101","linkman": "王x1","tel": "0102222221"},
{"id" : "82","pId" : "5","name" : "CEVAEL","data":"11101","linkman": "王x1","tel": "0102222221"},
{"id" : "83","pId" : "5","name" : "COSTCO","data":"11101","linkman": "王x1","tel": "0102222221"},
{"id" : "84","pId" : "5","name" : "COSTCO.COM","data":"11101","linkman": "王x1","tel": "0102222221"},
{"id" : "85","pId" : "5","name" : "CUDLACCE1","data":"11101","linkman": "王x1","tel": "0102222221"},
{"id" : "86","pId" : "5","name" : "D&H","data":"11101","linkman": "王x1","tel": "0102222221"},
{"id" : "87","pId" : "5","name" : "ESI","data":"11101","linkman": "王x1","tel": "0102222221"},
{"id" : "88","pId" : "5","name" : "FRYS","data":"11101","linkman": "王x1","tel": "0102222221"},
{"id" : "89","pId" : "5","name" : "FRYS.COM","data":"11101","linkman": "王x1","tel": "0102222221"},
{"id" : "90","pId" : "5","name" : "GOLDEN_STATE","data":"11101","linkman": "王x1","tel": "0102222221"},
{"id" : "91","pId" : "5","name" : "HD","data":"11101","linkman": "王x1","tel": "0102222221"},
{"id" : "92","pId" : "5","name" : "HHG","data":"11101","linkman": "王x1","tel": "0102222221"},
{"id" : "93","pId" : "5","name" : "HOUSTON","data":"11101","linkman": "王x1","tel": "0102222221"},
{"id" : "94","pId" : "5","name" : "INGRAM","data":"11101","linkman": "王x1","tel": "0102222221"},
{"id" : "95","pId" : "5","name" : "INTEGRA","data":"11101","linkman": "王x1","tel": "0102222221"},
{"id" : "96","pId" : "5","name" : "KMART","data":"11101","linkman": "王x1","tel": "0102222221"},
{"id" : "97","pId" : "5","name" : "KODIAK","data":"11101","linkman": "王x1","tel": "0102222221"},
{"id" : "98","pId" : "5","name" : "KOHLS","data":"11101","linkman": "王x1","tel": "0102222221"},
{"id" : "99","pId" : "5","name" : "LABCLE0003","data":"11101","linkman": "王x1","tel": "0102222221"},
{"id" : "100","pId" : "5","name" : "MA_LABS","data":"11101","linkman": "王x1","tel": "0102222221"},
{"id" : "101","pId" : "5","name" : "MAGNELL","data":"11101","linkman": "王x1","tel": "0102222221"},
{"id" : "102","pId" : "5","name" : "MAX","data":"11101","linkman": "王x1","tel": "0102222221"},
{"id" : "103","pId" : "5","name" : "MEIJER","data":"11101","linkman": "王x1","tel": "0102222221"},
{"id" : "104","pId" : "5","name" : "MEMORY","data":"11101","linkman": "王x1","tel": "0102222221"},
{"id" : "105","pId" : "5","name" : "METLINK","data":"11101","linkman": "王x1","tel": "0102222221"},
{"id" : "106","pId" : "5","name" : "MICRO_CENTER","data":"11101","linkman": "王x1","tel": "0102222221"},
{"id" : "107","pId" : "5","name" : "MICROSOFT","data":"11101","linkman": "王x1","tel": "0102222221"},
{"id" : "108","pId" : "5","name" : "MIQ","data":"11101","linkman": "王x1","tel": "0102222221"},
{"id" : "109","pId" : "5","name" : "MISSASSO1","data":"11101","linkman": "王x1","tel": "0102222221"},
{"id" : "110","pId" : "5","name" : "MITO","data":"11101","linkman": "王x1","tel": "0102222221"},
{"id" : "111","pId" : "5","name" : "NEWEGG","data":"11101","linkman": "王x1","tel": "0102222221"},
{"id" : "112","pId" : "5","name" : "NFM","data":"11101","linkman": "王x1","tel": "0102222221"},
{"id" : "113","pId" : "5","name" : "ONCORP","data":"11101","linkman": "王x1","tel": "0102222221"},
{"id" : "114","pId" : "5","name" : "PANSTAR","data":"11101","linkman": "王x1","tel": "0102222221"},
{"id" : "115","pId" : "5","name" : "PCRICH","data":"11101","linkman": "王x1","tel": "0102222221"},
{"id" : "116","pId" : "5","name" : "RUGG","data":"11101","linkman": "王x1","tel": "0102222221"},
{"id" : "117","pId" : "5","name" : "SAMS","data":"11101","linkman": "王x1","tel": "0102222221"},
{"id" : "118","pId" : "5","name" : "SEARS","data":"11101","linkman": "王x1","tel": "0102222221"},
{"id" : "119","pId" : "5","name" : "SGCOTT0001","data":"11101","linkman": "王x1","tel": "0102222221"},
{"id" : "120","pId" : "5","name" : "SHOPKO","data":"11101","linkman": "王x1","tel": "0102222221"},
{"id" : "121","pId" : "5","name" : "SOLEUS","data":"11101","linkman": "王x1","tel": "0102222221"},
{"id" : "122","pId" : "5","name" : "SYNNEX","data":"11101","linkman": "王x1","tel": "0102222221"},
{"id" : "123","pId" : "5","name" : "TARGET.COM","data":"11101","linkman": "王x1","tel": "0102222221"},
{"id" : "124","pId" : "5","name" : "TECHDATA","data":"11101","linkman": "王x1","tel": "0102222221"},
{"id" : "125","pId" : "5","name" : "TMS","data":"11101","linkman": "王x1","tel": "0102222221"},
{"id" : "126","pId" : "5","name" : "VEECO_WEST","data":"11101","linkman": "王x1","tel": "0102222221"},
{"id" : "127","pId" : "5","name" : "WM.COM","data":"11101","linkman": "王x1","tel": "0102222221"},
{"id" : "128","pId" : "5","name" : "WOOT","data":"11101","linkman": "王x1","tel": "0102222221"},
{"id" : "135","pId" : "5","name" : "DEFAULT_PACKAGING","data":"11101","linkman": "王x1","tel": "0102222221"},
{"id" : "6","pId" : "","name" : "返修仓库","linkman": "王x1","tel": "0102222221"}]