{
    "code": 200,
    "msg": "success",
    "successCount":"100",
    "failCount":"5",
    "fileurl":"/Sync10/fileserv/666.xsl",
    "filename":"666.xsl",
    "data": [
        {
            "customerDN": "2626326563",
            "itemId":"21521",
            "msg": "8500611357数据存在相同dn发往不同地址的问题"
        },
        {
            "customerDN": "22035130",
             "itemId":"21521",
            "msg": "8500610573 系统多出来的dn号"
        },
        {
            "customerDN": "8326302",
             "itemId":"21521",
            "msg": "8500610625 国籍和州没找到的州ID"
        },
        {
            "customerDN": "58630",
             "itemId":"21521",
            "msg": "shipTo 地址有变化的dn号"
        },
        {
            "customerDN": "61561651",
             "itemId":"21521",
            "msg": "8500610224 发货仓库映射没有找到的dn号"
        },
        {
            "customerDN": "61561651",
             "itemId":"21521",
            "msg": "8500610536 已经被close的dn"
        },
        {
            "customerDN": "61561651",
            "itemId":"21521",
            "msg": "8500610440 商品种类不同"
        }
    ]
}