{
	"total":43,
	"rows":[{
        "id": "000000001",
        "num": "12323",
        "con": "Customer & ShipToAddress",
        "customer": "",
        "shipToAddress": "ShipToAddress",
        "mabd": "10-21-2014 12:00 AM",
        "plateNum": "20",
        "type": "load",
        "volume": "30M2",
        "weight": "40Kg"
	},{
		"id":"000000002",
        "num": "12323",
		"con": "Customer & ShipToAddress",
        "customer": "",
        "shipToAddress": "ShipToAddress",
        "mabd": "10-21-2014 12:00 AM",
        "plateNum":"20",
        "type": "load",
        "volume": "30M2",
        "weight": "40Kg"
	},{
		"id":"000000003",
        "num": "12323",
		"con": "Customer & ShipToAddress",
        "customer": "",
        "shipToAddress": "ShipToAddress",
        "mabd": "10-21-2014 12:00 AM",
        "plateNum": "20",
        "type": "load",
        "volume": "30M2",
        "weight": "40Kg"
	},{
		"id":"000000003",
        "num": "12323",
		"con": "Customer & ShipToAddress",
        "customer": "",
        "shipToAddress": "ShipToAddress",
        "mabd": "10-21-2014 12:00 AM",
        "plateNum": "20",
        "type": "load",
        "volume": "30M2",
        "weight": "40Kg"
	},{
		"id":"000000003",
        "num": "12323",
		"con": "Customer & ShipToAddress",
        "customer": "",
        "shipToAddress": "ShipToAddress",
        "mabd": "10-21-2014 12:00 AM",
        "plateNum":"20",
        "type": "load",
        "volume": "30M2",
        "weight": "40Kg"
	},{
		"id":"000000003",
        "num": "12323",
		"con": "Customer & ShipToAddress",
        "customer": "",
        "shipToAddress": "ShipToAddress",
        "mabd": "10-21-2014 12:00 AM",
        "plateNum":"20",
        "type": "load",
        "volume": "30M2",
        "weight": "40Kg"
	}]
}
