﻿[{ "text": "BJ", "value": "BJ" },
    { "text": "GZ", "value": "GZ" },
    { "text": "LA", "value": "LA" },
    { "text": "BS", "value": "BS" },
    { "text": "PA", "value": "PA" },
    { "text": "张睿客服仓库", "value": "张睿客服仓库" },
    { "text": "Valley", "value": "Valley" },
    { "text": "Dallas", "value": "Dallas" },
    { "text": "Walnut", "value": "Walnut" },
    { "text": "Stimson", "value": "Stimson" },
    { "text": "Via-Baron", "value": "Via-Baron" },
    { "text": "Blue Heron", "value": "Blue Heron" },
    { "text": "Bradshaw", "value": "Bradshaw" },
    { "text": "E Nelson", "value": "E Nelson" },
    { "text": "Enterprise", "value": "Enterprise" },
    { "text": "S Great SW", "value": "S Great SW" },
    { "text": "S Reyes", "value": "S Reyes" },
    { "text": "Walter Strawn", "value": "Walter Strawn" },
    { "text": "Turnbull", "value": "Turnbull" }
]
