{
    "AUTHS": [
        {
            "BUTTON_APP": true,
            "BUTTON_CANCEL": false,
            "BUTTON_DELETE": true,
            "ID": 63,
            "INDEX": 0
        },
        {
            "BUTTON_APP": true,
            "BUTTON_CANCEL": false,
            "BUTTON_DELETE": true,
            "ID": 62,
            "INDEX": 0
        },
        {
            "BUTTON_APP": true,
            "BUTTON_CANCEL": false,
            "BUTTON_DELETE": true,
            "ID": 61,
            "INDEX": 0
        },
        {
            "BUTTON_APP": true,
            "BUTTON_CANCEL": false,
            "BUTTON_DELETE": true,
            "ID": 60,
            "INDEX": 0
        },
        {
            "BUTTON_APP": true,
            "BUTTON_CANCEL": false,
            "BUTTON_DELETE": true,
            "ID": 59,
            "INDEX": 0
        },
        {
            "BUTTON_APP": true,
            "BUTTON_CANCEL": false,
            "BUTTON_DELETE": true,
            "ID": 58,
            "INDEX": 0
        },
        {
            "BUTTON_APP": true,
            "BUTTON_CANCEL": false,
            "BUTTON_DELETE": true,
            "ID": 57,
            "INDEX": 0
        },
        {
            "BUTTON_APP": true,
            "BUTTON_CANCEL": false,
            "BUTTON_DELETE": true,
            "ID": 56,
            "INDEX": 0
        },
        {
            "BUTTON_APP": true,
            "BUTTON_CANCEL": true,
            "BUTTON_DELETE": false,
            "ID": 55,
            "INDEX": 0
        },
        {
            "BUTTON_APP": true,
            "BUTTON_CANCEL": false,
            "BUTTON_DELETE": true,
            "ID": 54,
            "INDEX": 0
        }
    ],
    "CODE": "200",
    "DATA": [
        {
            "LINES":[
             {"B2B_P_NAME":"P652ui-B2","B2B_COUNT":"20"},
             {"B2B_P_NAME":"2032652/5985A-OE698W","B2B_COUNT":"12"},
             {"B2B_P_NAME":"3051652/5985A-OE698","B2B_COUNT":"2"},
             {"B2B_P_NAME":"4023652/5985A-OE698","B2B_COUNT":"3"},
             {"B2B_P_NAME":"5023652/5985A-OE698","B2B_COUNT":"5"},
             {"B2B_P_NAME":"6023652/5985A-OE698","B2B_COUNT":"6"},
             {"B2B_P_NAME":"7023652/5985A-OE698","B2B_COUNT":"7"},
             {"B2B_P_NAME":"8023652/5985A-OE698","B2B_COUNT":"20"},
             {"B2B_P_NAME":"9023652/5985A-OE698","B2B_COUNT":"20"},
             {"B2B_P_NAME":"1123652/5985A-OE698","B2B_COUNT":"20"},
             {"B2B_P_NAME":"1223652/5985A-OE698","B2B_COUNT":"20"},
             {"B2B_P_NAME":"1323652/5985A-OE698","B2B_COUNT":"20"}
            ],
            "ACCOUNT_ID": "74",
            "ADDRESS_STATE_DELIVER": "CA",
            "B2B_OID": 63,
            "B2B_ORDER_ADDRESS": "2300 Chabot Court",
            "B2B_ORDER_DATE": "03/20/15 15:41",
            "B2B_ORDER_LINKMAN": "",
            "B2B_ORDER_LINKMAN_PHONE": "",
            "B2B_ORDER_STATUS": 1,
            "B2B_ORDER_WAYBILL_NAME": "AAFAB, INC.",
            "BILL_TO_ID": "67",
            "BOL_TRACKING": "",
            "CARRIERS": "AAFA",
            "CLEARANCE": 1,
            "COMPANY_ID": "W12",
            "CREATE_ACCOUNT": "Fei Han",
            "CREATE_ACCOUNT_ID": 100198,
            "CUSTOMER_DN": "6500642811",
            "CUSTOMER_ID": "2726",
            "CUSTOMER_NAME": "VIZIO",
            "CUSTOMER_ORDER_DATE": "2015-01-29",
            "DECLARATION": 1,
            "DELIVER_CCID": 11036,
            "DELIVER_CITY": "Tracy",
            "DELIVER_HOUSE_NUMBER": "2300 Chabot Court",
            "DELIVER_PRO_ID": 1038,
            "DELIVER_ZIP_CODE": "91748",
            "DRAWBACK": 1,
            "FREIGHT_CARRIER": "",
            "FREIGHT_TERM": "Prepaid",
            "FROM_PS_TYPE": 1,
            "LOGS": [
                {
                    "ACTIVITY_ID": 1,
                    "B2BER": "Fei Han",
                    "B2BER_ID": 100198,
                    "B2B_CONTENT": "update order :[REMARK, B2B_OID, UPDATEDATE]",
                    "B2B_DATE": "03/25 20:24",
                    "B2B_OID": 63,
                    "B2B_TYPE": 3,
                    "LOGS_ID": 79
                },
                {
                    "ACTIVITY_ID": 1,
                    "B2BER": "Fei Han",
                    "B2BER_ID": 100198,
                    "B2B_CONTENT": "更新  order # b2b_oid:63",
                    "B2B_DATE": "03/24 22:33",
                    "B2B_OID": 63,
                    "B2B_TYPE": 3,
                    "LOGS_ID": 78
                },
                {
                    "ACTIVITY_ID": 1,
                    "B2BER": "Fei Han",
                    "B2BER_ID": 100198,
                    "B2B_CONTENT": "更新  order # b2b_oid:63",
                    "B2B_DATE": "03/23 18:52",
                    "B2B_OID": 63,
                    "B2B_TYPE": 3,
                    "LOGS_ID": 77
                },
                {
                    "ACTIVITY_ID": 1,
                    "B2BER": "Fei Han",
                    "B2BER_ID": 100198,
                    "B2B_CONTENT": "create order",
                    "B2B_DATE": "03/20 15:41",
                    "B2B_OID": 63,
                    "B2B_TYPE": 1,
                    "LOGS_ID": 75
                }
            ],
            "MABD": "04/14/15",
            "ORDER_NUMBER": "5100504216",
            "ORDER_TYPE": "",
            "PKCOUNT": 1,
            "PURCHASE_ID": 0,
            "PUT_STATUS": 1,
            "RECEIVE_PSID": 1005719,
            "RECEIVE_PSNAME": "Best_Buy_DDC_729_-_Tracy",
            "REMARK": "",
            "REQUESTED_DATE": "04/12/15",
            "RETAILER_RANK": "2-001",
            "RETAIL_PO": "MNCOPJ",
            "SEND_PSID": 1000005,
            "SEND_PSNAME": "Valley",
            "SHIP_TO_PARTY_NAME": "Best Buy DDC 729 - Tracy",
            "SOURCE_TYPE": 1,
            "TARGET_PS_TYPE": 0,
            "TOTAL_BOXES": "10",
            "TOTAL_PALLETS": "10.00",
            "TOTAL_WEIGHT": "1995.40",
            "TRANSIT_TIME": 1,
            "UPDATEBY": 100198,
            "UPDATEDATE": "03/25/15 20:24",
            "UPDATENAME": "Fei Han"
        },
        {
            "LINES":[
             {"ITEM_ID":"P652ui-B2","B2B_COUNT":"20"}
             ],
            "ACCOUNT_ID": "74",
            "ADDRESS_STATE_DELIVER": "CA",
            "B2B_OID": 62,
            "B2B_ORDER_ADDRESS": "2300 Chabot Court",
            "B2B_ORDER_DATE": "03/20/15 15:41",
            "B2B_ORDER_LINKMAN": "",
            "B2B_ORDER_LINKMAN_PHONE": "",
            "B2B_ORDER_STATUS": 1,
            "B2B_ORDER_WAYBILL_NAME": "AAFAB, INC.",
            "BILL_TO_ADDRESS1": "sss",
            "BILL_TO_CITY": "dd",
            "BILL_TO_ID": "67",
            "BILL_TO_NAME": "Amazon",
            "BILL_TO_STATE": "dd",
            "BILL_TO_ZIP_CODE": "dd",
            "BOL_TRACKING": "",
            "CARRIERS": "AAFA",
            "CLEARANCE": 1,
            "COMPANY_ID": "W12",
            "CREATE_ACCOUNT": "Fei Han",
            "CREATE_ACCOUNT_ID": 100198,
            "CUSTOMER_DN": "6500642797",
            "CUSTOMER_ID": "2726",
            "CUSTOMER_NAME": "VIZIO",
            "CUSTOMER_ORDER_DATE": "2015-01-29",
            "DECLARATION": 1,
            "DELIVER_CCID": 11036,
            "DELIVER_CITY": "Tracy",
            "DELIVER_HOUSE_NUMBER": "2300 Chabot Court",
            "DELIVER_PRO_ID": 1038,
            "DELIVER_ZIP_CODE": "91748",
            "DRAWBACK": 1,
            "FREIGHT_CARRIER": "",
            "FREIGHT_TERM": "Prepaid",
            "FROM_PS_TYPE": 1,
            "LOGS": [
                {
                    "ACTIVITY_ID": 1,
                    "B2BER": "Fei Han",
                    "B2BER_ID": 100198,
                    "B2B_CONTENT": "update order :[BILL_TO_STATE, FREIGHT_TERM, BILL_TO_ADDRESS1, BILL_TO_NAME, BILL_TO_CITY, B2B_OID, BILL_TO_ZIP_CODE, UPDATEDATE]",
                    "B2B_DATE": "03/21 00:51",
                    "B2B_OID": 62,
                    "B2B_TYPE": 3,
                    "LOGS_ID": 76
                },
                {
                    "ACTIVITY_ID": 1,
                    "B2BER": "Fei Han",
                    "B2BER_ID": 100198,
                    "B2B_CONTENT": "create order",
                    "B2B_DATE": "03/20 15:41",
                    "B2B_OID": 62,
                    "B2B_TYPE": 1,
                    "LOGS_ID": 74
                }
            ],
            "MABD": "04/14/15",
            "ORDER_NUMBER": "5100504216",
            "ORDER_TYPE": "",
            "PKCOUNT": 1,
            "PURCHASE_ID": 0,
            "PUT_STATUS": 1,
            "RECEIVE_PSID": 1005719,
            "RECEIVE_PSNAME": "Best_Buy_DDC_729_-_Tracy",
            "REQUESTED_DATE": "04/12/15",
            "RETAILER_RANK": "2-001",
            "RETAIL_PO": "MNCOPJ",
            "SEND_PSID": 1000005,
            "SEND_PSNAME": "Valley",
            "SHIP_TO_PARTY_NAME": "Best Buy DDC 729 - Tracy",
            "SOURCE_TYPE": 1,
            "TARGET_PS_TYPE": 0,
            "TOTAL_BOXES": "10",
            "TOTAL_PALLETS": "10.00",
            "TOTAL_WEIGHT": "2548.94",
            "TRANSIT_TIME": 1,
            "UPDATEBY": 100198,
            "UPDATEDATE": "03/21/15 00:51",
            "UPDATENAME": "Fei Han"
        },
        {
            "ACCOUNT_ID": "74",
            "ADDRESS_STATE_DELIVER": "CA",
            "B2B_OID": 61,
            "B2B_ORDER_ADDRESS": "2300 Chabot Court",
            "B2B_ORDER_DATE": "03/20/15 15:41",
            "B2B_ORDER_LINKMAN": "",
            "B2B_ORDER_LINKMAN_PHONE": "",
            "B2B_ORDER_STATUS": 1,
            "B2B_ORDER_WAYBILL_NAME": "AAFAB, INC.",
            "BILL_TO_ID": "67",
            "BOL_TRACKING": "",
            "CARRIERS": "AAFA",
            "CLEARANCE": 1,
            "COMPANY_ID": "W12",
            "CREATE_ACCOUNT": "Fei Han",
            "CREATE_ACCOUNT_ID": 100198,
            "CUSTOMER_DN": "6500642778",
            "CUSTOMER_ID": "2726",
            "CUSTOMER_NAME": "VIZIO",
            "CUSTOMER_ORDER_DATE": "2015-01-29",
            "DECLARATION": 1,
            "DELIVER_CCID": 11036,
            "DELIVER_CITY": "Tracy",
            "DELIVER_HOUSE_NUMBER": "2300 Chabot Court",
            "DELIVER_PRO_ID": 1038,
            "DELIVER_ZIP_CODE": "91748",
            "DRAWBACK": 1,
            "FREIGHT_CARRIER": "",
            "FREIGHT_TERM": "Prepaid",
            "FROM_PS_TYPE": 1,
            "LOGS": [
                {
                    "ACTIVITY_ID": 1,
                    "B2BER": "Fei Han",
                    "B2BER_ID": 100198,
                    "B2B_CONTENT": "create order",
                    "B2B_DATE": "03/20 15:41",
                    "B2B_OID": 61,
                    "B2B_TYPE": 1,
                    "LOGS_ID": 73
                }
            ],
            "MABD": "04/14/15",
            "ORDER_NUMBER": "5100504216",
            "ORDER_TYPE": "",
            "PKCOUNT": 1,
            "PURCHASE_ID": 0,
            "PUT_STATUS": 1,
            "RECEIVE_PSID": 1005719,
            "RECEIVE_PSNAME": "Best_Buy_DDC_729_-_Tracy",
            "REQUESTED_DATE": "04/12/15",
            "RETAILER_RANK": "2-001",
            "RETAIL_PO": "MNCOPJ",
            "SEND_PSID": 1000005,
            "SEND_PSNAME": "Valley",
            "SHIP_TO_PARTY_NAME": "Best Buy DDC 729 - Tracy",
            "SOURCE_TYPE": 1,
            "TARGET_PS_TYPE": 0,
            "TOTAL_BOXES": "10",
            "TOTAL_PALLETS": "10.00",
            "TOTAL_WEIGHT": "552.45",
            "TRANSIT_TIME": 1,
            "UPDATEBY": 100198,
            "UPDATEDATE": "03/20/15 15:41",
            "UPDATENAME": "Fei Han"
        },
        {
            "ACCOUNT_ID": "74",
            "ADDRESS_STATE_DELIVER": "CA",
            "B2B_OID": 60,
            "B2B_ORDER_ADDRESS": "2300 Chabot Court",
            "B2B_ORDER_DATE": "03/20/15 15:41",
            "B2B_ORDER_LINKMAN": "",
            "B2B_ORDER_LINKMAN_PHONE": "",
            "B2B_ORDER_STATUS": 1,
            "B2B_ORDER_WAYBILL_NAME": "AAFAB, INC.",
            "BILL_TO_ID": "67",
            "BOL_TRACKING": "",
            "CARRIERS": "AAFA",
            "CLEARANCE": 1,
            "COMPANY_ID": "W12",
            "CREATE_ACCOUNT": "Fei Han",
            "CREATE_ACCOUNT_ID": 100198,
            "CUSTOMER_DN": "6500642723",
            "CUSTOMER_ID": "2726",
            "CUSTOMER_NAME": "VIZIO",
            "CUSTOMER_ORDER_DATE": "2015-01-29",
            "DECLARATION": 1,
            "DELIVER_CCID": 11036,
            "DELIVER_CITY": "Tracy",
            "DELIVER_HOUSE_NUMBER": "2300 Chabot Court",
            "DELIVER_PRO_ID": 1038,
            "DELIVER_ZIP_CODE": "91748",
            "DRAWBACK": 1,
            "FREIGHT_CARRIER": "",
            "FREIGHT_TERM": "Prepaid",
            "FROM_PS_TYPE": 1,
            "LOGS": [
                {
                    "ACTIVITY_ID": 1,
                    "B2BER": "Fei Han",
                    "B2BER_ID": 100198,
                    "B2B_CONTENT": "create order",
                    "B2B_DATE": "03/20 15:41",
                    "B2B_OID": 60,
                    "B2B_TYPE": 1,
                    "LOGS_ID": 72
                }
            ],
            "MABD": "04/14/15",
            "ORDER_NUMBER": "5100504216",
            "ORDER_TYPE": "",
            "PKCOUNT": 1,
            "PURCHASE_ID": 0,
            "PUT_STATUS": 1,
            "RECEIVE_PSID": 1005719,
            "RECEIVE_PSNAME": "Best_Buy_DDC_729_-_Tracy",
            "REQUESTED_DATE": "04/12/15",
            "RETAILER_RANK": "2-001",
            "RETAIL_PO": "MNCOPJ",
            "SEND_PSID": 1000005,
            "SEND_PSNAME": "Valley",
            "SHIP_TO_PARTY_NAME": "Best Buy DDC 729 - Tracy",
            "SOURCE_TYPE": 1,
            "TARGET_PS_TYPE": 0,
            "TOTAL_BOXES": "10",
            "TOTAL_PALLETS": "10.00",
            "TOTAL_WEIGHT": "458.45",
            "TRANSIT_TIME": 1,
            "UPDATEBY": 100198,
            "UPDATEDATE": "03/20/15 15:41",
            "UPDATENAME": "Fei Han"
        },
        {
            "ACCOUNT_ID": "74",
            "ADDRESS_STATE_DELIVER": "WA",
            "B2B_OID": 59,
            "B2B_ORDER_ADDRESS": "22001 84th Avenue South",
            "B2B_ORDER_DATE": "03/20/15 15:41",
            "B2B_ORDER_LINKMAN": "",
            "B2B_ORDER_LINKMAN_PHONE": "",
            "B2B_ORDER_STATUS": 1,
            "B2B_ORDER_WAYBILL_NAME": "AAFAB, INC.",
            "BILL_TO_ID": "67",
            "BOL_TRACKING": "",
            "CARRIERS": "AAFA",
            "CLEARANCE": 1,
            "COMPANY_ID": "W12",
            "CREATE_ACCOUNT": "Fei Han",
            "CREATE_ACCOUNT_ID": 100198,
            "CUSTOMER_DN": "6500642819",
            "CUSTOMER_ID": "2726",
            "CUSTOMER_NAME": "VIZIO",
            "CUSTOMER_ORDER_DATE": "2015-01-29",
            "DECLARATION": 1,
            "DELIVER_CCID": 11036,
            "DELIVER_CITY": "Kent",
            "DELIVER_HOUSE_NUMBER": "22001 84th Avenue South",
            "DELIVER_PRO_ID": 1080,
            "DELIVER_ZIP_CODE": "91748",
            "DRAWBACK": 1,
            "FREIGHT_CARRIER": "",
            "FREIGHT_TERM": "Prepaid",
            "FROM_PS_TYPE": 1,
            "LOGS": [
                {
                    "ACTIVITY_ID": 1,
                    "B2BER": "Fei Han",
                    "B2BER_ID": 100198,
                    "B2B_CONTENT": "create order",
                    "B2B_DATE": "03/20 15:41",
                    "B2B_OID": 59,
                    "B2B_TYPE": 1,
                    "LOGS_ID": 71
                }
            ],
            "MABD": "04/14/15",
            "ORDER_NUMBER": "5100504211",
            "ORDER_TYPE": "",
            "PKCOUNT": 1,
            "PURCHASE_ID": 0,
            "PUT_STATUS": 1,
            "RECEIVE_PSID": 1005718,
            "RECEIVE_PSNAME": "Best_Buy_DDC_734_-_Seattle",
            "REQUESTED_DATE": "04/12/15",
            "RETAILER_RANK": "2-001",
            "RETAIL_PO": "MNCOPC",
            "SEND_PSID": 1000005,
            "SEND_PSNAME": "Valley",
            "SHIP_TO_PARTY_NAME": "Best Buy DDC 734 - Seattle",
            "SOURCE_TYPE": 1,
            "TARGET_PS_TYPE": 0,
            "TOTAL_BOXES": "10",
            "TOTAL_PALLETS": "10.00",
            "TOTAL_WEIGHT": "3325.94",
            "TRANSIT_TIME": 3,
            "UPDATEBY": 100198,
            "UPDATEDATE": "03/20/15 15:41",
            "UPDATENAME": "Fei Han"
        },
        {
            "ACCOUNT_ID": "74",
            "ADDRESS_STATE_DELIVER": "WA",
            "B2B_OID": 58,
            "B2B_ORDER_ADDRESS": "22001 84th Avenue South",
            "B2B_ORDER_DATE": "03/20/15 15:41",
            "B2B_ORDER_LINKMAN": "",
            "B2B_ORDER_LINKMAN_PHONE": "",
            "B2B_ORDER_STATUS": 1,
            "B2B_ORDER_WAYBILL_NAME": "AAFAB, INC.",
            "BILL_TO_ID": "67",
            "BOL_TRACKING": "",
            "CARRIERS": "AAFA",
            "CLEARANCE": 1,
            "COMPANY_ID": "W12",
            "CREATE_ACCOUNT": "Fei Han",
            "CREATE_ACCOUNT_ID": 100198,
            "CUSTOMER_DN": "6500642809",
            "CUSTOMER_ID": "2726",
            "CUSTOMER_NAME": "VIZIO",
            "CUSTOMER_ORDER_DATE": "2015-01-29",
            "DECLARATION": 1,
            "DELIVER_CCID": 11036,
            "DELIVER_CITY": "Kent",
            "DELIVER_HOUSE_NUMBER": "22001 84th Avenue South",
            "DELIVER_PRO_ID": 1080,
            "DELIVER_ZIP_CODE": "91748",
            "DRAWBACK": 1,
            "FREIGHT_CARRIER": "",
            "FREIGHT_TERM": "Prepaid",
            "FROM_PS_TYPE": 1,
            "LOGS": [
                {
                    "ACTIVITY_ID": 1,
                    "B2BER": "Fei Han",
                    "B2BER_ID": 100198,
                    "B2B_CONTENT": "create order",
                    "B2B_DATE": "03/20 15:41",
                    "B2B_OID": 58,
                    "B2B_TYPE": 1,
                    "LOGS_ID": 70
                }
            ],
            "MABD": "04/14/15",
            "ORDER_NUMBER": "5100504211",
            "ORDER_TYPE": "",
            "PKCOUNT": 1,
            "PURCHASE_ID": 0,
            "PUT_STATUS": 1,
            "RECEIVE_PSID": 1005718,
            "RECEIVE_PSNAME": "Best_Buy_DDC_734_-_Seattle",
            "REQUESTED_DATE": "04/12/15",
            "RETAILER_RANK": "2-001",
            "RETAIL_PO": "MNCOPC",
            "SEND_PSID": 1000005,
            "SEND_PSNAME": "Valley",
            "SHIP_TO_PARTY_NAME": "Best Buy DDC 734 - Seattle",
            "SOURCE_TYPE": 1,
            "TARGET_PS_TYPE": 0,
            "TOTAL_BOXES": "10",
            "TOTAL_PALLETS": "10.00",
            "TOTAL_WEIGHT": "506.31",
            "TRANSIT_TIME": 3,
            "UPDATEBY": 100198,
            "UPDATEDATE": "03/20/15 15:41",
            "UPDATENAME": "Fei Han"
        },
        {
            "ACCOUNT_ID": "74",
            "ADDRESS_STATE_DELIVER": "WA",
            "B2B_OID": 57,
            "B2B_ORDER_ADDRESS": "22001 84th Avenue South",
            "B2B_ORDER_DATE": "03/20/15 15:41",
            "B2B_ORDER_LINKMAN": "",
            "B2B_ORDER_LINKMAN_PHONE": "",
            "B2B_ORDER_STATUS": 1,
            "B2B_ORDER_WAYBILL_NAME": "AAFAB, INC.",
            "BILL_TO_ID": "67",
            "BOL_TRACKING": "",
            "CARRIERS": "AAFA",
            "CLEARANCE": 1,
            "COMPANY_ID": "W12",
            "CREATE_ACCOUNT": "Fei Han",
            "CREATE_ACCOUNT_ID": 100198,
            "CUSTOMER_DN": "6500642792",
            "CUSTOMER_ID": "2726",
            "CUSTOMER_NAME": "VIZIO",
            "CUSTOMER_ORDER_DATE": "2015-01-29",
            "DECLARATION": 1,
            "DELIVER_CCID": 11036,
            "DELIVER_CITY": "Kent",
            "DELIVER_HOUSE_NUMBER": "22001 84th Avenue South",
            "DELIVER_PRO_ID": 1080,
            "DELIVER_ZIP_CODE": "91748",
            "DRAWBACK": 1,
            "FREIGHT_CARRIER": "",
            "FREIGHT_TERM": "Prepaid",
            "FROM_PS_TYPE": 1,
            "LOGS": [
                {
                    "ACTIVITY_ID": 1,
                    "B2BER": "Fei Han",
                    "B2BER_ID": 100198,
                    "B2B_CONTENT": "create order",
                    "B2B_DATE": "03/20 15:41",
                    "B2B_OID": 57,
                    "B2B_TYPE": 1,
                    "LOGS_ID": 69
                }
            ],
            "MABD": "04/14/15",
            "ORDER_NUMBER": "5100504211",
            "ORDER_TYPE": "",
            "PKCOUNT": 1,
            "PURCHASE_ID": 0,
            "PUT_STATUS": 1,
            "RECEIVE_PSID": 1005718,
            "RECEIVE_PSNAME": "Best_Buy_DDC_734_-_Seattle",
            "REQUESTED_DATE": "04/12/15",
            "RETAILER_RANK": "2-001",
            "RETAIL_PO": "MNCOPC",
            "SEND_PSID": 1000005,
            "SEND_PSNAME": "Valley",
            "SHIP_TO_PARTY_NAME": "Best Buy DDC 734 - Seattle",
            "SOURCE_TYPE": 1,
            "TARGET_PS_TYPE": 0,
            "TOTAL_BOXES": "10",
            "TOTAL_PALLETS": "10.00",
            "TOTAL_WEIGHT": "679.69",
            "TRANSIT_TIME": 3,
            "UPDATEBY": 100198,
            "UPDATEDATE": "03/20/15 15:41",
            "UPDATENAME": "Fei Han"
        },
        {
            "ACCOUNT_ID": "120",
            "ADDRESS_STATE_DELIVER": "TX",
            "B2B_OID": 56,
            "B2B_ORDER_ADDRESS": "660N.DorothyDrive,#100",
            "B2B_ORDER_DATE": "03/20/15 15:41",
            "B2B_ORDER_LINKMAN": "",
            "B2B_ORDER_LINKMAN_PHONE": "",
            "B2B_ORDER_STATUS": 1,
            "B2B_ORDER_WAYBILL_NAME": "AAFAB, INC.",
            "BILL_TO_ID": "67",
            "BOL_TRACKING": "",
            "CARRIERS": "AAFA",
            "CLEARANCE": 1,
            "COMPANY_ID": "W12",
            "CREATE_ACCOUNT": "Fei Han",
            "CREATE_ACCOUNT_ID": 100198,
            "CUSTOMER_DN": "6500642773",
            "CUSTOMER_ID": "2726",
            "CUSTOMER_NAME": "VIZIO",
            "CUSTOMER_ORDER_DATE": "2015-01-29",
            "DECLARATION": 1,
            "DELIVER_CCID": 11036,
            "DELIVER_CITY": "Richardson",
            "DELIVER_HOUSE_NUMBER": "660N.DorothyDrive,#100",
            "DELIVER_PRO_ID": 1076,
            "DELIVER_ZIP_CODE": "75081",
            "DRAWBACK": 1,
            "FREIGHT_CARRIER": "",
            "FREIGHT_TERM": "Prepaid",
            "FROM_PS_TYPE": 1,
            "LOGS": [
                {
                    "ACTIVITY_ID": 1,
                    "B2BER": "Fei Han",
                    "B2BER_ID": 100198,
                    "B2B_CONTENT": "create order",
                    "B2B_DATE": "03/20 15:41",
                    "B2B_OID": 56,
                    "B2B_TYPE": 1,
                    "LOGS_ID": 68
                }
            ],
            "MABD": "04/14/15",
            "ORDER_NUMBER": "5100504211",
            "ORDER_TYPE": "",
            "PKCOUNT": 1,
            "PURCHASE_ID": 0,
            "PUT_STATUS": 1,
            "RECEIVE_PSID": 1004935,
            "REQUESTED_DATE": "04/12/15",
            "RETAILER_RANK": "2-012",
            "RETAIL_PO": "MNCOPC",
            "SEND_PSID": 1000005,
            "SEND_PSNAME": "Valley",
            "SHIP_TO_PARTY_NAME": "SYNNCORP",
            "SOURCE_TYPE": 1,
            "TARGET_PS_TYPE": 5,
            "TOTAL_BOXES": "10",
            "TOTAL_PALLETS": "10.00",
            "TOTAL_WEIGHT": "481.28",
            "UPDATEBY": 100198,
            "UPDATEDATE": "03/20/15 15:41",
            "UPDATENAME": "Fei Han"
        },
        {
            "ACCOUNT_ID": "92",
            "ADDRESS_STATE_DELIVER": "PA",
            "B2B_OID": 55,
            "B2B_ORDER_ADDRESS": "80MICRODRIVE",
            "B2B_ORDER_DATE": "03/20/15 15:41",
            "B2B_ORDER_LINKMAN": "",
            "B2B_ORDER_LINKMAN_PHONE": "",
            "B2B_ORDER_STATUS": 2,
            "B2B_ORDER_WAYBILL_NAME": "AAFAB, INC.",
            "BILL_TO_ID": "67",
            "BOL_TRACKING": "",
            "CALC_REQUESTED_DATE": "2015-04-08 00:00:00.0",
            "CARRIERS": "AAFA",
            "CLEARANCE": 1,
            "COMPANY_ID": "W12",
            "CREATE_ACCOUNT": "Fei Han",
            "CREATE_ACCOUNT_ID": 100198,
            "CUSTOMER_DN": "6500642718",
            "CUSTOMER_ID": "2726",
            "CUSTOMER_NAME": "VIZIO",
            "CUSTOMER_ORDER_DATE": "2015-01-29",
            "DECLARATION": 1,
            "DELIVER_CCID": 11036,
            "DELIVER_CITY": "JONESTOWN",
            "DELIVER_HOUSE_NUMBER": "80MICRODRIVE",
            "DELIVER_PRO_ID": 1071,
            "DELIVER_ZIP_CODE": "17038",
            "DRAWBACK": 1,
            "FREIGHT_CARRIER": "",
            "FREIGHT_TERM": "Prepaid",
            "FROM_PS_TYPE": 1,
            "LOGS": [
                {
                    "ACTIVITY_ID": 1,
                    "B2BER": "Fei Han",
                    "B2BER_ID": 100198,
                    "B2B_CONTENT": "create order",
                    "B2B_DATE": "03/20 15:41",
                    "B2B_OID": 55,
                    "B2B_TYPE": 1,
                    "LOGS_ID": 67
                }
            ],
            "MABD": "04/14/15",
            "ORDER_NUMBER": "5100504211",
            "ORDER_TYPE": "",
            "PKCOUNT": 1,
            "PURCHASE_ID": 0,
            "PUT_STATUS": 1,
            "RECEIVE_PSID": 1004784,
            "REQUESTED_DATE": "04/12/15",
            "RETAILER_RANK": "2-008",
            "RETAIL_PO": "MNCOPC",
            "SEND_PSID": 1000005,
            "SEND_PSNAME": "Valley",
            "SHIP_TO_PARTY_NAME": "INGRAM_MICRO_JONESTOWN",
            "SOURCE_TYPE": 1,
            "TARGET_PS_TYPE": 5,
            "TOTAL_BOXES": "10",
            "TOTAL_PALLETS": "10.00",
            "TOTAL_WEIGHT": "183.38",
            "TRANSIT_TIME": 6,
            "UPDATEBY": 100198,
            "UPDATEDATE": "03/20/15 15:41",
            "UPDATENAME": "Fei Han"
        },
        {
            "ACCOUNT_ID": "74",
            "ADDRESS_STATE_DELIVER": "CA",
            "B2B_OID": 54,
            "B2B_ORDER_ADDRESS": "777 Monte Vista Drive",
            "B2B_ORDER_DATE": "03/20/15 15:41",
            "B2B_ORDER_LINKMAN": "",
            "B2B_ORDER_LINKMAN_PHONE": "",
            "B2B_ORDER_STATUS": 1,
            "B2B_ORDER_WAYBILL_NAME": "AAFAB, INC.",
            "BILL_TO_ID": "67",
            "BOL_TRACKING": "",
            "CALC_REQUESTED_DATE": "2015-04-13 00:00:00.0",
            "CARRIERS": "AAFA",
            "CLEARANCE": 1,
            "COMPANY_ID": "W12",
            "CREATE_ACCOUNT": "Fei Han",
            "CREATE_ACCOUNT_ID": 100198,
            "CUSTOMER_DN": "6500642734",
            "CUSTOMER_ID": "2726",
            "CUSTOMER_NAME": "VIZIO",
            "CUSTOMER_ORDER_DATE": "2015-01-29",
            "DECLARATION": 1,
            "DELIVER_CCID": 11036,
            "DELIVER_CITY": "Dinuba",
            "DELIVER_HOUSE_NUMBER": "777 Monte Vista Drive",
            "DELIVER_PRO_ID": 1038,
            "DELIVER_ZIP_CODE": "93618",
            "DRAWBACK": 1,
            "FREIGHT_CARRIER": "",
            "FREIGHT_TERM": "Prepaid",
            "FROM_PS_TYPE": 1,
            "LOGS": [
                {
                    "ACTIVITY_ID": 1,
                    "B2BER": "Fei Han",
                    "B2BER_ID": 100198,
                    "B2B_CONTENT": "create order",
                    "B2B_DATE": "03/20 15:41",
                    "B2B_OID": 54,
                    "B2B_TYPE": 1,
                    "LOGS_ID": 66
                }
            ],
            "MABD": "04/14/15",
            "ORDER_NUMBER": "5100504280",
            "ORDER_TYPE": "",
            "PKCOUNT": 1,
            "PURCHASE_ID": 0,
            "PUT_STATUS": 1,
            "RECEIVE_PSID": 1004672,
            "REQUESTED_DATE": "04/12/15",
            "RETAILER_RANK": "2-001",
            "RETAIL_PO": "MNDDUZ",
            "SEND_PSID": 1000005,
            "SEND_PSNAME": "Valley",
            "SHIP_TO_PARTY_NAME": "Best Buy DC 725 - Dinuba",
            "SOURCE_TYPE": 1,
            "TARGET_PS_TYPE": 5,
            "TOTAL_BOXES": "50",
            "TOTAL_PALLETS": "50.00",
            "TOTAL_WEIGHT": "22971.38",
            "TRANSIT_TIME": 1,
            "UPDATEBY": 100198,
            "UPDATEDATE": "03/20/15 15:41",
            "UPDATENAME": "Fei Han"
        }
    ],
    "INFO": "过滤成功",
    "PAGECTRL": {
        "allCount": 62,
        "first": false,
        "fornt": false,
        "last": true,
        "next": true,
        "pageCount": 7,
        "pageNo": 1,
        "pageSize": 10,
        "rowCount": 10
    }
}