{
    "AUTHS": [
        {
            "INDEX": 0,
            "BUTTON_OUTBOUND": true,
            "ID": 1000092,
            "BUTTON_BOOKDOORORLOCATION": true,
            "BUTTON_FOLLOWUP": true
        },
        {
            "INDEX": 1,
            "BUTTON_OUTBOUND": true,
            "ID": 1000090,
            "BUTTON_BOOKDOORORLOCATIONUPDATEORVIEW": "BOOKING",
            "BUTTON_FOLLOWUP": true
        },
        {
            "INDEX": 2,
            "BUTTON_OUTBOUND": true,
            "ID": 1000086,
            "BUTTON_BOOKDOORORLOCATION": true,
            "BUTTON_FOLLOWUP": true
        },
        {
            "INDEX": 3,
            "BUTTON_OUTBOUND": true,
            "ID": 1000084,
            "BUTTON_BOOKDOORORLOCATION": true,
            "BUTTON_FOLLOWUP": true
        },
        {
            "INDEX": 4,
            "BUTTON_OUTBOUND": true,
            "ID": 1000083,
            "BUTTON_BOOKDOORORLOCATION": true,
            "BUTTON_FOLLOWUP": true
        },
        {
            "INDEX": 5,
            "BUTTON_OUTBOUND": true,
            "ID": 1000081,
            "BUTTON_BOOKDOORORLOCATION": true,
            "BUTTON_FOLLOWUP": true
        },
        {
            "INDEX": 6,
            "BUTTON_OUTBOUND": true,
            "ID": 1000073,
            "BUTTON_BOOKDOORORLOCATION": true,
            "BUTTON_FOLLOWUP": true
        },
        {
            "INDEX": 7,
            "BUTTON_OUTBOUND": true,
            "ID": 1000072,
            "BUTTON_BOOKDOORORLOCATION": true,
            "BUTTON_FOLLOWUP": true
        }
    ],
    "PAGECTRL": {
        "pageSize": 10,
        "pageNo": 1,
        "allCount": 8,
        "pageCount": 1,
        "rowCount": 8,
        "last": false,
        "next": false,
        "fornt": false,
        "first": false
    },
    "DATA": [
        {
            "TAG_THIRD": 2,
            "UPDATEBY": 100198,
            "REMARK": "",
            "CONTAINER_COUNT": 0,
            "SEND_STREET": "Green Homeland,Chao Yang District",
            "DELIVER_ZIP_CODE": "511442",
            "LOGS": [
                {
                    "TRANSPORT_DATE": 1410424168000,
                    "TRANSPORT_ID": 1000092,
                    "ACTIVITY_ID": 2,
                    "TRANSPORT_TYPE": 10,
                    "ADMINNAME": "系统管理员",
                    "TRANSPORT_CONTENT": "创建转运单1000092[商品文件上传中]",
                    "FOLLOWUPTYPE": "实物图片",
                    "TRANSPORTER": "系统管理员",
                    "TRANSPORTER_ID": 100198,
                    "LOGS_ID": 1000723
                },
                {
                    "TRANSPORT_DATE": 1410424168000,
                    "TRANSPORT_ID": 1000092,
                    "ACTIVITY_ID": 1,
                    "TRANSPORT_TYPE": 4,
                    "ADMINNAME": "系统管理员",
                    "TRANSPORT_CONTENT": "创建转运单1000092[备货中]",
                    "FOLLOWUPTYPE": "货物状态",
                    "TRANSPORTER": "系统管理员",
                    "TRANSPORTER_ID": 100198,
                    "LOGS_ID": 1000722
                },
                {
                    "TRANSPORT_DATE": 1410424168000,
                    "TRANSPORT_ID": 1000092,
                    "TRANSPORT_TYPE": 3,
                    "ADMINNAME": "系统管理员",
                    "TRANSPORT_CONTENT": "转运单设置运费:单号1000092",
                    "FOLLOWUPTYPE": "修改记录",
                    "TRANSPORTER": "系统管理员",
                    "TRANSPORTER_ID": 100198,
                    "LOGS_ID": 1000721
                }
            ],
            "DELIVER_CITY": "广州",
            "TARGET_PS_TYPE": 0,
            "SEND_PSID": 100000,
            "SEND_CITY": "BeiJing",
            "DELIVER_CCID": 11004,
            "DELIVER_PRO_ID": 1004,
            "TRANSPORT_VOLUME": 172105,
            "DECLARATION": 2,
            "FROM_PS_TYPE": 1,
            "CARRIERS": "",
            "PRODUCT_FILE": 2,
            "CERTIFICATE": 2,
            "CREATE_ACCOUNT": "系统管理员",
            "SEND_PSNAME": "BJ",
            "TAG_THIRD_RESPONSIBLE": 1,
            "TRANSPORT_STATUS_NAME": "<font color='green'>装货中</font>",
            "STOCK_IN_SET_RESPONSIBLE": 2,
            "DELIVER_HOUSE_NUMBER": "五号仓库",
            "TRANSPORT_RECEIVE_DATE": 1410192000000,
            "FLOWS": [
                {
                    "TYPE": 4,
                    "EMPLOYE_NAMES": "系统管理员 "
                },
                {
                    "TYPE": 11
                }
            ],
            "DECLARATION_RESPONSIBLE": 2,
            "TRANSPORT_LINKMAN": "陈明平/何中华",
            "TRANSPORT_DATE": 1410424167000,
            "QUALITY_INSPECTION": 2,
            "TAG_RESPONSIBLE": 1,
            "ADDRESS_STATE_SEND": "",
            "RECEIVE_PSID": 100006,
            "DRAWBACK": 1,
            "TRANSPORT_LINKMAN_PHONE": "+86 18102709270",
            "ADDRESS_STATE_DELIVER": "",
            "TRANSPORT_WEIGHT": 27.92,
            "CLEARANCE_RESPONSIBLE": 2,
            "CERTIFICATE_RESPONSIBLE": 2,
            "UPDATEDATE": 1410424168000,
            "TRANSPORT_ID": 1000092,
            "SEND_NAME": "HuiMin Duan",
            "SEND_ZIP_CODE": "100107",
            "SEND_LINKMAN_PHONE": "+86 10 84827066",
            "TRANSPORTBY": 0,
            "SEND_CCID": 11004,
            "TRANSPORT_WAYBILL_NUMBER": "",
            "PUT_STATUS": 1,
            "STOCK_IN_SET": 2,
            "TITLE_NAME": "EBAY",
            "RECEIVE_PSNAME": "GZ",
            "TRANSPORT_STATUS": 5,
            "TAG": 2,
            "TRANSPORT_SEND_PLACE": "",
            "DELIVER_STREET": "番禺区南村镇员岗村顺意坊大道东路",
            "QUALITY_INSPECTION_RESPONSIBLE": 1,
            "CREATE_ACCOUNT_ID": 100198,
            "TRANSPORT_RECEIVE_PLACE": "",
            "FR_ID": 0,
            "TITLE_ID": 18,
            "TRANSPORT_ADDRESS": "",
            "PRODUCT_FILE_RESPONSIBLE": 1,
            "PKCOUNT": 1,
            "CLEARANCE": 2,
            "UPDATENAME": "系统管理员",
            "SEND_HOUSE_NUMBER": "Room 804 Building C7Media Village",
            "SEND_PRO_ID": 1000,
            "PURCHASE_ID": 0,
            "TRANSPORT_WAYBILL_NAME": ""
        },
        {
            "TAG_THIRD": 2,
            "UPDATEBY": 100198,
            "REMARK": "",
            "CONTAINER_COUNT": 1,
            "SEND_STREET": "Green Homeland,Chao Yang District",
            "DELIVER_ZIP_CODE": "511442",
            "LOGS": [
                {
                    "TRANSPORT_DATE": 1413192645000,
                    "TRANSPORT_ID": 1000090,
                    "ACTIVITY_ID": 0,
                    "TRANSPORT_TYPE": 16,
                    "ADMINNAME": "系统管理员",
                    "TRANSPORT_CONTENT": "系统管理员:装货任务",
                    "FOLLOWUPTYPE": "装货司机签到",
                    "TRANSPORTER": "系统管理员",
                    "TRANSPORTER_ID": 100198,
                    "LOGS_ID": 1000737
                },
                {
                    "TRANSPORT_DATE": 1410939661000,
                    "TRANSPORT_ID": 1000090,
                    "ACTIVITY_ID": 5,
                    "TRANSPORT_TYPE": 4,
                    "ADMINNAME": "系统管理员",
                    "TRANSPORT_CONTENT": "转运单:1000090起运",
                    "FOLLOWUPTYPE": "货物状态",
                    "TRANSPORTER": "系统管理员",
                    "TRANSPORTER_ID": 100198,
                    "LOGS_ID": 1000736
                },
                {
                    "TRANSPORT_DATE": 1410939661000,
                    "TRANSPORT_ID": 1000090,
                    "ACTIVITY_ID": 2,
                    "TRANSPORT_TYPE": 4,
                    "ADMINNAME": "系统管理员",
                    "TRANSPORT_CONTENT": "启运:启运完成",
                    "FOLLOWUPTYPE": "货物状态",
                    "TRANSPORTER": "系统管理员",
                    "TRANSPORTER_ID": 100198,
                    "LOGS_ID": 1000735
                }
            ],
            "DELIVER_CITY": "广州",
            "TARGET_PS_TYPE": 0,
            "SEND_REGISTRATION": 100198,
            "SEND_REGISTRATION_TIME": 1413192645000,
            "SEND_PSID": 100000,
            "SEND_CITY": "BeiJing",
            "DELIVER_CCID": 11004,
            "DELIVER_PRO_ID": 1004,
            "TRANSPORT_VOLUME": 1721050,
            "DECLARATION": 2,
            "FROM_PS_TYPE": 1,
            "CARRIERS": "FEDEX",
            "PRODUCT_FILE": 2,
            "CERTIFICATE": 2,
            "CREATE_ACCOUNT": "系统管理员",
            "SEND_PSNAME": "BJ",
            "TAG_THIRD_RESPONSIBLE": 1,
            "TRANSPORT_STATUS_NAME": "<font color='blue'>运输中</font>",
            "STOCK_IN_SET_RESPONSIBLE": 2,
            "DELIVER_HOUSE_NUMBER": "五号仓库",
            "TRANSPORT_RECEIVE_DATE": 1410192000000,
            "FLOWS": [
                {
                    "TYPE": 4,
                    "EMPLOYE_NAMES": "系统管理员 "
                },
                {
                    "TYPE": 11
                }
            ],
            "DECLARATION_RESPONSIBLE": 2,
            "TRANSPORT_LINKMAN": "陈明平/何中华",
            "TRANSPORT_DATE": 1410245941000,
            "QUALITY_INSPECTION": 2,
            "TAG_RESPONSIBLE": 1,
            "ADDRESS_STATE_SEND": "",
            "RECEIVE_PSID": 100006,
            "DRAWBACK": 1,
            "TRANSPORT_LINKMAN_PHONE": "+86 18102709270",
            "ADDRESS_STATE_DELIVER": "",
            "TRANSPORT_WEIGHT": 279.2,
            "CLEARANCE_RESPONSIBLE": 2,
            "CERTIFICATE_RESPONSIBLE": 2,
            "UPDATEDATE": 1413192645000,
            "TRANSPORT_ID": 1000090,
            "SEND_NAME": "HuiMin Duan",
            "SEND_ZIP_CODE": "100107",
            "SEND_LINKMAN_PHONE": "+86 10 84827066",
            "TRANSPORTBY": 4,
            "SEND_CCID": 11004,
            "TRANSPORT_WAYBILL_NUMBER": "",
            "PUT_STATUS": 1,
            "STOCK_IN_SET": 2,
            "TITLE_NAME": "EBAY",
            "RECEIVE_PSNAME": "GZ",
            "TRANSPORT_STATUS": 2,
            "TAG": 2,
            "TRANSPORT_SEND_PLACE": "CHINA CITY",
            "DELIVER_STREET": "番禺区南村镇员岗村顺意坊大道东路",
            "QUALITY_INSPECTION_RESPONSIBLE": 1,
            "CREATE_ACCOUNT_ID": 100198,
            "TRANSPORT_RECEIVE_PLACE": "VVME-PA",
            "FR_ID": 31,
            "TITLE_ID": 18,
            "TRANSPORT_ADDRESS": "",
            "PRODUCT_FILE_RESPONSIBLE": 1,
            "PKCOUNT": 1,
            "CLEARANCE": 2,
            "UPDATENAME": "系统管理员",
            "SEND_HOUSE_NUMBER": "Room 804 Building C7Media Village",
            "SEND_PRO_ID": 1000,
            "PURCHASE_ID": 0,
            "TRANSPORT_WAYBILL_NAME": "FEDEX"
        },
        {
            "TAG_THIRD": 1,
            "UPDATEBY": 100198,
            "REMARK": "",
            "CONTAINER_COUNT": 0,
            "SEND_STREET": "Green Homeland,Chao Yang District",
            "DELIVER_ZIP_CODE": "85043",
            "LOGS": [
                {
                    "TRANSPORT_DATE": 1409911165000,
                    "TRANSPORT_ID": 1000086,
                    "ACTIVITY_ID": 1,
                    "TRANSPORT_TYPE": 4,
                    "ADMINNAME": "系统管理员",
                    "TRANSPORT_CONTENT": "停止装箱:单号1000086",
                    "FOLLOWUPTYPE": "货物状态",
                    "TRANSPORTER": "系统管理员",
                    "TRANSPORTER_ID": 100198,
                    "LOGS_ID": 1000707
                },
                {
                    "TRANSPORT_DATE": 1409901950000,
                    "TRANSPORT_ID": 1000086,
                    "TRANSPORT_TYPE": 3,
                    "ADMINNAME": "系统管理员",
                    "TRANSPORT_CONTENT": "转运单设置运单:单号1000086",
                    "FOLLOWUPTYPE": "修改记录",
                    "TRANSPORTER": "系统管理员",
                    "TRANSPORTER_ID": 100198,
                    "LOGS_ID": 1000685
                },
                {
                    "TRANSPORT_DATE": 1409901786000,
                    "TRANSPORT_ID": 1000086,
                    "ACTIVITY_ID": 5,
                    "TRANSPORT_TYPE": 5,
                    "ADMINNAME": "系统管理员",
                    "TRANSPORT_CONTENT": "[运费转账]完成:",
                    "FOLLOWUPTYPE": "运费流程",
                    "TRANSPORTER": "系统管理员",
                    "TRANSPORTER_ID": 100198,
                    "LOGS_ID": 1000684
                }
            ],
            "DELIVER_CITY": "PHOENIX",
            "TARGET_PS_TYPE": 0,
            "STOCK_IN_SET_OVER": 0,
            "SEND_PSID": 100000,
            "SEND_CITY": "BeiJing",
            "DELIVER_CCID": 11036,
            "DELIVER_PRO_ID": 1036,
            "TRANSPORT_VOLUME": 860525,
            "DECLARATION": 1,
            "FROM_PS_TYPE": 1,
            "CARRIERS": "航空公司",
            "PRODUCT_FILE": 2,
            "CERTIFICATE": 1,
            "CREATE_ACCOUNT": "系统管理员",
            "SEND_PSNAME": "BJ",
            "TAG_THIRD_RESPONSIBLE": 0,
            "TRANSPORT_STATUS_NAME": "备货中",
            "STOCK_IN_SET_RESPONSIBLE": 1,
            "DELIVER_HOUSE_NUMBER": "sdfsdfsd",
            "FLOWS": [
                {
                    "TYPE": 4,
                    "EMPLOYE_NAMES": "系统管理员 "
                }
            ],
            "DECLARATION_RESPONSIBLE": 0,
            "TRANSPORT_LINKMAN": "asdfsaf",
            "TRANSPORT_DATE": 1409103080000,
            "QUALITY_INSPECTION": 1,
            "TAG_RESPONSIBLE": 0,
            "ADDRESS_STATE_SEND": "",
            "RECEIVE_PSID": 1189755,
            "DRAWBACK": 1,
            "TRANSPORT_LINKMAN_PHONE": "asdfsdfsafd",
            "ADDRESS_STATE_DELIVER": "",
            "TRANSPORT_WEIGHT": 139.6,
            "CLEARANCE_RESPONSIBLE": 0,
            "CERTIFICATE_RESPONSIBLE": 0,
            "UPDATEDATE": 1409911165000,
            "TRANSPORT_ID": 1000086,
            "SEND_NAME": "HuiMin Duan",
            "SEND_ZIP_CODE": "100107",
            "SEND_LINKMAN_PHONE": "+86 10 84827066",
            "TRANSPORTBY": 3,
            "SEND_CCID": 11004,
            "TRANSPORT_WAYBILL_NUMBER": "",
            "PUT_STATUS": 1,
            "STOCK_IN_SET": 5,
            "TITLE_NAME": "EBAY",
            "RECEIVE_PSNAME": "AMAZON_(PHX3)",
            "TRANSPORT_STATUS": 1,
            "TAG": 1,
            "TRANSPORT_SEND_PLACE": "中国口岸：广州/深圳",
            "DELIVER_STREET": "6835WestBuckeyRoad",
            "QUALITY_INSPECTION_RESPONSIBLE": 0,
            "CREATE_ACCOUNT_ID": 100198,
            "TRANSPORT_RECEIVE_PLACE": "美国口岸：LAX/PHI",
            "FR_ID": 32,
            "TITLE_ID": 18,
            "TRANSPORT_ADDRESS": "",
            "PRODUCT_FILE_RESPONSIBLE": 1,
            "PKCOUNT": 1,
            "CLEARANCE": 1,
            "UPDATENAME": "系统管理员",
            "SEND_HOUSE_NUMBER": "Room 804 Building C7Media Village",
            "SEND_PRO_ID": 1000,
            "PURCHASE_ID": 0,
            "TRANSPORT_WAYBILL_NAME": "泛洋宁波"
        },
        {
            "TAG_THIRD": 2,
            "UPDATEBY": 100198,
            "DECLARATION_OVER": 9.9,
            "REMARK": "test",
            "CONTAINER_COUNT": 0,
            "SEND_STREET": "Green Homeland,Chao Yang District",
            "DELIVER_ZIP_CODE": "511442",
            "LOGS": [
                {
                    "TRANSPORT_DATE": 1410256190000,
                    "TRANSPORT_ID": 1000084,
                    "ACTIVITY_ID": 1,
                    "TRANSPORT_TYPE": 9,
                    "ADMINNAME": "系统管理员",
                    "TRANSPORT_CONTENT": "装箱单\r上传文件T_certificate_1000084_订单.docx",
                    "FOLLOWUPTYPE": "单证流程",
                    "TRANSPORTER": "系统管理员",
                    "TRANSPORTER_ID": 100198,
                    "LOGS_ID": 1000714
                },
                {
                    "TRANSPORT_DATE": 1409903654000,
                    "TRANSPORT_ID": 1000084,
                    "ACTIVITY_ID": 2,
                    "TRANSPORT_TYPE": 6,
                    "ADMINNAME": "系统管理员",
                    "TRANSPORT_CONTENT": "修改转运单:1000084[需要清关]",
                    "FOLLOWUPTYPE": "进口清关",
                    "TRANSPORTER": "系统管理员",
                    "TRANSPORTER_ID": 100198,
                    "LOGS_ID": 1000692
                },
                {
                    "TRANSPORT_DATE": 1409903535000,
                    "TRANSPORT_ID": 1000084,
                    "ACTIVITY_ID": 4,
                    "TRANSPORT_TYPE": 7,
                    "ADMINNAME": "系统管理员",
                    "TRANSPORT_CONTENT": "[报关完成]完成:",
                    "FOLLOWUPTYPE": "出口报关",
                    "TRANSPORTER": "系统管理员",
                    "TRANSPORTER_ID": 100198,
                    "LOGS_ID": 1000691
                }
            ],
            "DELIVER_CITY": "广州",
            "TARGET_PS_TYPE": 0,
            "SEND_PSID": 100000,
            "SEND_CITY": "BeiJing",
            "DELIVER_CCID": 11004,
            "DELIVER_PRO_ID": 1004,
            "TRANSPORT_VOLUME": 1721050,
            "DECLARATION": 4,
            "FROM_PS_TYPE": 1,
            "CARRIERS": "FEDEX",
            "PRODUCT_FILE": 2,
            "CERTIFICATE": 2,
            "CREATE_ACCOUNT": "系统管理员",
            "SEND_PSNAME": "BJ",
            "TAG_THIRD_RESPONSIBLE": 1,
            "TRANSPORT_STATUS_NAME": "<font color='green'>装货中</font>",
            "STOCK_IN_SET_RESPONSIBLE": 1,
            "DELIVER_HOUSE_NUMBER": "五号仓库",
            "TRANSPORT_RECEIVE_DATE": 1408982400000,
            "FLOWS": [
                {
                    "TYPE": 4,
                    "EMPLOYE_NAMES": "系统管理员 "
                },
                {
                    "TYPE": 11,
                    "EMPLOYE_NAMES": "系统管理员 "
                }
            ],
            "DECLARATION_RESPONSIBLE": 1,
            "TRANSPORT_LINKMAN": "陈明平/何中华",
            "TRANSPORT_DATE": 1409049034000,
            "QUALITY_INSPECTION": 2,
            "TAG_RESPONSIBLE": 1,
            "ADDRESS_STATE_SEND": "",
            "RECEIVE_PSID": 100006,
            "DRAWBACK": 1,
            "TRANSPORT_LINKMAN_PHONE": "+86 18102709270",
            "ADDRESS_STATE_DELIVER": "",
            "TRANSPORT_WEIGHT": 279.2,
            "CLEARANCE_RESPONSIBLE": 1,
            "CERTIFICATE_RESPONSIBLE": 2,
            "UPDATEDATE": 1410256190000,
            "TRANSPORT_ID": 1000084,
            "SEND_NAME": "HuiMin Duan",
            "SEND_ZIP_CODE": "100107",
            "SEND_LINKMAN_PHONE": "+86 10 84827066",
            "TRANSPORTBY": 4,
            "SEND_CCID": 11004,
            "TRANSPORT_WAYBILL_NUMBER": "",
            "PUT_STATUS": 1,
            "STOCK_IN_SET": 2,
            "TITLE_NAME": "EBAY",
            "RECEIVE_PSNAME": "GZ",
            "TRANSPORT_STATUS": 5,
            "TAG": 2,
            "TRANSPORT_SEND_PLACE": "CHINA CITY",
            "DELIVER_STREET": "番禺区南村镇员岗村顺意坊大道东路",
            "QUALITY_INSPECTION_RESPONSIBLE": 1,
            "CREATE_ACCOUNT_ID": 100198,
            "TRANSPORT_RECEIVE_PLACE": "VVME-PA",
            "FR_ID": 31,
            "TITLE_ID": 18,
            "TRANSPORT_ADDRESS": "",
            "PRODUCT_FILE_RESPONSIBLE": 1,
            "PKCOUNT": 1,
            "CLEARANCE": 2,
            "UPDATENAME": "系统管理员",
            "SEND_HOUSE_NUMBER": "Room 804 Building C7Media Village",
            "SEND_PRO_ID": 1000,
            "PURCHASE_ID": 0,
            "TRANSPORT_WAYBILL_NAME": "FEDEX"
        },
        {
            "TAG_THIRD": 2,
            "UPDATEBY": 100198,
            "REMARK": "LY_TEST",
            "CONTAINER_COUNT": 0,
            "SEND_STREET": "Green Homeland,Chao Yang District",
            "DELIVER_ZIP_CODE": "100107",
            "LOGS": [
                {
                    "TRANSPORT_DATE": 1409048411000,
                    "TRANSPORT_ID": 1000083,
                    "ACTIVITY_ID": 2,
                    "TRANSPORT_TYPE": 11,
                    "ADMINNAME": "系统管理员",
                    "TRANSPORT_CONTENT": "创建转运单1000083[需要质检]",
                    "FOLLOWUPTYPE": "质检流程",
                    "TRANSPORTER": "系统管理员",
                    "TRANSPORTER_ID": 100198,
                    "LOGS_ID": 1000637
                },
                {
                    "TRANSPORT_DATE": 1409048410000,
                    "TRANSPORT_ID": 1000083,
                    "ACTIVITY_ID": 2,
                    "TRANSPORT_TYPE": 9,
                    "ADMINNAME": "系统管理员",
                    "TRANSPORT_CONTENT": "创建转运单1000083[单证采集中]",
                    "FOLLOWUPTYPE": "单证流程",
                    "TRANSPORTER": "系统管理员",
                    "TRANSPORTER_ID": 100198,
                    "LOGS_ID": 1000636
                },
                {
                    "TRANSPORT_DATE": 1409048410000,
                    "TRANSPORT_ID": 1000083,
                    "ACTIVITY_ID": 2,
                    "TRANSPORT_TYPE": 5,
                    "ADMINNAME": "系统管理员",
                    "TRANSPORT_CONTENT": "创建转运单1000083[需要运费]",
                    "FOLLOWUPTYPE": "运费流程",
                    "TRANSPORTER": "系统管理员",
                    "TRANSPORTER_ID": 100198,
                    "LOGS_ID": 1000635
                }
            ],
            "DELIVER_CITY": "北京",
            "TARGET_PS_TYPE": 0,
            "SEND_PSID": 100000,
            "SEND_CITY": "BeiJing",
            "DELIVER_CCID": 11004,
            "DELIVER_PRO_ID": 1000,
            "TRANSPORT_VOLUME": 516315,
            "DECLARATION": 2,
            "FROM_PS_TYPE": 1,
            "CARRIERS": "liuyi货运",
            "PRODUCT_FILE": 2,
            "CERTIFICATE": 2,
            "CREATE_ACCOUNT": "系统管理员",
            "SEND_PSNAME": "BJ",
            "TAG_THIRD_RESPONSIBLE": 1,
            "TRANSPORT_STATUS_NAME": "<font color='green'>装货中</font>",
            "STOCK_IN_SET_RESPONSIBLE": 1,
            "DELIVER_HOUSE_NUMBER": "C7 804",
            "TRANSPORT_RECEIVE_DATE": 1409241600000,
            "FLOWS": [
                {
                    "TYPE": 4,
                    "EMPLOYE_NAMES": "系统管理员 "
                },
                {
                    "TYPE": 11,
                    "EMPLOYE_NAMES": "系统管理员 "
                }
            ],
            "DECLARATION_RESPONSIBLE": 1,
            "TRANSPORT_LINKMAN": "段慧敏",
            "TRANSPORT_DATE": 1409048408000,
            "QUALITY_INSPECTION": 2,
            "TAG_RESPONSIBLE": 1,
            "ADDRESS_STATE_SEND": "",
            "RECEIVE_PSID": 100000,
            "DRAWBACK": 1,
            "TRANSPORT_LINKMAN_PHONE": "+86 10 84827066",
            "ADDRESS_STATE_DELIVER": "",
            "TRANSPORT_WEIGHT": 83.76,
            "CLEARANCE_RESPONSIBLE": 1,
            "CERTIFICATE_RESPONSIBLE": 1,
            "UPDATEDATE": 1409048411000,
            "TRANSPORT_ID": 1000083,
            "SEND_NAME": "HuiMin Duan",
            "SEND_ZIP_CODE": "100107",
            "SEND_LINKMAN_PHONE": "+86 10 84827066",
            "TRANSPORTBY": 3,
            "SEND_CCID": 11004,
            "TRANSPORT_WAYBILL_NUMBER": "",
            "PUT_STATUS": 1,
            "STOCK_IN_SET": 2,
            "TITLE_NAME": "EBAY",
            "RECEIVE_PSNAME": "BJ",
            "TRANSPORT_STATUS": 5,
            "TAG": 2,
            "TRANSPORT_SEND_PLACE": "北京",
            "DELIVER_STREET": "朝阳区绿色媒体家园天畅园",
            "QUALITY_INSPECTION_RESPONSIBLE": 1,
            "CREATE_ACCOUNT_ID": 100198,
            "TRANSPORT_RECEIVE_PLACE": "南京",
            "FR_ID": 33,
            "TITLE_ID": 18,
            "TRANSPORT_ADDRESS": "",
            "PRODUCT_FILE_RESPONSIBLE": 1,
            "PKCOUNT": 1,
            "CLEARANCE": 2,
            "UPDATENAME": "系统管理员",
            "SEND_HOUSE_NUMBER": "Room 804 Building C7Media Village",
            "SEND_PRO_ID": 1000,
            "PURCHASE_ID": 0,
            "TRANSPORT_WAYBILL_NAME": "liuyi货运"
        },
        {
            "TAG_THIRD": 2,
            "UPDATEBY": 100198,
            "REMARK": "11111111",
            "CONTAINER_COUNT": 0,
            "SEND_STREET": "Green Homeland,Chao Yang District",
            "DELIVER_ZIP_CODE": "44241",
            "LOGS": [
                {
                    "TRANSPORT_DATE": 1408942628000,
                    "TRANSPORT_ID": 1000081,
                    "ACTIVITY_ID": 2,
                    "TRANSPORT_TYPE": 9,
                    "ADMINNAME": "系统管理员",
                    "TRANSPORT_CONTENT": "创建转运单1000081[单证采集中]",
                    "FOLLOWUPTYPE": "单证流程",
                    "TRANSPORTER": "系统管理员",
                    "TRANSPORTER_ID": 100198,
                    "LOGS_ID": 1000622
                },
                {
                    "TRANSPORT_DATE": 1408942628000,
                    "TRANSPORT_ID": 1000081,
                    "ACTIVITY_ID": 2,
                    "TRANSPORT_TYPE": 5,
                    "ADMINNAME": "系统管理员",
                    "TRANSPORT_CONTENT": "创建转运单1000081[需要运费]",
                    "FOLLOWUPTYPE": "运费流程",
                    "TRANSPORTER": "系统管理员",
                    "TRANSPORTER_ID": 100198,
                    "LOGS_ID": 1000621
                },
                {
                    "TRANSPORT_DATE": 1408942628000,
                    "TRANSPORT_ID": 1000081,
                    "ACTIVITY_ID": 2,
                    "TRANSPORT_TYPE": 14,
                    "ADMINNAME": "系统管理员",
                    "TRANSPORT_CONTENT": "创建转运单1000081[制签中]",
                    "FOLLOWUPTYPE": "第三方标签",
                    "TRANSPORTER": "系统管理员",
                    "TRANSPORTER_ID": 100198,
                    "LOGS_ID": 1000620
                }
            ],
            "DELIVER_CITY": "Streetsboro",
            "TARGET_PS_TYPE": 0,
            "SEND_PSID": 100000,
            "SEND_CITY": "BeiJing",
            "DELIVER_CCID": 11036,
            "DELIVER_PRO_ID": 1068,
            "TRANSPORT_VOLUME": 86052496,
            "DECLARATION": 2,
            "FROM_PS_TYPE": 1,
            "CARRIERS": "",
            "CERTIFICATE": 2,
            "PRODUCT_FILE": 2,
            "CREATE_ACCOUNT": "系统管理员",
            "SEND_PSNAME": "BJ",
            "TRANSPORT_STATUS_NAME": "<font color='green'>装货中</font>",
            "DELIVER_HOUSE_NUMBER": "qweqwe",
            "FLOWS": [
                {
                    "TYPE": 4,
                    "EMPLOYE_NAMES": "系统管理员 "
                }
            ],
            "TRANSPORT_LINKMAN": "qweqwe",
            "TRANSPORT_DATE": 1408942627000,
            "QUALITY_INSPECTION": 1,
            "TAG_RESPONSIBLE": 0,
            "ADDRESS_STATE_SEND": "",
            "RECEIVE_PSID": 1189717,
            "DRAWBACK": 1,
            "TRANSPORT_LINKMAN_PHONE": "qeqwe",
            "ADDRESS_STATE_DELIVER": "",
            "TRANSPORT_WEIGHT": 13960,
            "UPDATEDATE": 1408942628000,
            "TRANSPORT_ID": 1000081,
            "SEND_NAME": "HuiMin Duan",
            "SEND_ZIP_CODE": "100107",
            "SEND_LINKMAN_PHONE": "+86 10 84827066",
            "TRANSPORTBY": 0,
            "SEND_CCID": 11004,
            "TRANSPORT_WAYBILL_NUMBER": "",
            "PUT_STATUS": 1,
            "STOCK_IN_SET": 2,
            "TITLE_NAME": "EBAY",
            "RECEIVE_PSNAME": "BEST_BUY_DC_723",
            "TRANSPORT_STATUS": 5,
            "TAG": 2,
            "TRANSPORT_SEND_PLACE": "",
            "DELIVER_STREET": "9780MOPARDRIVE",
            "CREATE_ACCOUNT_ID": 100198,
            "TRANSPORT_RECEIVE_PLACE": "",
            "FR_ID": 0,
            "TITLE_ID": 18,
            "TRANSPORT_ADDRESS": "",
            "PKCOUNT": 1,
            "CLEARANCE": 2,
            "UPDATENAME": "系统管理员",
            "SEND_HOUSE_NUMBER": "Room 804 Building C7Media Village",
            "SEND_PRO_ID": 1000,
            "PURCHASE_ID": 0,
            "TRANSPORT_WAYBILL_NAME": ""
        },
        {
            "TAG_THIRD": 1,
            "UPDATEBY": 100198,
            "REMARK": "",
            "CONTAINER_COUNT": 0,
            "SEND_STREET": "Green Homeland,Chao Yang District",
            "DELIVER_ZIP_CODE": "511442",
            "LOGS": [
                {
                    "TRANSPORT_DATE": 1405935659000,
                    "TRANSPORT_ID": 1000073,
                    "TRANSPORT_TYPE": 3,
                    "ADMINNAME": "系统管理员",
                    "TRANSPORT_CONTENT": "转运单设置运单:单号1000073",
                    "FOLLOWUPTYPE": "修改记录",
                    "TRANSPORTER": "系统管理员",
                    "TRANSPORTER_ID": 100198,
                    "LOGS_ID": 1000530
                },
                {
                    "TRANSPORT_DATE": 1405935044000,
                    "TRANSPORT_ID": 1000073,
                    "ACTIVITY_ID": 2,
                    "TRANSPORT_TYPE": 11,
                    "ADMINNAME": "系统管理员",
                    "TRANSPORT_CONTENT": "创建转运单1000073[需要质检]",
                    "FOLLOWUPTYPE": "质检流程",
                    "TRANSPORTER": "系统管理员",
                    "TRANSPORTER_ID": 100198,
                    "LOGS_ID": 1000529
                },
                {
                    "TRANSPORT_DATE": 1405935044000,
                    "TRANSPORT_ID": 1000073,
                    "ACTIVITY_ID": 2,
                    "TRANSPORT_TYPE": 8,
                    "ADMINNAME": "系统管理员",
                    "TRANSPORT_CONTENT": "创建转运单1000073[制签中]",
                    "FOLLOWUPTYPE": "内部标签",
                    "TRANSPORTER": "系统管理员",
                    "TRANSPORTER_ID": 100198,
                    "LOGS_ID": 1000528
                }
            ],
            "DELIVER_CITY": "广州",
            "TARGET_PS_TYPE": 1,
            "SEND_PSID": 100000,
            "SEND_CITY": "BeiJing",
            "DELIVER_CCID": 11004,
            "DELIVER_PRO_ID": 1004,
            "TRANSPORT_VOLUME": 669469,
            "DECLARATION": 1,
            "FROM_PS_TYPE": 1,
            "CARRIERS": "中铁仓库",
            "CERTIFICATE": 1,
            "PRODUCT_FILE": 2,
            "CREATE_ACCOUNT": "系统管理员",
            "SEND_PSNAME": "BJ",
            "TRANSPORT_STATUS_NAME": "备货中",
            "DELIVER_HOUSE_NUMBER": "五号仓库",
            "FLOWS": [
                {
                    "TYPE": 4,
                    "EMPLOYE_NAMES": "系统管理员 詹洁 "
                },
                {
                    "TYPE": 11,
                    "EMPLOYE_NAMES": "系统管理员 詹洁 "
                }
            ],
            "TRANSPORT_LINKMAN": "陈明平/何中华",
            "TRANSPORT_DATE": 1405935043000,
            "IS_RELATE_PURCHASE": 2,
            "QUALITY_INSPECTION": 2,
            "TAG_RESPONSIBLE": 0,
            "ADDRESS_STATE_SEND": "",
            "RECEIVE_PSID": 100006,
            "DRAWBACK": 1,
            "TRANSPORT_LINKMAN_PHONE": "+86 18102709270",
            "ADDRESS_STATE_DELIVER": "",
            "TRANSPORT_WEIGHT": 100.7,
            "UPDATEDATE": 1405935659000,
            "TRANSPORT_ID": 1000073,
            "SEND_NAME": "HuiMin Duan",
            "SEND_ZIP_CODE": "100107",
            "SEND_LINKMAN_PHONE": "+86 10 84827066",
            "TRANSPORTBY": 2,
            "SEND_CCID": 11004,
            "TRANSPORT_WAYBILL_NUMBER": "",
            "PUT_STATUS": 1,
            "STOCK_IN_SET": 1,
            "TITLE_NAME": "TCL",
            "RECEIVE_PSNAME": "GZ",
            "TRANSPORT_STATUS": 1,
            "TAG": 2,
            "TRANSPORT_SEND_PLACE": "盐田中铁仓",
            "DELIVER_STREET": "番禺区南村镇员岗村顺意坊大道东路",
            "CREATE_ACCOUNT_ID": 100198,
            "TRANSPORT_RECEIVE_PLACE": "盐田港码头",
            "FR_ID": 28,
            "TITLE_ID": 20,
            "TRANSPORT_ADDRESS": "",
            "PKCOUNT": 1,
            "CLEARANCE": 1,
            "UPDATENAME": "系统管理员",
            "SEND_HOUSE_NUMBER": "Room 804 Building C7Media Village",
            "SEND_PRO_ID": 1000,
            "PURCHASE_ID": 0,
            "TRANSPORT_WAYBILL_NAME": "中铁仓库"
        },
        {
            "TAG_THIRD": 1,
            "UPDATEBY": 100025,
            "REMARK": "",
            "CONTAINER_COUNT": 0,
            "SEND_STREET": "Green Homeland,Chao Yang District",
            "DELIVER_ZIP_CODE": "511442",
            "LOGS": [
                {
                    "TRANSPORT_DATE": 1409906570000,
                    "TRANSPORT_ID": 1000072,
                    "ACTIVITY_ID": 3,
                    "TRANSPORT_TYPE": 11,
                    "ADMINNAME": "韩龙",
                    "TRANSPORT_CONTENT": "[质检报告完成]完成:",
                    "FOLLOWUPTYPE": "质检流程",
                    "TRANSPORTER": "韩龙",
                    "TRANSPORTER_ID": 100025,
                    "LOGS_ID": 1000699
                },
                {
                    "TRANSPORT_DATE": 1405933374000,
                    "TRANSPORT_ID": 1000072,
                    "ACTIVITY_ID": 2,
                    "TRANSPORT_TYPE": 11,
                    "ADMINNAME": "系统管理员",
                    "TRANSPORT_CONTENT": "创建转运单1000072[需要质检]",
                    "FOLLOWUPTYPE": "质检流程",
                    "TRANSPORTER": "系统管理员",
                    "TRANSPORTER_ID": 100198,
                    "LOGS_ID": 1000523
                },
                {
                    "TRANSPORT_DATE": 1405933374000,
                    "TRANSPORT_ID": 1000072,
                    "ACTIVITY_ID": 2,
                    "TRANSPORT_TYPE": 5,
                    "ADMINNAME": "系统管理员",
                    "TRANSPORT_CONTENT": "创建转运单1000072[需要运费]",
                    "FOLLOWUPTYPE": "运费流程",
                    "TRANSPORTER": "系统管理员",
                    "TRANSPORTER_ID": 100198,
                    "LOGS_ID": 1000522
                }
            ],
            "DELIVER_CITY": "广州",
            "TARGET_PS_TYPE": 1,
            "SEND_PSID": 100000,
            "SEND_CITY": "BeiJing",
            "DELIVER_CCID": 11004,
            "DELIVER_PRO_ID": 1004,
            "TRANSPORT_VOLUME": 0,
            "DECLARATION": 1,
            "FROM_PS_TYPE": 1,
            "CARRIERS": "liuyi货运",
            "QUALITY_INSPECTION_OVER": 46,
            "CERTIFICATE": 1,
            "PRODUCT_FILE": 2,
            "CREATE_ACCOUNT": "系统管理员",
            "SEND_PSNAME": "BJ",
            "TRANSPORT_STATUS_NAME": "备货中",
            "DELIVER_HOUSE_NUMBER": "五号仓库",
            "FLOWS": [
                {
                    "TYPE": 4,
                    "EMPLOYE_NAMES": "系统管理员 "
                },
                {
                    "SUM_FILE": 1,
                    "TYPE": 11,
                    "EMPLOYE_NAMES": "系统管理员 "
                }
            ],
            "TRANSPORT_LINKMAN": "陈明平/何中华",
            "TRANSPORT_DATE": 1405933373000,
            "QUALITY_INSPECTION": 3,
            "TAG_RESPONSIBLE": 0,
            "ADDRESS_STATE_SEND": "",
            "RECEIVE_PSID": 100006,
            "DRAWBACK": 1,
            "TRANSPORT_LINKMAN_PHONE": "+86 18102709270",
            "ADDRESS_STATE_DELIVER": "",
            "TRANSPORT_WEIGHT": 0,
            "UPDATEDATE": 1409906570000,
            "TRANSPORT_ID": 1000072,
            "SEND_NAME": "HuiMin Duan",
            "SEND_ZIP_CODE": "100107",
            "SEND_LINKMAN_PHONE": "+86 10 84827066",
            "TRANSPORTBY": 3,
            "SEND_CCID": 11004,
            "TRANSPORT_WAYBILL_NUMBER": "",
            "PUT_STATUS": 1,
            "STOCK_IN_SET": 2,
            "TITLE_NAME": "TCL",
            "RECEIVE_PSNAME": "GZ",
            "TRANSPORT_STATUS": 1,
            "TAG": 2,
            "TRANSPORT_SEND_PLACE": "北京",
            "DELIVER_STREET": "番禺区南村镇员岗村顺意坊大道东路",
            "CREATE_ACCOUNT_ID": 100198,
            "TRANSPORT_RECEIVE_PLACE": "南京",
            "FR_ID": 33,
            "TITLE_ID": 20,
            "TRANSPORT_ADDRESS": "",
            "PKCOUNT": 1,
            "CLEARANCE": 1,
            "UPDATENAME": "韩龙",
            "SEND_HOUSE_NUMBER": "Room 804 Building C7Media Village",
            "SEND_PRO_ID": 1000,
            "PURCHASE_ID": 0,
            "TRANSPORT_WAYBILL_NAME": "liuyi货运"
        }
    ]
}