{
    "AUTHS": {
        "BUTTON_DOWNLOAD": true,
        "BUTTON_PRINT": true,
        "BUTTON_UPDATEALLPRODURES": true,
        "BUTTON_RESTORAGE": true,
        "BUTTON_SHOWDIFFERENT": true
    },
    "DATA": {
        "TAG_THIRD": 2,
        "UPDATEBY": 100198,
        "REMARK": "",
        "CONTAINER_COUNT": 1,
        "SEND_STREET": "Green Homeland,Chao Yang District",
        "DELIVER_ZIP_CODE": "511442",
        "LOGS": [
            {
                "TRANSPORT_DATE": 1413192645000,
                "TRANSPORT_ID": 1000090,
                "ACTIVITY_ID": 0,
                "TRANSPORT_TYPE": 16,
                "ADMINNAME": "系统管理员",
                "TRANSPORT_CONTENT": "系统管理员:装货任务",
                "FOLLOWUPTYPE": "装货司机签到",
                "TRANSPORTER": "系统管理员",
                "TRANSPORTER_ID": 100198,
                "LOGS_ID": 1000737
            },
            {
                "TRANSPORT_DATE": 1410939661000,
                "TRANSPORT_ID": 1000090,
                "ACTIVITY_ID": 5,
                "TRANSPORT_TYPE": 4,
                "ADMINNAME": "系统管理员",
                "TRANSPORT_CONTENT": "转运单:1000090起运",
                "FOLLOWUPTYPE": "货物状态",
                "TRANSPORTER": "系统管理员",
                "TRANSPORTER_ID": 100198,
                "LOGS_ID": 1000736
            },
            {
                "TRANSPORT_DATE": 1410939661000,
                "TRANSPORT_ID": 1000090,
                "ACTIVITY_ID": 2,
                "TRANSPORT_TYPE": 4,
                "ADMINNAME": "系统管理员",
                "TRANSPORT_CONTENT": "启运:启运完成",
                "FOLLOWUPTYPE": "货物状态",
                "TRANSPORTER": "系统管理员",
                "TRANSPORTER_ID": 100198,
                "LOGS_ID": 1000735
            }
        ],
        "DELIVER_CITY": "广州",
        "TARGET_PS_TYPE": 0,
        "SEND_REGISTRATION": 100198,
        "SEND_REGISTRATION_TIME": 1413192645000,
        "SEND_PSID": 100000,
        "SEND_CITY": "BeiJing",
        "DELIVER_CCID": 11004,
        "TRANSPORT_SENDPRICE_UNIT": "RMB",
        "DELIVER_PRO_ID": 1004,
        "TRANSPORT_VOLUME": 1721050,
        "DECLARATION": 2,
        "FROM_PS_TYPE": 1,
        "CARRIERS": "FEDEX",
        "PRODUCT_FILE": 2,
        "CERTIFICATE": 2,
        "CREATE_ACCOUNT": "系统管理员",
        "SEND_PSNAME": "BJ",
        "TAG_THIRD_RESPONSIBLE": 1,
        "STOCK_IN_SET_RESPONSIBLE": 2,
        "OPERATION_TYPE": 1,
        "DELIVER_HOUSE_NUMBER": "五号仓库",
        "TRANSPORT_RECEIVE_DATE": 1410192000000,
        "FLOWS": [
            {
                "TYPENAME": "货物状态",
                "STATUS": "2",
                "TYPE": 4,
                "EMPLOYE_NAMES": "系统管理员 "
            },
            {
                "TYPENAME": "质检流程",
                "STATUS": "2",
                "TYPE": 11
            }
        ],
        "DECLARATION_RESPONSIBLE": 2,
        "TRANSPORT_LINKMAN": "陈明平/何中华",
        "TRANSPORT_DATE": 1410245941000,
        "TRANSPORT_VOLUME_UNIT": "cm³",
        "QUALITY_INSPECTION": 2,
        "TRANSPORT_SUM_PRICE": 0,
        "TAG_RESPONSIBLE": 1,
        "ADDRESS_STATE_SEND": "",
        "RECEIVE_PSID": 100006,
        "DRAWBACK": 1,
        "TRANSPORT_LINKMAN_PHONE": "+86 18102709270",
        "ADDRESS_STATE_DELIVER": "",
        "TRANSPORT_WEIGHT_UNIT": "Kg",
        "TRANSPORT_WEIGHT": 279.2,
        "CLEARANCE_RESPONSIBLE": 2,
        "CERTIFICATE_RESPONSIBLE": 2,
        "UPDATEDATE": 1413192645000,
        "TRANSPORT_ID": 1000090,
        "DETAILS": [
            {
                "TRANSPORT_WEIGHT": 27.92,
                "P_NAME": "00010000144/TXCH12M-A0",
                "UNIT_NAME": "",
                "PRODUCT_TAG_FILE_MAP": {},
                "CREATE_TIME": 1407897103000,
                "TRANSPORT_ID": 1000090,
                "TRANSPORT_NORMAL_COUNT": 0,
                "FREIGHT_CLASS": 100,
                "CONTAINERS": [
                    {
                        "PICK_UP_QUANTITY": 1,
                        "PICK_CONTAINER_TYPE": 2,
                        "CODE": "00010000144/TXCH12M-A0(6X1X2)/CTN8X11X16"
                    }
                ],
                "PCODE_ID": 717,
                "TRANSPORT_REAP_COUNT": 0,
                "TRANSPORT_DELIVERY_COUNT": 10,
                "TRANSPORT_PRODUCT_SERIAL_NUMBER": "www",
                "PRODUCT_FILE_MAP": {},
                "TRANSPORT_P_NAME": "00010000144/TXCH12M-A0",
                "CATALOG_ID": 545,
                "CONTAINER_QUANTITY": 1,
                "ORIGNAL_PC_ID": 0,
                "UNION_FLAG": 0,
                "PC_ID": 1093053,
                "WEIGHT": 27.92,
                "NMFC_CODE": "63321-8",
                "CODE_TYPE": 1,
                "TRANSPORT_DETAIL_ID": 1000206,
                "TRANSPORT_VOLUME": 172105,
                "TRANSPORT_BACKUP_COUNT": 0,
                "TRANSPORT_PC_ID": 1093053,
                "HEIGTH": 836,
                "LENGTH": 148,
                "P_CODE": "1093053",
                "SN_SIZE": 0,
                "UNIT_PRICE": 0,
                "ALIVE": 1,
                "CREATE_ADID": 100198,
                "TRANSPORT_SEND_COUNT": 0,
                "CLP_TYPE_ID": 0,
                "VOLUME": 172105,
                "BLP_TYPE_ID": 9,
                "FREIGHT_COST": 0,
                "WIDTH": 1391,
                "TRANSPORT_COUNT": 10,
                "TRANSPORT_UNION_COUNT": 0,
                "B2B_DETAIL_ID": 26,
                "TRANSPORT_P_CODE": "1093053",
                "TRANSPORT_SEND_PRICE": 0,
                "LOT_NUMBER": ""
            }
        ],
        "APPLYMONEYS": [],
        "SEND_NAME": "HuiMin Duan",
        "SEND_ZIP_CODE": "100107",
        "SEND_LINKMAN_PHONE": "+86 10 84827066",
        "TRANSPORTBY": 4,
        "SEND_CCID": 11004,
        "TRANSPORT_WAYBILL_NUMBER": "",
        "PUT_STATUS": 1,
        "STOCK_IN_SET": 2,
        "TRANSPORT_SENDPRICE": 0,
        "TITLE_NAME": "EBAY",
        "TRANSPORT_SUM_PRICE_UNIT": "RMB",
        "RECEIVE_PSNAME": "GZ",
        "TRANSPORT_STATUS": 2,
        "TAG": 2,
        "TRANSPORT_SEND_PLACE": "CHINA CITY",
        "DELIVER_STREET": "番禺区南村镇员岗村顺意坊大道东路",
        "QUALITY_INSPECTION_RESPONSIBLE": 1,
        "CREATE_ACCOUNT_ID": 100198,
        "TRANSPORT_RECEIVE_PLACE": "VVME-PA",
        "FR_ID": 31,
        "TITLE_ID": 18,
        "TRANSPORT_ADDRESS": "",
        "PRODUCT_FILE_RESPONSIBLE": 1,
        "PKCOUNT": 1,
        "CLEARANCE": 2,
        "UPDATENAME": "系统管理员",
        "SEND_HOUSE_NUMBER": "Room 804 Building C7Media Village",
        "SEND_PRO_ID": 1000,
        "PURCHASE_ID": 0,
        "TRANSPORT_WAYBILL_NAME": "FEDEX"
    }
}