{
	"PAGECTRL": {
        "pageSize": 1,
        "pageNo": 1,
        "allCount": 3,
        "pageCount": 3,
        "rowCount": 2,
        "next": false,
        "last": false,
        "first": false,
        "fornt": false
    },
    "DATA": 
        [
            {
            	"trId":123,
            	"route": {
            		"ROUTE_PS_NAME":"潍坊分拨中心",
            		"ID":"123",
	            	"CURRENT_PS_NAME":"萧山",
	            	"INVENTORY":{
	            		"UNIT":1,
	            		"IDCOUNT":4,
	            		"WEIGHT":10030.0
	            	},
	            	"ROUTETYPE":"永久",
					"WAYBILLCOUNT":3,
	            	"DESTINATION":[
	            		{
	            		"PERMIT_PS_NAME":"呼和浩特分拨中心"
	            		},
	            		{
	            		"PERMIT_PS_NAME":"天津分拨中心"
	            		},
	            		{
	            		"PERMIT_PS_NAME":"北京分拨中心"
	            		},
	            		{
	            		"PERMIT_PS_NAME":"石家庄分拨中心"
	            		}
	            		,{
	            		"PERMIT_PS_NAME":"南京分拨中心"
	            		}
	            		,{
	            		"PERMIT_PS_NAME":"太原分拨中心"
	            		}
	            	]
	            	
	        	},
	        	"route_lines": [{
	                "LINE_NAME":"萧山-南京-重庆",
	        		"CAR_TYPE":"17.5",
	        		"STARTING_PS_NAME":"萧山",
	        		"END_PS_NAME":"重庆",
	        		"STARTING_TIME":"7:00",
	        		"ARRIVE_TIME":"13:30",
	        		"LINE_USE_CYCLE":"周一到周六",
	        		"LINE_TYPE":"永久",
	        		"WARNINGMSG":"不好意思今天没车!"
	        		},
	        		{
	                "LINE_NAME":"萧山-南京-郑州",
	        		"CAR_TYPE":"17.5",
	        		"STARTING_PS_NAME":"萧山",
	        		"END_PS_NAME":"郑州",
	        		"STARTING_TIME":"7:00",
	        		"ARRIVE_TIME":"00:30",
	        		"LINE_USE_CYCLE":"周日",
	        		"LINE_TYPE":"临时",
	        		"WARNINGMSG":""
	        		}
	            ],
	            "logs": [{
	                "NAME":"Fei Han",
	                "OPREAT":"add",
	        		"DATE":"05/18/2015 11:02"
	            	},{
	                "NAME":"Fei Han",
	                "OPREAT":"add",
	        		"DATE":"05/18/2015 11:02"
	            	}	
	            ]
	            
        	},
        	{
        		"trId":124,
            	"route": {
            		"ROUTE_PS_NAME":"上海分拨中心",
            		"ID":"124",
	            	"CURRENT_PS_NAME":"萧山",
	            	"INVENTORY":{
	            		"UNIT":1,
	            		"IDCOUNT":4,
	            		"WEIGHT":10030.0
	            	},
	            	"ROUTETYPE":"永久",
					"WAYBILLCOUNT":3,
	            	"DESTINATION":[
	            		{
	            		"PERMIT_PS_NAME":"天津分拨中心"
	            		},
	            		{
	            		"PERMIT_PS_NAME":"北京分拨中心"
	            		},
	            		{
	            		"PERMIT_PS_NAME":"石家庄分拨中心"
	            		}
	            		,{
	            		"PERMIT_PS_NAME":"南京分拨中心"
	            		}
	            		,{
	            		"PERMIT_PS_NAME":"太原分拨中心"
	            		}
	            	]
	            	
	        	},
	        	"route_lines": [{
	                "LINE_NAME":"萧山-太原-天津",
	        		"CAR_TYPE":"17.5",
	        		"STARTING_PS_NAME":"萧山",
	        		"END_PS_NAME":"天津",
	        		"STARTING_TIME":"7:00",
	        		"ARRIVE_TIME":"13:30",
	        		"LINE_USE_CYCLE":"周一到周六",
	        		"LINE_TYPE":"永久",
	        		"WARNINGMSG":"不好意思今天没车!"
	        		}
	            ],
	            "logs": [{
	                "NAME":"Fei Han",
	                "OPREAT":"add",
	        		"DATE":"05/18/2015 11:02"
	            	}	
	            ]
	            
        	},
        	{
        		"trId":125,
            	"route": {
            		"ROUTE_PS_NAME":"武汉分拨中心",
            		"ID":"125",
	            	"CURRENT_PS_NAME":"萧山",
	            	"INVENTORY":{
	            		"UNIT":1,
	            		"IDCOUNT":4,
	            		"WEIGHT":10030.0
	            	},
	            	"ROUTETYPE":"永久",
					"WAYBILLCOUNT":3,
	            	"DESTINATION":[
	            		{
	            		"PERMIT_PS_NAME":"呼和浩特分拨中心"
	            		},
	            		{
	            		"PERMIT_PS_NAME":"呼和浩特分拨中心"
	            		},
	            		{
	            		"PERMIT_PS_NAME":"呼和浩特分拨中心"
	            		},
	            		{
	            		"PERMIT_PS_NAME":"呼和浩特分拨中心"
	            		},
	            		{
	            		"PERMIT_PS_NAME":"天津分拨中心"
	            		},
	            		{
	            		"PERMIT_PS_NAME":"太原分拨中心"
	            		}
	            	]
	            	
	        	},
	        	"route_lines": [{
	                "LINE_NAME":"萧山-上海",
	        		"CAR_TYPE":"17.5",
	        		"STARTING_PS_NAME":"萧山",
	        		"END_PS_NAME":"上海",
	        		"STARTING_TIME":"7:00",
	        		"ARRIVE_TIME":"13:30",
	        		"LINE_USE_CYCLE":"周六日",
	        		"LINE_TYPE":"临时",
	        		"WARNINGMSG":""
	        		},
	        		{
	                "LINE_NAME":"萧山-南京-上海",
	        		"CAR_TYPE":"17.5",
	        		"STARTING_PS_NAME":"萧山",
	        		"END_PS_NAME":"上海",
	        		"STARTING_TIME":"7:00",
	        		"ARRIVE_TIME":"00:30",
	        		"LINE_USE_CYCLE":"周三",
	        		"LINE_TYPE":"永久",
	        		"WARNINGMSG":"不好意思今天没车!"
	        		}
	            ],
	            "logs": [{
	                "NAME":"Fei Han",
	                "OPREAT":"add",
	        		"DATE":"05/18/2015 11:02"
	            	},{
	                "NAME":"Fei Han",
	                "OPREAT":"add",
	        		"DATE":"05/18/2015 11:02"
	            	}	
	            ]
	            
        	}
        
        ]
}