{
"PAGECTRL":
	{
		"pageSize":1,
		"pageNo":1,
		"allCount":43,
		"pageCount":43,
		"rowCount":1,
		"next":true,
		"fornt":false,
		"first":false,
		"last":true
	},
"DATA":[
	{
		"logs":[{
	                "NAME":"Fei Han",
	                "OPREAT":"add",
	        		"DATE":"05/18/2015 11:02"
	            	},{
	                "NAME":"Fei Han",
	                "OPREAT":"add",
	        		"DATE":"05/18/2015 11:02"
	            	},{
	                "NAME":"Fei Han",
	                "OPREAT":"add",
	        		"DATE":"05/18/2015 11:02"
	            	}],
		"route":{
			"INVENTORY":{
	            		"UNIT":1,
	            		"IDCOUNT":4,
	            		"WEIGHT":10030.0
	        },
			"CURRENT_PS_NAME":"萧山分拨中心",
			"ROUTE_PS_ID":100000,
			"DESTINATION":[
				{
					"PERMIT_PS_ID":100000,
					"PERMIT_PS_NAME":"潍坊分拨中心",
					"STATUS":1
				},
				{
					"PERMIT_PS_ID":100000,
					"PERMIT_PS_NAME":"莱阳分拨中心",
					"STATUS":0
				},
				{
					"PERMIT_PS_ID":100000,
					"PERMIT_PS_NAME":"烟台分拨中心",
					"STATUS":1
				}
			],
			"ID":6,
			"WAYBILLCOUNT":0,
			"ROUTE_TYPE":1,
			"ROUTE_PS_NAME":"潍坊分拨中心",
			"STATUS":1,
			"CURRENT_PS_ID":102091377
		},
		"route_lines":[
			],
			"trId":6
	},{
		"logs":[{
	                "NAME":"Fei Han",
	                "OPREAT":"add",
	        		"DATE":"05/18/2015 11:02"
	            	},{
	                "NAME":"Fei Han",
	                "OPREAT":"add",
	        		"DATE":"05/18/2015 11:02"
	            	},{
	                "NAME":"Fei Han",
	                "OPREAT":"add",
	        		"DATE":"05/18/2015 11:02"
	            	}],
		"route":{
			"INVENTORY":{
	            		"UNIT":1,
	            		"IDCOUNT":4,
	            		"WEIGHT":10030.0
	        },
			"CURRENT_PS_NAME":"萧山分拨中心",
			"ROUTE_PS_ID":100000,
			"DESTINATION":[
				{
					"PERMIT_PS_ID":100000,
					"PERMIT_PS_NAME":"潍坊分拨中心",
					"STATUS":1
				},
				{
					"PERMIT_PS_ID":100000,
					"PERMIT_PS_NAME":"莱阳分拨中心",
					"STATUS":0
				},
				{
					"PERMIT_PS_ID":100000,
					"PERMIT_PS_NAME":"烟台分拨中心",
					"STATUS":1
				}
			],
			"ID":7,
			"WAYBILLCOUNT":0,
			"ROUTE_TYPE":1,
			"ROUTE_PS_NAME":"潍坊分拨中心",
			"STATUS":1,
			"CURRENT_PS_ID":102091377
		},
		"route_lines":[
			{
				"STARTING_TIME":"1:00",
				"STARTING_PS_ID":102091375,
				"STARTING_PS_NAME":"金华分拨中心",
				"FIRST_SECTION_TIMING":"2:10",
				"SECOND_SECTION_KILOMETERS":977,
				"STATUS":true,
				"END_PS_ID":"123213123",
				"END_PS_NAME":"潍坊分拨中心",
				"MUST_ARRIVE_TIME":"3:10",
				"CAR_TYPE":"17.5",
				"SECOND_SECTION_TIMING":"15:00",
				"TRANSIT_TIME":"3:20",
				"STOP":102091377,
				"STOP_NAME":"萧山",
				"ID":109,
				"SHIFT_TYPE":1,
				"LINE_TYPE":1,
				"MUST_LEAVE_TIME":"6:30",
				"FIRST_SECTION_KILOMETERS":139,
				"ARRIVE_TIME":"21:30",
				"LINE_NAME":"金华-萧山-潍坊",
				"WARNINGMSG":"noCar",
				"CYCLE_MONDAY":true,
				"CYCLE_TUESDAY":true,
				"CYCLE_WEDNESDAY":true,
				"CYCLE_THURSDAY":true,
				"CYCLE_FRIDAY":true,
				"CYCLE_SATURDAY":false,
				"CYCLE_SUNDAY":false

				
			},{
				"STARTING_TIME":"1:00",
				"STARTING_PS_ID":102091375,
				"STARTING_PS_NAME":"金华分拨中心",
				"FIRST_SECTION_TIMING":"2:10",
				"SECOND_SECTION_KILOMETERS":977,
				"STATUS":true,
				"END_PS_ID":"123213123",
				"END_PS_NAME":"潍坊分拨中心",
				"MUST_ARRIVE_TIME":"3:10",
				"CAR_TYPE":"17.5",
				"SECOND_SECTION_TIMING":"15:00",
				"TRANSIT_TIME":"3:20",
				"STOP":102091377,
				"STOP_NAME":"萧山",
				"ID":109,
				"SHIFT_TYPE":1,
				"LINE_TYPE":1,
				"MUST_LEAVE_TIME":"6:30",
				"FIRST_SECTION_KILOMETERS":139,
				"ARRIVE_TIME":"21:30",
				"LINE_NAME":"金华-萧山-潍坊",
				"WARNINGMSG":"noCar",
				"CYCLE_MONDAY":true,
				"CYCLE_TUESDAY":true,
				"CYCLE_WEDNESDAY":true,
				"CYCLE_THURSDAY":true,
				"CYCLE_FRIDAY":true,
				"CYCLE_SATURDAY":false,
				"CYCLE_SUNDAY":false

				
			},{
				"STARTING_TIME":"1:00",
				"STARTING_PS_ID":102091375,
				"STARTING_PS_NAME":"金华分拨中心",
				"FIRST_SECTION_TIMING":"2:10",
				"SECOND_SECTION_KILOMETERS":977,
				"STATUS":true,
				"END_PS_ID":"123213123",
				"END_PS_NAME":"潍坊分拨中心",
				"MUST_ARRIVE_TIME":"3:10",
				"CAR_TYPE":"17.5",
				"SECOND_SECTION_TIMING":"15:00",
				"TRANSIT_TIME":"3:20",
				"STOP":102091377,
				"STOP_NAME":"萧山",
				"ID":109,
				"SHIFT_TYPE":1,
				"LINE_TYPE":1,
				"MUST_LEAVE_TIME":"6:30",
				"FIRST_SECTION_KILOMETERS":139,
				"ARRIVE_TIME":"21:30",
				"LINE_NAME":"金华-萧山-潍坊",
				"WARNINGMSG":"noCar",
				"CYCLE_MONDAY":true,
				"CYCLE_TUESDAY":true,
				"CYCLE_WEDNESDAY":true,
				"CYCLE_THURSDAY":true,
				"CYCLE_FRIDAY":true,
				"CYCLE_SATURDAY":false,
				"CYCLE_SUNDAY":false

				
			},{
				"STARTING_TIME":"1:00",
				"STARTING_PS_ID":102091375,
				"STARTING_PS_NAME":"金华分拨中心",
				"FIRST_SECTION_TIMING":"2:10",
				"SECOND_SECTION_KILOMETERS":977,
				"STATUS":true,
				"END_PS_ID":"123213123",
				"END_PS_NAME":"潍坊分拨中心",
				"MUST_ARRIVE_TIME":"3:10",
				"CAR_TYPE":"17.5",
				"SECOND_SECTION_TIMING":"15:00",
				"TRANSIT_TIME":"3:20",
				"STOP":102091377,
				"STOP_NAME":"萧山",
				"ID":109,
				"SHIFT_TYPE":1,
				"LINE_TYPE":1,
				"MUST_LEAVE_TIME":"6:30",
				"FIRST_SECTION_KILOMETERS":139,
				"ARRIVE_TIME":"21:30",
				"LINE_NAME":"金华-萧山-潍坊",
				"WARNINGMSG":"noCar",
				"CYCLE_MONDAY":true,
				"CYCLE_TUESDAY":true,
				"CYCLE_WEDNESDAY":true,
				"CYCLE_THURSDAY":true,
				"CYCLE_FRIDAY":true,
				"CYCLE_SATURDAY":false,
				"CYCLE_SUNDAY":false

				
			}],
			"trId":7
	},{
		"logs":[{
	                "NAME":"Fei Han",
	                "OPREAT":"add",
	        		"DATE":"05/18/2015 11:02"
	            	},{
	                "NAME":"Fei Han",
	                "OPREAT":"add",
	        		"DATE":"05/18/2015 11:02"
	            	}],
		"route":{
			"INVENTORY":{
	            		"UNIT":1,
	            		"IDCOUNT":4,
	            		"WEIGHT":10030.0
	        },
			"CURRENT_PS_NAME":"萧山分拨中心",
			"ROUTE_PS_ID":102091311,
			"DESTINATION":[
				{
					"PERMIT_PS_ID":102091311,
					"PERMIT_PS_NAME":"潍坊分拨中心"
				},
				{
					"PERMIT_PS_ID":102091317,
					"PERMIT_PS_NAME":"莱阳分拨中心"
				},
				{
					"PERMIT_PS_ID":102091397,
					"PERMIT_PS_NAME":"烟台分拨中心"
				}
			],
			"ID":8,
			"WAYBILLCOUNT":0,
			"ROUTE_TYPE":1,
			"ROUTE_PS_NAME":"潍坊分拨中心",
			"STATUS":1,
			"CURRENT_PS_ID":102091377
		},
		"route_lines":[
			{
				"STARTING_TIME":"1:00",
				"STARTING_PS_ID":102091375,
				"STARTING_PS_NAME":"金华分拨中心",
				"FIRST_SECTION_TIMING":"2:10",
				"SECOND_SECTION_KILOMETERS":977,
				"STATUS":true,
				"END_PS_ID":"123213123",
				"END_PS_NAME":"潍坊分拨中心",
				"MUST_ARRIVE_TIME":"3:10",
				"CAR_TYPE":"17.5",
				"SECOND_SECTION_TIMING":"15:00",
				"TRANSIT_TIME":"3:20",
				"STOP":102091377,
				"STOP_NAME":"萧山",
				"ID":109,
				"SHIFT_TYPE":3,
				"LINE_TYPE":1,
				"MUST_LEAVE_TIME":"6:30",
				"FIRST_SECTION_KILOMETERS":139,
				"ARRIVE_TIME":"21:30",
				"LINE_NAME":"金华-萧山-潍坊",
				"CYCLE_MONDAY":false,
				"CYCLE_TUESDAY":false,
				"CYCLE_WEDNESDAY":false,
				"CYCLE_THURSDAY":false,
				"CYCLE_FRIDAY":false,
				"CYCLE_SATURDAY":true,
				"CYCLE_SUNDAY":true
			}],
			"trId":8
	}
	]
}