[{
	"children": [{
		"ico": "",
		"id": 71,
		"title": "我的任务",
		"url": "task/list.html"
	}, {
		"ico": "",
		"id": 128,
		"title": "任务安排",
		"url": "schedule_management/show_schedule.html"
	}, {
		"ico": "",
		"id": 129,
		"title": "基础配置",
		"url": "schedule_management/set_schedule.html"
	}],
	"ico": "fa-calendar",
	"id": 70,
	"title": "任务日程通知",
	"url": "#4"
}, {
	"children": [{
		"ico": "",
		"id": 142,
		"title": "eBay Listing",
		"url": "ebay/best_match_item.html"
	}, {
		"ico": "",
		"id": 130,
		"title": "产品需求分析",
		"url": "order_process/product_demand_analysis.html"
	}, {
		"ico": "",
		"id": 99,
		"title": "销售发货分析",
		"url": "product_sales/sales_delivery_analysis.html"
	}, {
		"ico": "",
		"id": 122,
		"title": "仓库备货分析",
		"url": "order/productDefault.html"
	}, {
		"ico": "",
		"id": 102,
		"title": "需求分布图",
		"url": "order_process/product_demand_maps.html"
	}, {
		"ico": "",
		"id": 107,
		"title": "发货分布图",
		"url": "product_sales/product_sales_maps.html"
	}, {
		"ico": "",
		"id": 101,
		"title": "查看需求数据",
		"url": "order_process/order_process.html"
	}, {
		"ico": "",
		"id": 133,
		"title": "查看发货数据",
		"url": "product_sales/product_sales.html"
	}, {
		"ico": "",
		"id": 109,
		"title": "计算分析数据",
		"url": "product_sales/product_quantity_count.html"
	}, {
		"ico": "",
		"id": 100,
		"title": "商品备货形式",
		"url": "order_process/storage_transpond.html"
	}],
	"ico": "fa-pie-chart",
	"id": 108,
	"title": "BI",
	"url": "#17"
}, {
	"children": [{
		"ico": "",
		"id": 3,
		"title": "B2C Order",
		"url": "order/ct_order_auto_reflush.html"
	}, {
		"ico": "",
		"id": 119,
		"title": "信用卡收款",
		"url": "order/executeVertualTerminal.html"
	}, {
		"ico": "",
		"id": 138,
		"title": "交易管理",
		"url": "order/trade_manager.html"
	}, {
		"ico": "",
		"id": 139,
		"title": "账单管理",
		"url": "order/bill_manager.html"
	}, {
		"ico": "",
		"id": 143,
		"title": "服务处理",
		"url": "order/return_list.html"
	}, {
		"ico": "",
		"id": 164,
		"title": "服务单列表",
		"url": "service_order/service_order_list.html"
	}],
	"ico": "fa-users",
	"id": 1,
	"title": "B2C",
	"url": "#1"
}, {
	"children": [{
		"ico": "",
		"id": 51,
		"title": "报价管理",
		"url": "order/quote.html"
	}, {
		"ico": "",
		"id": 12,
		"title": "客户列表",
		"url": "service/ct_clients.html"
	}, {
		"ico": "",
		"id": 13,
		"title": "客户服务统计",
		"url": "service/service_stat.html"
	}, {
		"ico": "",
		"id": 54,
		"title": "报价设置",
		"url": "order/wholesell_discount.html"
	}, {
		"ico": "",
		"id": 104,
		"title": "定价管理",
		"url": "product/ct_product_profit.html"
	}, {
		"ico": "",
		"id": 105,
		"title": "调价记录",
		"url": "product/retail_price_change.html"
	}, {
		"ico": "",
		"id": 121,
		"title": "生成报价单",
		"url": "order/quoted_price_table.html"
	}, {
		"ico": "",
		"id": 118,
		"title": "客户关系管理",
		"url": "crm/ct_clients.html"
	}],
	"ico": "fa-coffee",
	"id": 11,
	"title": "CRM & Quotation",
	"url": "#3"
}, {
	"children": [{
		"ico": "",
		"id": 6,
		"title": "存货与备货",
		"url": "product/ct_product_storage.html"
	}, {
		"ico": "",
		"id": 52,
		"title": "存货定位",
		"url": "product/storage_location.html"
	}, {
		"ico": "",
		"id": 53,
		"title": "库存差异审核",
		"url": "product/storage_approve.html"
	}, {
		"ico": "",
		"id": 39,
		"title": "库存日志",
		"url": "product/store_sys_logs.html"
	}, {
		"ico": "",
		"id": 77,
		"title": "商品条码打印",
		"url": "product/print_product_barcode.html"
	}, {
		"ico": "",
		"id": 178,
		"title": "配置更改",
		"url": "config_change/config_change_index.html"
	}, {
		"ico": "",
		"id": 147,
		"title": "批次管理",
		"url": "batch/listBatch.html"
	}, {
		"ico": "",
		"id": 159,
		"title": "库存历史记录",
		"url": "product/product_storage_history.html"
	}, {
		"ico": "",
		"id": 172,
		"title": "仓库区域差异审核",
		"url": "storage_approve/storage_approve_area.html"
	}, {
		"ico": "",
		"id": 158,
		"title": "疑问商品",
		"url": "doubt_goods/doubt_goods_index.html"
	}, {
		"ico": "",
		"id": 160,
		"title": "积压商品",
		"url": "product/backlog_goods.html"
	}, {
		"ico": "",
		"id": 161,
		"title": "商品出库率",
		"url": "product/sales_rate.html"
	}, {
		"ico": "",
		"id": 183,
		"title": "ProductChange",
		"url": "product_change/product_change.html"
	}],
	"ico": "fa-archive",
	"id": 5,
	"title": "Inventory Control",
	"url": "#2"
}, {
	"children": [{
		"ico": "",
		"id": 124,
		"title": "残损件处理",
		"url": "return_step/return_step_index.html"
	}, {
		"ico": "",
		"id": 69,
		"title": "退货处理",
		"url": "order/return_list.html?cmd='filter'&product_status=2"
	}, {
		"ico": "",
		"id": 152,
		"title": "残损返修处理",
		"url": "repair/repair_order_index.html"
	}, {
		"ico": "",
		"id": 153,
		"title": "返修到货审核",
		"url": "repair/repair_approve.html"
	}, {
		"ico": "",
		"id": 137,
		"title": "退货库存日志",
		"url": "product/return_store_sys_logs.html"
	}, {
		"ico": "",
		"id": 162,
		"title": "仓库退货单",
		"url": "return_product/return_product_list.html"
	}, {
		"ico": "",
		"id": 163,
		"title": "手工创建退货",
		"url": "return_product/return_product_list.html"
	}, {
		"ico": "",
		"id": 144,
		"title": "客服产品反馈",
		"url": "warranty/return_product_reason_index.html"
	}],
	"ico": "fa-wrench",
	"id": 123,
	"title": "Return & Repair",
	"url": "#18"
}, {
	"children": [{
		"ico": "",
		"id": 154,
		"title": "缺货商品",
		"url": "product/ct_product_lacking.html"
	}, {
		"ico": "",
		"id": 10,
		"title": "订单发货",
		"url": "product/ship_product.html"
	}, {
		"ico": "",
		"id": 165,
		"title": "运单创建出库单",
		"url": "waybill/waybill_search_new.html"
	}, {
		"ico": "",
		"id": 134,
		"title": "B2C Shipment",
		"url": "waybill/waybill_index.html"
	}, {
		"ico": "",
		"id": 136,
		"title": "出库单管理",
		"url": "waybill/outbound_list.html"
	}, {
		"ico": "",
		"id": 148,
		"title": "运单日志",
		"url": "waybill/waybill_log.html"
	}],
	"ico": "fa-exchange",
	"id": 155,
	"title": "B2C Process",
	"url": "#19"
}, {
	"children": [{
		"ico": "",
		"id": 63,
		"title": "采购单处理",
		"url": "purchase/purchase.html"
	}, {
		"ico": "",
		"id": 76,
		"title": "采购单审核",
		"url": "purchase/purchase_approve.html"
	}, {
		"ico": "",
		"id": 84,
		"title": "供应商维护",
		"url": "supplier/supplier.html"
	}, {
		"ico": "",
		"id": 85,
		"title": "交货单处理",
		"url": "delivery/administrator_delivery_order_index.html"
	}, {
		"ico": "",
		"id": 86,
		"title": "交货单审核",
		"url": "delivery/delivery_approve.html"
	}, {
		"ico": "",
		"id": 110,
		"title": "B2B Shipment",
		"url": "transport/transport_order_index.html"
	}, {
		"ico": "",
		"id": 111,
		"title": "转运到货审核",
		"url": "transport/transport_approve.html"
	}, {
		"ico": "",
		"id": 112,
		"title": "转运发货审核",
		"url": "transport/transport_outbound_approve.html"
	}, {
		"ico": "",
		"id": 141,
		"title": "货运资源",
		"url": "freight_resources/listFreightResourcesAction.html"
	}, {
		"ico": "",
		"id": 176,
		"title": "流程管理",
		"url": "admin/process_manager.html"
	}, {
		"ico": "",
		"id": 177,
		"title": "B2B Order",
		"url": "b2b_order/b2b_order_index.html"
	}, {
		"ico": "",
		"id": 184,
		"title": "B2B BI",
		"url": "b2b_order/b2b_order_demand_analyze_index.html"
	}],
	"ico": "fa-mail-reply-all",
	"id": 62,
	"title": "B2B Process",
	"url": "#13"
}, {
	"children": [{
		"ico": "",
		"id": 25,
		"title": "ManageProducts",
		"url": "product/ct_product.html"
	}, {
		"ico": "",
		"id": 175,
		"title": "Complates",
		"url": "product/product_management.html"
	}, {
		"ico": "",
		"id": 106,
		"title": "ProductLine",
		"url": "product_line/product_line.html"
	}, {
		"ico": "",
		"id": 26,
		"title": "ProductCategories",
		"url": "product/ct_product_catalog.html"
	}, {
		"ico": "",
		"id": 146,
		"title": "商品审核",
		"url": "product/import_product_approve.html"
	}, {
		"ico": "",
		"id": 78,
		"title": "商品标签模板",
		"url": "lable_template/lable_template.html"
	}, {
		"ico": "",
		"id": 103,
		"title": "国家分区管理",
		"url": "product/ct_country_area.html"
	}, {
		"ico": "",
		"id": 79,
		"title": "仓库区域位置",
		"url": "storage_location/storage_location_area.html"
	}, {
		"ico": "",
		"id": 120,
		"title": "汇率",
		"url": "admin/exchange_rate.html"
	}, {
		"ico": "",
		"id": 140,
		"title": "商品修改日志",
		"url": "product/product_logs.html"
	}, {
		"ico": "",
		"id": 166,
		"title": " ManageContainer",
		"url": "container/container_list.html"
	}, {
		"ico": "",
		"id": 167,
		"title": " BasicContainerType",
		"url": "container/container_type.html"
	}, {
		"ico": "",
		"id": 168,
		"title": "卸货门管理",
		"url": "storage_location/storage_door_list.html"
	}, {
		"ico": "",
		"id": 169,
		"title": "装卸位置管理",
		"url": "storage_location/load_unload_location_list.html"
	}, {
		"ico": "",
		"id": 170,
		"title": "卸货门占用信息",
		"url": "storage_location/storage_door_use_list.html"
	}, {
		"ico": "",
		"id": 171,
		"title": "卸货位置占用信息",
		"url": "storage_location/storage_load_unload_use_list.html"
	}],
	"ico": "fa-cog",
	"id": 28,
	"title": "Setup",
	"url": "#7"
}, {
	"children": [{
		"ico": "",
		"id": 37,
		"title": "快递价格",
		"url": "shipping/express.html"
	}, {
		"ico": "",
		"id": 15,
		"title": "商业发票",
		"url": "invoice/invoice_deliverer.html"
	}, {
		"ico": "",
		"id": 16,
		"title": "出口发件人信息",
		"url": "invoice/deliverer_info.html"
	}, {
		"ico": "",
		"id": 149,
		"title": "快递编码",
		"url": "track_status/track_list.html"
	}],
	"ico": "fa-truck",
	"id": 156,
	"title": "Shipping Rates",
	"url": "#20"
}, {
	"children": [{
		"ico": "",
		"id": 57,
		"title": "帮助中心文章",
		"url": "help_center/help_center_topic.html"
	}, {
		"ico": "",
		"id": 56,
		"title": "帮助中心分类",
		"url": "help_center/help_center_catalog.html"
	}, {
		"ico": "",
		"id": 73,
		"title": "产品信息问答",
		"url": "customerservice_qa/question_index.html"
	}, {
		"ico": "",
		"id": 74,
		"title": "最新产品问题",
		"url": "customerservice_qa/new_question.html"
	}, {
		"ico": "",
		"id": 157,
		"title": "问题分类",
		"url": "customerservice_qa/question_classify.html"
	}],
	"ico": "fa-mortar-board",
	"id": 55,
	"title": "Knowledge Base",
	"url": "#12"
}, {
	"children": [{
		"ico": "",
		"id": 18,
		"title": "修改密码",
		"url": "admin/mod_pwd.html"
	}],
	"ico": "fa-male",
	"id": 17,
	"title": "Personal Info\r\n",
	"url": "#5"
}, {
	"children": [{
		"ico": "",
		"id": 20,
		"title": "系统配置",
		"url": "admin/config.html"
	}, {
		"ico": "",
		"id": 21,
		"title": "帐号管理",
		"url": "admin/ct_admin.html"
	}, {
		"ico": "",
		"id": 22,
		"title": "角色管理",
		"url": "admin/ct_role.html"
	}, {
		"ico": "",
		"id": 23,
		"title": "邮件列表",
		"url": "admin/email_list.html"
	}, {
		"ico": "",
		"id": 27,
		"title": "系统日志",
		"url": "admin/sys_logs.html"
	}, {
		"ico": "",
		"id": 24,
		"title": "备份/恢复",
		"url": "admin/db.html"
	}, {
		"ico": "",
		"id": 75,
		"title": "工作流管理",
		"url": "admin/ct_workflow.html"
	}, {
		"ico": "",
		"id": 145,
		"title": "收款账号配置",
		"url": "payment_method_key/payment_method_key.html"
	}, {
		"ico": "",
		"id": 188,
		"title": "Printer Set",
		"url": "print/print_set_list.html"
	}],
	"ico": "fa-cubes",
	"id": 19,
	"title": "System Admin\r\n",
	"url": "#6"
}, {
	"children": [{
		"ico": "",
		"id": 81,
		"title": "资产清单",
		"url": "assets/assets_list.html"
	}, {
		"ico": "",
		"id": 135,
		"title": "样品清单",
		"url": "assets/sample_list.html"
	}, {
		"ico": "",
		"id": 82,
		"title": "资产类别",
		"url": "assets/assets_category.html"
	}, {
		"ico": "",
		"id": 83,
		"title": "办公地点",
		"url": "assets/office_location.html"
	}],
	"ico": "fa-database",
	"id": 80,
	"title": "Asset & Sample",
	"url": "#14"
}, {
	"children": [{
		"ico": "",
		"id": 93,
		"title": "我的采购单",
		"url": "supplier_login/purchase/supplier_purchase.html"
	}, {
		"ico": "",
		"id": 94,
		"title": "我的交货单",
		"url": "supplier_login/delivery/delivery_order_index.html"
	}, {
		"ico": "",
		"id": 95,
		"title": "修改登录密码",
		"url": "supplier_login/supplier/supplier_mod_pwd.html"
	}, {
		"ico": "",
		"id": 96,
		"title": "修改公司信息",
		"url": "supplier_login/supplier/supplier_mod_supplier.html"
	}],
	"ico": "fa-tablet",
	"id": 92,
	"title": "Vendor Apps",
	"url": "#16"
}, {
	"children": [{
		"ico": "",
		"id": 90,
		"title": "邮件应用场景分类",
		"url": "email/email_scene_list.html"
	}, {
		"ico": "",
		"id": 91,
		"title": "邮件模板维护",
		"url": "email/email_template_list.html"
	}, {
		"ico": "",
		"id": 150,
		"title": "短信列表",
		"url": "short_message/short_message_list.html"
	}],
	"ico": "fa-bell-o",
	"id": 89,
	"title": "Notifications\r\n",
	"url": "#15"
}, {
	"children": [{
		"ico": "",
		"id": 114,
		"title": "申请资金",
		"url": "financial_management/apply_funds.html"
	}, {
		"ico": "",
		"id": 115,
		"title": "转账申请",
		"url": "financial_management/funds_transfer_list.html"
	}, {
		"ico": "",
		"id": 116,
		"title": "资金申请类型",
		"url": "financial_management/apply_funds_category.html"
	}, {
		"ico": "",
		"id": 151,
		"title": "预申请",
		"url": "financial_management/apply_money_ready.html"
	}],
	"ico": "fa-calculator",
	"id": 113,
	"title": "Accounting\r\n",
	"url": "#15"
}, {
	"children": [{
		"ico": "",
		"id": 174,
		"title": "Manage Title",
		"url": "proprietary/proprietary_list.html"
	}],
	"ico": "fa-copyright",
	"id": 173,
	"title": "Title & Ownership",
	"url": "#21"
}, {
	"children": [{
		"ico": "",
		"id": 182,
		"title": "Check in",
		"url": "/Sync10-ui/pages/Examples/check_in/check_in_index.html"
	}, {
		"ico": "",
		"id": 185,
		"title": "RT Spot",
		"url": "check_in/check_in_rtspot.html"
	}, {
		"ico": "",
		"id": 186,
		"title": "RT Dock",
		"url": "check_in/check_in_rtdock.html"
	}, {
		"ico": "",
		"id": 187,
		"title": "Difference",
		"url": "check_in/check_in_diff_spot.html"
	}],
	"ico": "fa-sliders",
	"id": 181,
	"title": "Access Control",
	"url": "#23"
}, {
	"children": [{
		"ico": "",
		"id": 180,
		"title": "Map",
		"url": " gis/gis_main.html"
	}, {
		"ico": "",
		"id": 7,
		"title": "Warehouse Setup",
		"url": "product/ct_product_storage_catalog.html"
	}],
	"ico": "fa-location-arrow",
	"id": 179,
	"title": "GIS",
	"url": "#22"
}]