{"table":{
		"thead":["true","col1","col2","col3","col4"],
		"tbody":[
		{"id":"000A","td":["AAA","666","555","666"]},
		{"id":"000B","td":["BBB","666","555","666"]},
		{"id":"000C","td":["CCC","666","555","666"]},
		{"id":"000D","td":["DDD","666","555","666"]},
		{"id":"000E","td":["EEE","666","555","666"]},
		{"id":"000F","td":["FFF","666","555","666"]}
		]
}
}