[{
	"type" : "Title",
	"key" : "title",
	"mulit" : true,
	"url" : "node.json",
	"data" :[{
			"id" : "0001",
			"name" : "one"	
		},{
			"id" : "0002",
			"name" : "two"
		},{
			"id" : "0003",
			"name" : "node"
		},{
			"id" : "0004",
			"name" : "other"
		}]
},{
	"type" : "Size",
	"key" : "size",
	"data" : [{
		"id": "0001",
		"name" : "Big"
	},{
		"id" : "0002",
		"name" : "Smell"
	},{
		"id" : "0003",
		"name" : "Middle"
	}]
}]
