﻿[{"id" : "1000","pId" : "","name" : "AACTION FREIGHTWAYS INC","data":"11101","linkman": "王x1","tel": "0102222221"},
    { "id": "1001", "pId": "", "name": "BIO SPECIALTY", "data": "11101", "linkman": "王x1", "tel": "0102222221" },
    { "id": "1002", "pId": "", "name": "AAA DELIVERY SYSTEMS, INC", "data": "11101", "linkman": "王x1", "tel": "0102222221" },
    { "id": "1003", "pId": "", "name": "AAFAB, INC.", "data": "11101", "linkman": "王x1", "tel": "0102222221" },
    { "id": "1004", "pId": "", "name": "ASA MANAGEMENT CORPORATION", "data": "11101", "linkman": "王x1", "tel": "0102222221" },
    { "id": "1005", "pId": "", "name": "A&M CARTAGE OF TINLEY PARK, INC", "data": "11101", "linkman": "王x1", "tel": "0102222221" },
    { "id": "1006", "pId": "", "name": "AAA PACKING AND SHIPPING, INC", "data": "11101", "linkman": "王x1", "tel": "0102222221" },
    { "id": "1007", "pId": "", "name": "ANDERSON & SONS TRUCKING CO", "data": "11101", "linkman": "王x1", "tel": "0102222221" },
    { "id": "1008", "pId": "", "name": "ABLE CARTAGE, INC", "data": "11101", "linkman": "王x1", "tel": "0102222221" },
    { "id": "1009", "pId": "", "name": "ABF CARTAGE, INC", "data": "11101", "linkman": "王x1", "tel": "0102222221" },
    { "id": "1010", "pId": "", "name": "ABF FREIGHT SYSTEM CANADA, LTD", "data": "11101", "linkman": "王x1", "tel": "0102222221" },
    {"id" : "1011","pId" : "","name" : "A&B FREIGHT LINE, INC","data":"11101","linkman": "王x1","tel": "0102222221"}
]
