﻿[
    { "text": "全部单据", "value": "全部单据" },
    { "text": "Load", "value": "Load" },
    { "text": "Order", "value": "Order" },
    { "text": "PO", "value": "PO" },
    { "text": "BOL", "value": "BOL" }
]
