﻿[
    { "text": "12-04-2014[BJ-GZ]", "value": "GZ" },
    { "text": "12-04-2014[BJ-LA]", "value": "LA" },
    { "text": "12-04-2014[BJ-BS]", "value": "BS" },
    { "text": "12-04-2014[BJ-PA]", "value": "PA" },
    { "text": "12-04-2014[BJ-张睿客服仓库]", "value": "张睿客服仓库" },
    { "text": "12-04-2014[BJ-Valley]", "value": "Valley" },
    { "text": "12-04-2014[BJ-Dallas]", "value": "Dallas" },
    { "text": "12-04-2014[BJ-Walnut]", "value": "Walnut" },
    { "text": "12-04-2014[BJ-Stimson]", "value": "Stimson" },
    { "text": "12-04-2014[BJ-Via-Baron]", "value": "Via-Baron" },
    { "text": "12-04-2014[BJ-Blue Heron]", "value": "Blue Heron" },
    { "text": "12-04-2014[BJ-Bradshaw]", "value": "Bradshaw" },
    { "text": "12-04-2014[BJ-E Nelson]", "value": "E Nelson" },
    { "text": "12-04-2014[BJ-Enterprise]", "value": "Enterprise" },
    { "text": "12-04-2014[BJ-S Great SW]", "value": "S Great SW" },
    { "text": "12-04-2014[BJ-S Reyes]", "value": "S Reyes" },
    { "text": "12-04-2014[BJ-Walter Strawn]", "value": "Walter Strawn" },
    { "text": "12-04-2014[BJ-Turnbull]", "value": "Turnbull" }
]
