[
{"id" : "0","pId" : "","name" : "收货仓库"}, 
{"id" : "1","pId" : "","name" : "自有仓库"}, 
{"id" : "100000","pId" : "1","name" : "BJ"}, 
{"id" : "100006","pId" : "1","name" : "GZ"}, 
{"id" : "100043","pId" : "1","name" : "LA"}, 
{"id" : "100197","pId" : "1","name" : "BS"}, 
{"id" : "100203","pId" : "1","name" : "PA"}, 
{"id" : "1000002","pId" : "1","name" : "张睿客服仓库"}, 
{"id" : "2","pId" : "","name" : "转运仓库"}, 
{"id" : "100199","pId" : "2","name" : "海运中转库"}, 
{"id" : "3","pId" : "","name" : "供应商仓库"}, 
{"id" : "100205","pId" : "3","name" : "供应商测试用"}, 
{"id" : "4","pId" : "","name" : "第三方仓库"}, 
{"id" : "100200","pId" : "4","name" : "Amazon"}, 
{"id" : "100201","pId" : "4","name" : "Amazon UK"}, 
{"id" : "100202","pId" : "4","name" : "CHUKOU1 UK"}, 
{"id" : "5","pId" : "","name" : "客户仓库"}, 
{"id" : "65","pId" : "5","name" : "AMAZON.COM"}, 
{"id" : "1189716","name" : "AMAZON.COM_DED,_LLC-BFI1","pId" : "65"}, 
{"id" : "1189755","name" : "AMAZON_(PHX3)","pId" : "65"}, 
{"id" : "1189756","name" : "AMAZON_-BREINIGSVILLE","pId" : "65"}, 
{"id" : "1189757","name" : "AMAZON_-PHOENIX","pId" : "65"}, 
{"id" : "1189758","name" : "AMAZON.COM","pId" : "65"}, 
{"id" : "1189759","name" : "AMAZON.COM_DEDC_LLC-PHL6","pId" : "65"}, 
{"id" : "1189760","name" : "AMAZON.COM_DEDC,_LLC-CAE1","pId" : "65"}, 
{"id" : "1189761","name" : "AMAZON.COM_DEDC,_LLC-CHA2","pId" : "65"}, 
{"id" : "1189762","name" : "AMAZON.COM_-READING","pId" : "65"}, 
{"id" : "1189763","name" : "AMAZON.COM,DEDC_LLC-PHL7","pId" : "65"}, 
{"id" : "1189764","name" : "AMAZON.COM-LEBANON","pId" : "65"}, 
{"id" : "1189765","name" : "AMAZON.COM.AZDC,_INC-PHX3","pId" : "65"}, 
{"id" : "1189766","name" : "AMAZON.COM.AZDC,_INC-PHX5","pId" : "65"}, 
{"id" : "1189767","name" : "AMAZON.COM.AZDC,_LLC-PHX7","pId" : "65"}, 
{"id" : "1189768","name" : "AMAZON.COM-GOODYEAR","pId" : "65"}, 
{"id" : "1189769","name" : "AMAZON.COM.DEDC_LLC_-GSP1","pId" : "65"}, 
{"id" : "1189770","name" : "AMAZON.COM.DEDC_LLC-BNA2","pId" : "65"}, 
{"id" : "1189771","name" : "AMAZON.COM.DEDC_LLC-BNA3","pId" : "65"}, 
{"id" : "1189772","name" : "AMAZON.COM-PLAINFIELD","pId" : "65"}, 
{"id" : "1189773","name" : "AMAZON.COM.INDC,_LLC-IND1","pId" : "65"}, 
{"id" : "1189774","name" : "AMAZON.COM.INDC,_LLC-IND2","pId" : "65"}, 
{"id" : "1189775","name" : "AMAZON.COM.KYDC_LLC-DFW6","pId" : "65"}, 
{"id" : "1189776","name" : "AMAZON.COM.KYDC_LLC-RIC1","pId" : "65"}, 
{"id" : "1189777","name" : "AMAZON.COM.KYDC_LLC-RIC2","pId" : "65"}, 
{"id" : "1189778","name" : "AMAZON.COM.KYDC_LLC-SAT1","pId" : "65"}, 
{"id" : "1189779","name" : "AMAZON.COM-DFW7","pId" : "65"}, 
{"id" : "1189780","name" : "AMAZON.COM-PA","pId" : "65"}, 
{"id" : "1189781","name" : "AMAZON.COM-PHL4","pId" : "65"}, 
{"id" : "1189782","name" : "AMAZON.COM-SDF1","pId" : "65"}, 
{"id" : "1189783","name" : "AMAZON.COM-TUL1","pId" : "65"}, 
{"id" : "1189784","name" : "AMAZON-CHATTAN","pId" : "65"}, 
{"id" : "1189785","name" : "AMZON-LA_MIRADA","pId" : "65"}, 
{"id" : "1189786","name" : "AMZON_-FERNLEY","pId" : "65"}, 
{"id" : "1189787","name" : "AMZON.COM.KYDC,_INC-_LEX1","pId" : "65"}, 
{"id" : "1189788","name" : "CONCERT_GROUP_LOGISTICS","pId" : "65"}, 
{"id" : "1189789","name" : "GOLDEN_STA-OAK3","pId" : "65"}, 
{"id" : "1189790","name" : "GOLDEN_STA-OAK4","pId" : "65"}, 
{"id" : "1189791","name" : "GOLDEN_STATE_FC_LLC-ONT2","pId" : "65"}, 
{"id" : "66","pId" : "5","name" : "BESTBUY"}, 
{"id" : "67","pId" : "5","name" : "CENTRAL"}, 
{"id" : "68","pId" : "5","name" : "TARGET"}, 
{"id" : "69","pId" : "5","name" : "WAL-MART"}, 
{"id" : "70","pId" : "5","name" : "A&D"}, 
{"id" : "71","pId" : "5","name" : "AARON"}, 
{"id" : "72","pId" : "5","name" : "ABC"}, 
{"id" : "73","pId" : "5","name" : "ALMO"}, 
{"id" : "74","pId" : "5","name" : "ALMODIST"}, 
{"id" : "75","pId" : "5","name" : "AUTSER0001"}, 
{"id" : "76","pId" : "5","name" : "AVC"}, 
{"id" : "77","pId" : "5","name" : "BEST_BUY/GEEK"}, 
{"id" : "78","pId" : "5","name" : "BESTBUY.COM"}, 
{"id" : "79","pId" : "5","name" : "BJ"}, 
{"id" : "80","pId" : "5","name" : "CALBAC0001"}, 
{"id" : "81","pId" : "5","name" : "CAPALLC2"}, 
{"id" : "82","pId" : "5","name" : "CEVAEL"}, 
{"id" : "83","pId" : "5","name" : "COSTCO"}, 
{"id" : "84","pId" : "5","name" : "COSTCO.COM"}, 
{"id" : "85","pId" : "5","name" : "CUDLACCE1"}, 
{"id" : "86","pId" : "5","name" : "D&H"}, 
{"id" : "87","pId" : "5","name" : "ESI"}, 
{"id" : "88","pId" : "5","name" : "FRYS"}, 
{"id" : "89","pId" : "5","name" : "FRYS.COM"}, 
{"id" : "90","pId" : "5","name" : "GOLDEN_STATE"}, 
{"id" : "91","pId" : "5","name" : "HD"}, 
{"id" : "92","pId" : "5","name" : "HHG"}, 
{"id" : "93","pId" : "5","name" : "HOUSTON"}, 
{"id" : "94","pId" : "5","name" : "INGRAM"}, 
{"id" : "95","pId" : "5","name" : "INTEGRA"}, 
{"id" : "96","pId" : "5","name" : "KMART"}, 
{"id" : "97","pId" : "5","name" : "KODIAK"}, 
{"id" : "98","pId" : "5","name" : "KOHLS"}, 
{"id" : "99","pId" : "5","name" : "LABCLE0003"}, 
{"id" : "100","pId" : "5","name" : "MA_LABS"}, 
{"id" : "101","pId" : "5","name" : "MAGNELL"}, 
{"id" : "102","pId" : "5","name" : "MAX"}, 
{"id" : "103","pId" : "5","name" : "MEIJER"}, 
{"id" : "104","pId" : "5","name" : "MEMORY"}, 
{"id" : "105","pId" : "5","name" : "METLINK"}, 
{"id" : "106","pId" : "5","name" : "MICRO_CENTER"}, 
{"id" : "107","pId" : "5","name" : "MICROSOFT"}, 
{"id" : "108","pId" : "5","name" : "MIQ"}, 
{"id" : "109","pId" : "5","name" : "MISSASSO1"}, 
{"id" : "110","pId" : "5","name" : "MITO"}, 
{"id" : "111","pId" : "5","name" : "NEWEGG"}, 
{"id" : "112","pId" : "5","name" : "NFM"}, 
{"id" : "113","pId" : "5","name" : "ONCORP"}, 
{"id" : "114","pId" : "5","name" : "PANSTAR"}, 
{"id" : "115","pId" : "5","name" : "PCRICH"}, 
{"id" : "116","pId" : "5","name" : "RUGG"}, 
{"id" : "117","pId" : "5","name" : "SAMS"}, 
{"id" : "118","pId" : "5","name" : "SEARS"}, 
{"id" : "119","pId" : "5","name" : "SGCOTT0001"}, 
{"id" : "120","pId" : "5","name" : "SHOPKO"}, 
{"id" : "121","pId" : "5","name" : "SOLEUS"}, 
{"id" : "122","pId" : "5","name" : "SYNNEX"}, 
{"id" : "123","pId" : "5","name" : "TARGET.COM"}, 
{"id" : "124","pId" : "5","name" : "TECHDATA"}, 
{"id" : "125","pId" : "5","name" : "TMS"}, 
{"id" : "126","pId" : "5","name" : "VEECO_WEST"}, 
{"id" : "127","pId" : "5","name" : "WM.COM"}, 
{"id" : "128","pId" : "5","name" : "WOOT"}, 
{"id" : "135","pId" : "5","name" : "DEFAULT_PACKAGING"}, 
{"id" : "6","pId" : "","name" : "返修仓库"}
]